"ID_PATIENT";"DATE_NAISSANCE";"SEXE";"VILLE";"CODE_POSTAL";"PAYS";"IPP_HOPITAL";"PROFESSION";"MEDECIN_TRAITANT";"DATE_DECES"
5842;NA;"M";NA;NA;NA;NA;NA;NA;NA
5844;NA;"M";NA;NA;NA;NA;NA;NA;NA
5843;NA;"M";NA;NA;NA;NA;NA;NA;NA
5846;NA;"F";NA;NA;NA;NA;NA;NA;NA
5848;NA;"M";NA;NA;NA;NA;NA;NA;NA
5851;NA;"M";NA;NA;NA;NA;NA;NA;NA
5852;NA;"F";NA;NA;NA;NA;NA;NA;NA
5856;NA;"F";NA;NA;NA;NA;NA;NA;NA
5861;NA;"F";NA;NA;NA;NA;NA;NA;NA
5862;NA;"M";NA;NA;NA;NA;NA;NA;NA
1052;NA;"M";NA;NA;NA;NA;NA;NA;NA
5863;NA;"F";NA;NA;NA;NA;NA;NA;NA
5866;NA;"M";NA;NA;NA;NA;NA;NA;NA
5867;NA;"M";NA;NA;NA;NA;NA;NA;NA
5868;NA;"F";NA;NA;NA;NA;NA;NA;NA
5869;NA;"M";NA;NA;NA;NA;NA;NA;NA
5870;NA;"M";NA;NA;NA;NA;NA;NA;NA
5875;NA;"M";NA;NA;NA;NA;NA;NA;NA
5874;NA;"F";NA;NA;NA;NA;NA;NA;NA
5881;NA;"M";NA;NA;NA;NA;NA;NA;NA
5878;NA;"F";NA;NA;NA;NA;NA;NA;NA
5882;NA;"F";NA;NA;NA;NA;NA;NA;NA
5880;NA;"M";NA;NA;NA;NA;NA;NA;NA
5885;NA;"M";NA;NA;NA;NA;NA;NA;NA
5883;NA;"M";NA;NA;NA;NA;NA;NA;NA
5886;NA;"M";NA;NA;NA;NA;NA;NA;NA
5890;NA;"M";NA;NA;NA;NA;NA;NA;NA
5887;NA;"M";NA;NA;NA;NA;NA;NA;NA
5888;NA;"M";NA;NA;NA;NA;NA;NA;NA
5892;NA;"F";NA;NA;NA;NA;NA;NA;NA
5893;NA;"M";NA;NA;NA;NA;NA;NA;NA
5896;NA;"M";NA;NA;NA;NA;NA;NA;NA
5895;NA;"F";NA;NA;NA;NA;NA;NA;NA
5982;NA;"M";NA;NA;NA;NA;NA;NA;NA
5967;NA;"F";NA;NA;NA;NA;NA;NA;NA
5959;NA;"F";NA;NA;NA;NA;NA;NA;NA
5944;NA;"F";NA;NA;NA;NA;NA;NA;NA
5920;NA;"M";NA;NA;NA;NA;NA;NA;NA
5916;NA;"M";NA;NA;NA;NA;NA;NA;NA
5949;NA;"M";NA;NA;NA;NA;NA;NA;NA
5934;NA;"M";NA;NA;NA;NA;NA;NA;NA
5969;NA;"M";NA;NA;NA;NA;NA;NA;NA
5936;NA;"M";NA;NA;NA;NA;NA;NA;NA
3302;NA;"F";NA;NA;NA;"P141";NA;NA;NA
5898;NA;"M";NA;NA;NA;NA;NA;NA;NA
5966;NA;"M";NA;NA;NA;NA;NA;NA;NA
5979;NA;"M";NA;NA;NA;NA;NA;NA;NA
5935;NA;"M";NA;NA;NA;NA;NA;NA;NA
5928;NA;"M";NA;NA;NA;NA;NA;NA;NA
3298;NA;"M";NA;NA;NA;"P137";NA;NA;NA
5906;NA;"M";NA;NA;NA;NA;NA;NA;NA
5925;NA;"M";NA;NA;NA;NA;NA;NA;NA
5939;NA;"M";NA;NA;NA;NA;NA;NA;NA
3199;NA;"F";NA;NA;NA;"P38";NA;NA;NA
5929;NA;"F";NA;NA;NA;NA;NA;NA;NA
5899;NA;"M";NA;NA;NA;NA;NA;NA;NA
5957;NA;"F";NA;NA;NA;NA;NA;NA;NA
5897;NA;"M";NA;NA;NA;NA;NA;NA;NA
5927;NA;"M";NA;NA;NA;NA;NA;NA;NA
5903;NA;"F";NA;NA;NA;NA;NA;NA;NA
5980;NA;"M";NA;NA;NA;NA;NA;NA;NA
5977;NA;"F";NA;NA;NA;NA;NA;NA;NA
5922;NA;"F";NA;NA;NA;NA;NA;NA;NA
5955;NA;"F";NA;NA;NA;NA;NA;NA;NA
5947;NA;"F";NA;NA;NA;NA;NA;NA;NA
5941;NA;"M";NA;NA;NA;NA;NA;NA;NA
5910;NA;"F";NA;NA;NA;NA;NA;NA;NA
5937;NA;"M";NA;NA;NA;NA;NA;NA;NA
5938;NA;"F";NA;NA;NA;NA;NA;NA;NA
5917;NA;"M";NA;NA;NA;NA;NA;NA;NA
5914;NA;"F";NA;NA;NA;NA;NA;NA;NA
5901;NA;"F";NA;NA;NA;NA;NA;NA;NA
5964;NA;"F";NA;NA;NA;NA;NA;NA;NA
5904;NA;"M";NA;NA;NA;NA;NA;NA;NA
5911;NA;"M";NA;NA;NA;NA;NA;NA;NA
5940;NA;"M";NA;NA;NA;NA;NA;NA;NA
5943;NA;"M";NA;NA;NA;NA;NA;NA;NA
5905;NA;"F";NA;NA;NA;NA;NA;NA;NA
5912;NA;"M";NA;NA;NA;NA;NA;NA;NA
5907;NA;"F";NA;NA;NA;NA;NA;NA;NA
5948;NA;"M";NA;NA;NA;NA;NA;NA;NA
5931;NA;"F";NA;NA;NA;NA;NA;NA;NA
5950;NA;"F";NA;NA;NA;NA;NA;NA;NA
5924;NA;"M";NA;NA;NA;NA;NA;NA;NA
5951;NA;"M";NA;NA;NA;NA;NA;NA;NA
5908;NA;"F";NA;NA;NA;NA;NA;NA;NA
5932;NA;"M";NA;NA;NA;NA;NA;NA;NA
5946;NA;"M";NA;NA;NA;NA;NA;NA;NA
5953;NA;"F";NA;NA;NA;NA;NA;NA;NA
5954;NA;"F";NA;NA;NA;NA;NA;NA;NA
5968;NA;"M";NA;NA;NA;NA;NA;NA;NA
5915;NA;"M";NA;NA;NA;NA;NA;NA;NA
5923;NA;"F";NA;NA;NA;NA;NA;NA;NA
5918;NA;"M";NA;NA;NA;NA;NA;NA;NA
5958;NA;"M";NA;NA;NA;NA;NA;NA;NA
5975;NA;"F";NA;NA;NA;NA;NA;NA;NA
5973;NA;"M";NA;NA;NA;NA;NA;NA;NA
5913;NA;"M";NA;NA;NA;NA;NA;NA;NA
5974;NA;"M";NA;NA;NA;NA;NA;NA;NA
1165;NA;"M";NA;NA;NA;NA;NA;NA;NA
5978;NA;"M";NA;NA;NA;NA;NA;NA;NA
5933;NA;"M";NA;NA;NA;NA;NA;NA;NA
5971;NA;"F";NA;NA;NA;NA;NA;NA;NA
5952;NA;"F";NA;NA;NA;NA;NA;NA;NA
5926;NA;"M";NA;NA;NA;NA;NA;NA;NA
5919;NA;"M";NA;NA;NA;NA;NA;NA;NA
5962;NA;"M";NA;NA;NA;NA;NA;NA;NA
5960;NA;"M";NA;NA;NA;NA;NA;NA;NA
5961;NA;"M";NA;NA;NA;NA;NA;NA;NA
6030;NA;"F";NA;NA;NA;NA;NA;NA;NA
6026;NA;"M";NA;NA;NA;NA;NA;NA;NA
6041;NA;"M";NA;NA;NA;NA;NA;NA;NA
6006;NA;"M";NA;NA;NA;NA;NA;NA;NA
6059;NA;"F";NA;NA;NA;NA;NA;NA;NA
6011;NA;"F";NA;NA;NA;NA;NA;NA;NA
6079;NA;"M";NA;NA;NA;NA;NA;NA;NA
6018;NA;"F";NA;NA;NA;NA;NA;NA;NA
5983;NA;"M";NA;NA;NA;NA;NA;NA;NA
6061;NA;"M";NA;NA;NA;NA;NA;NA;NA
6004;NA;"M";NA;NA;NA;NA;NA;NA;NA
5995;NA;"F";NA;NA;NA;NA;NA;NA;NA
5989;NA;"F";NA;NA;NA;NA;NA;NA;NA
6067;NA;"F";NA;NA;NA;NA;NA;NA;NA
6091;NA;"M";NA;NA;NA;NA;NA;NA;NA
6034;NA;"F";NA;NA;NA;NA;NA;NA;NA
6021;NA;"M";NA;NA;NA;NA;NA;NA;NA
5996;NA;"F";NA;NA;NA;NA;NA;NA;NA
6000;NA;"M";NA;NA;NA;NA;NA;NA;NA
6058;NA;"F";NA;NA;NA;NA;NA;NA;NA
5990;NA;"M";NA;NA;NA;NA;NA;NA;NA
6022;NA;"F";NA;NA;NA;NA;NA;NA;NA
6076;NA;"F";NA;NA;NA;NA;NA;NA;NA
6042;NA;"M";NA;NA;NA;NA;NA;NA;NA
6078;NA;"F";NA;NA;NA;NA;NA;NA;NA
6013;NA;"F";NA;NA;NA;NA;NA;NA;NA
6029;NA;"M";NA;NA;NA;NA;NA;NA;NA
5999;NA;"F";NA;NA;NA;NA;NA;NA;NA
6033;NA;"M";NA;NA;NA;NA;NA;NA;NA
6031;NA;"M";NA;NA;NA;NA;NA;NA;NA
6015;NA;"M";NA;NA;NA;NA;NA;NA;NA
6038;NA;"M";NA;NA;NA;NA;NA;NA;NA
6077;NA;"M";NA;NA;NA;NA;NA;NA;NA
6008;NA;"F";NA;NA;NA;NA;NA;NA;NA
6007;NA;"F";NA;NA;NA;NA;NA;NA;NA
1876;NA;"F";NA;NA;NA;NA;NA;NA;NA
6016;NA;"M";NA;NA;NA;NA;NA;NA;NA
6010;NA;"M";NA;NA;NA;NA;NA;NA;NA
6070;NA;"M";NA;NA;NA;NA;NA;NA;NA
6017;NA;"F";NA;NA;NA;NA;NA;NA;NA
5987;NA;"F";NA;NA;NA;NA;NA;NA;NA
6002;NA;"F";NA;NA;NA;NA;NA;NA;NA
6014;NA;"M";NA;NA;NA;NA;NA;NA;NA
2339;NA;"F";NA;NA;NA;NA;NA;NA;NA
6027;NA;"M";NA;NA;NA;NA;NA;NA;NA
2341;NA;"M";NA;NA;NA;NA;NA;NA;NA
1864;NA;"M";NA;NA;NA;NA;NA;NA;NA
6047;NA;"M";NA;NA;NA;NA;NA;NA;NA
1361;NA;"M";NA;NA;NA;NA;NA;NA;NA
1495;NA;"F";NA;NA;NA;NA;NA;NA;NA
6028;NA;"F";NA;NA;NA;NA;NA;NA;NA
6009;NA;"M";NA;NA;NA;NA;NA;NA;NA
6051;NA;"M";NA;NA;NA;NA;NA;NA;NA
6052;NA;"F";NA;NA;NA;NA;NA;NA;NA
6071;NA;"M";NA;NA;NA;NA;NA;NA;NA
6072;NA;"F";NA;NA;NA;NA;NA;NA;NA
6025;NA;"M";NA;NA;NA;NA;NA;NA;NA
6073;NA;"F";NA;NA;NA;NA;NA;NA;NA
5994;NA;"M";NA;NA;NA;NA;NA;NA;NA
1476;NA;"M";NA;NA;NA;NA;NA;NA;NA
1235;NA;"M";NA;NA;NA;NA;NA;NA;NA
1779;NA;"M";NA;NA;NA;NA;NA;NA;NA
6019;NA;"F";NA;NA;NA;NA;NA;NA;NA
2170;NA;"M";NA;NA;NA;NA;NA;NA;NA
6037;NA;"M";NA;NA;NA;NA;NA;NA;NA
6040;NA;"F";NA;NA;NA;NA;NA;NA;NA
6012;NA;"M";NA;NA;NA;NA;NA;NA;NA
5991;NA;"F";NA;NA;NA;NA;NA;NA;NA
2299;NA;"F";NA;NA;NA;NA;NA;NA;NA
6043;NA;"F";NA;NA;NA;NA;NA;NA;NA
1673;NA;"F";NA;NA;NA;NA;NA;NA;NA
6045;NA;"F";NA;NA;NA;NA;NA;NA;NA
6035;NA;"M";NA;NA;NA;NA;NA;NA;NA
6003;NA;"F";NA;NA;NA;NA;NA;NA;NA
5984;NA;"M";NA;NA;NA;NA;NA;NA;NA
2650;NA;"F";NA;NA;NA;NA;NA;NA;NA
6048;NA;"M";NA;NA;NA;NA;NA;NA;NA
1835;NA;"M";NA;NA;NA;NA;NA;NA;NA
6062;NA;"F";NA;NA;NA;NA;NA;NA;NA
2580;NA;"F";NA;NA;NA;NA;NA;NA;NA
6005;NA;"M";NA;NA;NA;NA;NA;NA;NA
1797;NA;"M";NA;NA;NA;NA;NA;NA;NA
6046;NA;"F";NA;NA;NA;NA;NA;NA;NA
6063;NA;"F";NA;NA;NA;NA;NA;NA;NA
6064;NA;"F";NA;NA;NA;NA;NA;NA;NA
5986;NA;"F";NA;NA;NA;NA;NA;NA;NA
2586;NA;"F";NA;NA;NA;NA;NA;NA;NA
2587;NA;"F";NA;NA;NA;NA;NA;NA;NA
6023;NA;"F";NA;NA;NA;NA;NA;NA;NA
6024;NA;"M";NA;NA;NA;NA;NA;NA;NA
6020;NA;"M";NA;NA;NA;NA;NA;NA;NA
3468;NA;"M";NA;NA;NA;"P307";NA;NA;NA
5998;NA;"M";NA;NA;NA;NA;NA;NA;NA
5992;NA;"F";NA;NA;NA;NA;NA;NA;NA
6001;NA;"M";NA;NA;NA;NA;NA;NA;NA
6080;NA;"F";NA;NA;NA;NA;NA;NA;NA
1764;NA;"F";NA;NA;NA;NA;NA;NA;NA
1705;NA;"F";NA;NA;NA;NA;NA;NA;NA
6074;NA;"F";NA;NA;NA;NA;NA;NA;NA
6054;NA;"M";NA;NA;NA;NA;NA;NA;NA
5988;NA;"M";NA;NA;NA;NA;NA;NA;NA
2369;NA;"F";NA;NA;NA;NA;NA;NA;NA
6039;NA;"M";NA;NA;NA;NA;NA;NA;NA
6090;NA;"M";NA;NA;NA;NA;NA;NA;NA
2697;NA;"F";NA;NA;NA;NA;NA;NA;NA
2630;NA;"M";NA;NA;NA;NA;NA;NA;NA
6075;NA;"F";NA;NA;NA;NA;NA;NA;NA
2631;NA;"M";NA;NA;NA;NA;NA;NA;NA
6065;NA;"F";NA;NA;NA;NA;NA;NA;NA
5997;NA;"M";NA;NA;NA;NA;NA;NA;NA
2635;NA;"M";NA;NA;NA;NA;NA;NA;NA
6089;NA;"M";NA;NA;NA;NA;NA;NA;NA
6053;NA;"M";NA;NA;NA;NA;NA;NA;NA
1514;NA;"F";NA;NA;NA;NA;NA;NA;NA
1515;NA;"F";NA;NA;NA;NA;NA;NA;NA
1583;NA;"F";NA;NA;NA;NA;NA;NA;NA
5993;NA;"M";NA;NA;NA;NA;NA;NA;NA
2608;NA;"F";NA;NA;NA;NA;NA;NA;NA
2610;NA;"F";NA;NA;NA;NA;NA;NA;NA
2611;NA;"F";NA;NA;NA;NA;NA;NA;NA
2612;NA;"F";NA;NA;NA;NA;NA;NA;NA
6068;NA;"F";NA;NA;NA;NA;NA;NA;NA
2613;NA;"F";NA;NA;NA;NA;NA;NA;NA
6066;NA;"F";NA;NA;NA;NA;NA;NA;NA
2414;NA;"F";NA;NA;NA;NA;NA;NA;NA
6087;NA;"M";NA;NA;NA;NA;NA;NA;NA
2545;NA;"F";NA;NA;NA;NA;NA;NA;NA
2550;NA;"F";NA;NA;NA;NA;NA;NA;NA
3546;NA;"M";NA;NA;NA;"P385";NA;NA;NA
6088;NA;"M";NA;NA;NA;NA;NA;NA;NA
6049;NA;"M";NA;NA;NA;NA;NA;NA;NA
2755;NA;"M";NA;NA;NA;NA;NA;NA;NA
6069;NA;"M";NA;NA;NA;NA;NA;NA;NA
2672;NA;"F";NA;NA;NA;NA;NA;NA;NA
6081;NA;"M";NA;NA;NA;NA;NA;NA;NA
6050;NA;"F";NA;NA;NA;NA;NA;NA;NA
6085;NA;"M";NA;NA;NA;NA;NA;NA;NA
2454;NA;"F";NA;NA;NA;NA;NA;NA;NA
6055;NA;"F";NA;NA;NA;NA;NA;NA;NA
6056;NA;"F";NA;NA;NA;NA;NA;NA;NA
6060;NA;"M";NA;NA;NA;NA;NA;NA;NA
2518;NA;"F";NA;NA;NA;NA;NA;NA;NA
6057;NA;"F";NA;NA;NA;NA;NA;NA;NA
2729;NA;"M";NA;NA;NA;NA;NA;NA;NA
6083;NA;"F";NA;NA;NA;NA;NA;NA;NA
6086;NA;"F";NA;NA;NA;NA;NA;NA;NA
3680;NA;"F";NA;NA;NA;"P519";NA;NA;NA
6242;NA;"F";NA;NA;NA;NA;NA;NA;NA
3681;NA;"M";NA;NA;NA;"P520";NA;NA;NA
6335;NA;"F";NA;NA;NA;NA;NA;NA;NA
6243;NA;"F";NA;NA;NA;NA;NA;NA;NA
6244;NA;"F";NA;NA;NA;NA;NA;NA;NA
6299;NA;"M";NA;NA;NA;NA;NA;NA;NA
6357;NA;"M";NA;NA;NA;NA;NA;NA;NA
2908;NA;"F";NA;NA;NA;NA;NA;NA;NA
6152;NA;"M";NA;NA;NA;NA;NA;NA;NA
2909;NA;"F";NA;NA;NA;NA;NA;NA;NA
2910;NA;"F";NA;NA;NA;NA;NA;NA;NA
2852;NA;"M";NA;NA;NA;NA;NA;NA;NA
2913;NA;"F";NA;NA;NA;NA;NA;NA;NA
6412;NA;"M";NA;NA;NA;NA;NA;NA;NA
4358;NA;"F";NA;NA;NA;"P1197";NA;NA;NA
6278;NA;"M";NA;NA;NA;NA;NA;NA;NA
4361;NA;"F";NA;NA;NA;"P1200";NA;NA;NA
6279;NA;"M";NA;NA;NA;NA;NA;NA;NA
3015;NA;"M";NA;NA;NA;NA;NA;NA;NA
3101;NA;"F";NA;NA;NA;NA;NA;NA;NA
2835;NA;"M";NA;NA;NA;NA;NA;NA;NA
6130;NA;"F";NA;NA;NA;NA;NA;NA;NA
6865;NA;"F";NA;NA;NA;NA;NA;NA;NA
3143;NA;"F";NA;NA;NA;NA;NA;NA;NA
3151;NA;"F";NA;NA;NA;NA;NA;NA;NA
6874;NA;"F";NA;NA;NA;NA;NA;NA;NA
3152;NA;"F";NA;NA;NA;NA;NA;NA;NA
5834;NA;"F";NA;NA;NA;"P2673";NA;NA;NA
3153;NA;"F";NA;NA;NA;NA;NA;NA;NA
2885;NA;"F";NA;NA;NA;NA;NA;NA;NA
3154;NA;"F";NA;NA;NA;NA;NA;NA;NA
6875;NA;"F";NA;NA;NA;NA;NA;NA;NA
6185;NA;"F";NA;NA;NA;NA;NA;NA;NA
3156;NA;"F";NA;NA;NA;NA;NA;NA;NA
6876;NA;"F";NA;NA;NA;NA;NA;NA;NA
5838;NA;"M";NA;NA;NA;"P2677";NA;NA;NA
6110;NA;"F";NA;NA;NA;NA;NA;NA;NA
6483;NA;"M";NA;NA;NA;NA;NA;NA;NA
4795;NA;"F";NA;NA;NA;"P1634";NA;NA;NA
2948;NA;"F";NA;NA;NA;NA;NA;NA;NA
3160;NA;"M";NA;NA;NA;NA;NA;NA;NA
2949;NA;"F";NA;NA;NA;NA;NA;NA;NA
2870;NA;"F";NA;NA;NA;NA;NA;NA;NA
6461;NA;"F";NA;NA;NA;NA;NA;NA;NA
2950;NA;"F";NA;NA;NA;NA;NA;NA;NA
2951;NA;"F";NA;NA;NA;NA;NA;NA;NA
3077;NA;"F";NA;NA;NA;NA;NA;NA;NA
6336;NA;"F";NA;NA;NA;NA;NA;NA;NA
2961;NA;"F";NA;NA;NA;NA;NA;NA;NA
6186;NA;"M";NA;NA;NA;NA;NA;NA;NA
2962;NA;"F";NA;NA;NA;NA;NA;NA;NA
6337;NA;"F";NA;NA;NA;NA;NA;NA;NA
6358;NA;"M";NA;NA;NA;NA;NA;NA;NA
6338;NA;"F";NA;NA;NA;NA;NA;NA;NA
2990;NA;"M";NA;NA;NA;NA;NA;NA;NA
6707;NA;"F";NA;NA;NA;NA;NA;NA;NA
4961;NA;"F";NA;NA;NA;"P1800";NA;NA;NA
6513;NA;"F";NA;NA;NA;NA;NA;NA;NA
6514;NA;"F";NA;NA;NA;NA;NA;NA;NA
6837;NA;"M";NA;NA;NA;NA;NA;NA;NA
6120;NA;"M";NA;NA;NA;NA;NA;NA;NA
6121;NA;"F";NA;NA;NA;NA;NA;NA;NA
2822;NA;"F";NA;NA;NA;NA;NA;NA;NA
6669;NA;"F";NA;NA;NA;NA;NA;NA;NA
6866;NA;"M";NA;NA;NA;NA;NA;NA;NA
4249;NA;"F";NA;NA;NA;"P1088";NA;NA;NA
4250;NA;"F";NA;NA;NA;"P1089";NA;NA;NA
6822;NA;"F";NA;NA;NA;NA;NA;NA;NA
4251;NA;"M";NA;NA;NA;"P1090";NA;NA;NA
6823;NA;"M";NA;NA;NA;NA;NA;NA;NA
4252;NA;"M";NA;NA;NA;"P1091";NA;NA;NA
5324;NA;"F";NA;NA;NA;"P2163";NA;NA;NA
6725;NA;"F";NA;NA;NA;NA;NA;NA;NA
6122;NA;"M";NA;NA;NA;NA;NA;NA;NA
6123;NA;"M";NA;NA;NA;NA;NA;NA;NA
6636;NA;"F";NA;NA;NA;NA;NA;NA;NA
6637;NA;"F";NA;NA;NA;NA;NA;NA;NA
6112;NA;"M";NA;NA;NA;NA;NA;NA;NA
6168;NA;"F";NA;NA;NA;NA;NA;NA;NA
6113;NA;"F";NA;NA;NA;NA;NA;NA;NA
6114;NA;"M";NA;NA;NA;NA;NA;NA;NA
4168;NA;"M";NA;NA;NA;"P1007";NA;NA;NA
6734;NA;"F";NA;NA;NA;NA;NA;NA;NA
3779;NA;"F";NA;NA;NA;"P618";NA;NA;NA
6735;NA;"M";NA;NA;NA;NA;NA;NA;NA
6189;NA;"F";NA;NA;NA;NA;NA;NA;NA
5809;NA;"F";NA;NA;NA;"P2648";NA;NA;NA
5535;NA;"M";NA;NA;NA;"P2374";NA;NA;NA
3999;NA;"M";NA;NA;NA;"P838";NA;NA;NA
6726;NA;"F";NA;NA;NA;NA;NA;NA;NA
6727;NA;"F";NA;NA;NA;NA;NA;NA;NA
5532;NA;"M";NA;NA;NA;"P2371";NA;NA;NA
4000;NA;"M";NA;NA;NA;"P839";NA;NA;NA
5534;NA;"F";NA;NA;NA;"P2373";NA;NA;NA
5796;NA;"M";NA;NA;NA;"P2635";NA;NA;NA
6165;NA;"M";NA;NA;NA;NA;NA;NA;NA
5797;NA;"F";NA;NA;NA;"P2636";NA;NA;NA
5580;NA;"M";NA;NA;NA;"P2419";NA;NA;NA
5798;NA;"F";NA;NA;NA;"P2637";NA;NA;NA
6867;NA;"F";NA;NA;NA;NA;NA;NA;NA
6760;NA;"F";NA;NA;NA;NA;NA;NA;NA
5052;NA;"M";NA;NA;NA;"P1891";NA;NA;NA
6761;NA;"F";NA;NA;NA;NA;NA;NA;NA
5586;NA;"M";NA;NA;NA;"P2425";NA;NA;NA
6515;NA;"F";NA;NA;NA;NA;NA;NA;NA
6140;NA;"F";NA;NA;NA;NA;NA;NA;NA
6516;NA;"F";NA;NA;NA;NA;NA;NA;NA
4967;NA;"F";NA;NA;NA;"P1806";NA;NA;NA
4048;NA;"M";NA;NA;NA;"P887";NA;NA;NA
6115;NA;"M";NA;NA;NA;NA;NA;NA;NA
6116;NA;"M";NA;NA;NA;NA;NA;NA;NA
6517;NA;"F";NA;NA;NA;NA;NA;NA;NA
6169;NA;"M";NA;NA;NA;NA;NA;NA;NA
6117;NA;"M";NA;NA;NA;NA;NA;NA;NA
4222;NA;"M";NA;NA;NA;"P1061";NA;NA;NA
3856;NA;"M";NA;NA;NA;"P695";NA;NA;NA
4224;NA;"M";NA;NA;NA;"P1063";NA;NA;NA
5061;NA;"M";NA;NA;NA;"P1900";NA;NA;NA
4877;NA;"F";NA;NA;NA;"P1716";NA;NA;NA
4326;NA;"M";NA;NA;NA;"P1165";NA;NA;NA
5617;NA;"F";NA;NA;NA;"P2456";NA;NA;NA
5667;NA;"M";NA;NA;NA;"P2506";NA;NA;NA
6805;NA;"F";NA;NA;NA;NA;NA;NA;NA
6806;NA;"M";NA;NA;NA;NA;NA;NA;NA
5676;NA;"M";NA;NA;NA;"P2515";NA;NA;NA
4100;NA;"F";NA;NA;NA;"P939";NA;NA;NA
4173;NA;"M";NA;NA;NA;"P1012";NA;NA;NA
5677;NA;"F";NA;NA;NA;"P2516";NA;NA;NA
6807;NA;"F";NA;NA;NA;NA;NA;NA;NA
6808;NA;"M";NA;NA;NA;NA;NA;NA;NA
5678;NA;"F";NA;NA;NA;"P2517";NA;NA;NA
6175;NA;"M";NA;NA;NA;NA;NA;NA;NA
4101;NA;"M";NA;NA;NA;"P940";NA;NA;NA
6809;NA;"F";NA;NA;NA;NA;NA;NA;NA
6573;NA;"M";NA;NA;NA;NA;NA;NA;NA
5680;NA;"M";NA;NA;NA;"P2519";NA;NA;NA
6574;NA;"M";NA;NA;NA;NA;NA;NA;NA
5192;NA;"F";NA;NA;NA;"P2031";NA;NA;NA
5683;NA;"F";NA;NA;NA;"P2522";NA;NA;NA
5132;NA;"F";NA;NA;NA;"P1971";NA;NA;NA
3859;NA;"F";NA;NA;NA;"P698";NA;NA;NA
6810;NA;"F";NA;NA;NA;NA;NA;NA;NA
5684;NA;"F";NA;NA;NA;"P2523";NA;NA;NA
5735;NA;"F";NA;NA;NA;"P2574";NA;NA;NA
5736;NA;"M";NA;NA;NA;"P2575";NA;NA;NA
5738;NA;"F";NA;NA;NA;"P2577";NA;NA;NA
5195;NA;"F";NA;NA;NA;"P2034";NA;NA;NA
6553;NA;"F";NA;NA;NA;NA;NA;NA;NA
6786;NA;"M";NA;NA;NA;NA;NA;NA;NA
6292;NA;"M";NA;NA;NA;NA;NA;NA;NA
6413;NA;"M";NA;NA;NA;NA;NA;NA;NA
5633;NA;"F";NA;NA;NA;"P2472";NA;NA;NA
5436;NA;"M";NA;NA;NA;"P2275";NA;NA;NA
5438;NA;"F";NA;NA;NA;"P2277";NA;NA;NA
4738;NA;"M";NA;NA;NA;"P1577";NA;NA;NA
5638;NA;"M";NA;NA;NA;"P2477";NA;NA;NA
5639;NA;"F";NA;NA;NA;"P2478";NA;NA;NA
6868;NA;"M";NA;NA;NA;NA;NA;NA;NA
4741;NA;"F";NA;NA;NA;"P1580";NA;NA;NA
5641;NA;"F";NA;NA;NA;"P2480";NA;NA;NA
6787;NA;"F";NA;NA;NA;NA;NA;NA;NA
6462;NA;"M";NA;NA;NA;NA;NA;NA;NA
6788;NA;"F";NA;NA;NA;NA;NA;NA;NA
5642;NA;"F";NA;NA;NA;"P2481";NA;NA;NA
4743;NA;"M";NA;NA;NA;"P1582";NA;NA;NA
4744;NA;"M";NA;NA;NA;"P1583";NA;NA;NA
6869;NA;"F";NA;NA;NA;NA;NA;NA;NA
4746;NA;"M";NA;NA;NA;"P1585";NA;NA;NA
4749;NA;"M";NA;NA;NA;"P1588";NA;NA;NA
4813;NA;"F";NA;NA;NA;"P1652";NA;NA;NA
6789;NA;"F";NA;NA;NA;NA;NA;NA;NA
4814;NA;"F";NA;NA;NA;"P1653";NA;NA;NA
5377;NA;"F";NA;NA;NA;"P2216";NA;NA;NA
6790;NA;"F";NA;NA;NA;NA;NA;NA;NA
6389;NA;"F";NA;NA;NA;NA;NA;NA;NA
4815;NA;"M";NA;NA;NA;"P1654";NA;NA;NA
5063;NA;"F";NA;NA;NA;"P1902";NA;NA;NA
5644;NA;"M";NA;NA;NA;"P2483";NA;NA;NA
5645;NA;"F";NA;NA;NA;"P2484";NA;NA;NA
5064;NA;"M";NA;NA;NA;"P1903";NA;NA;NA
6477;NA;"M";NA;NA;NA;NA;NA;NA;NA
6478;NA;"F";NA;NA;NA;NA;NA;NA;NA
4818;NA;"M";NA;NA;NA;"P1657";NA;NA;NA
6425;NA;"M";NA;NA;NA;NA;NA;NA;NA
4820;NA;"F";NA;NA;NA;"P1659";NA;NA;NA
6479;NA;"F";NA;NA;NA;NA;NA;NA;NA
4681;NA;"F";NA;NA;NA;"P1520";NA;NA;NA
6093;NA;"M";NA;NA;NA;NA;NA;NA;NA
6414;NA;"F";NA;NA;NA;NA;NA;NA;NA
6443;NA;"F";NA;NA;NA;NA;NA;NA;NA
6861;NA;"M";NA;NA;NA;NA;NA;NA;NA
4008;NA;"M";NA;NA;NA;"P847";NA;NA;NA
6728;NA;"M";NA;NA;NA;NA;NA;NA;NA
6099;NA;"F";NA;NA;NA;NA;NA;NA;NA
6264;NA;"F";NA;NA;NA;NA;NA;NA;NA
6094;NA;"F";NA;NA;NA;NA;NA;NA;NA
6100;NA;"M";NA;NA;NA;NA;NA;NA;NA
6480;NA;"F";NA;NA;NA;NA;NA;NA;NA
4854;NA;"M";NA;NA;NA;"P1693";NA;NA;NA
5814;NA;"M";NA;NA;NA;"P2653";NA;NA;NA
3717;NA;"M";NA;NA;NA;"P556";NA;NA;NA
4857;NA;"M";NA;NA;NA;"P1696";NA;NA;NA
6603;NA;"F";NA;NA;NA;NA;NA;NA;NA
6862;NA;"F";NA;NA;NA;NA;NA;NA;NA
6104;NA;"F";NA;NA;NA;NA;NA;NA;NA
4012;NA;"M";NA;NA;NA;"P851";NA;NA;NA
5259;NA;"M";NA;NA;NA;"P2098";NA;NA;NA
5779;NA;"F";NA;NA;NA;"P2618";NA;NA;NA
4862;NA;"F";NA;NA;NA;"P1701";NA;NA;NA
6486;NA;"F";NA;NA;NA;NA;NA;NA;NA
6604;NA;"M";NA;NA;NA;NA;NA;NA;NA
6176;NA;"F";NA;NA;NA;NA;NA;NA;NA
6187;NA;"F";NA;NA;NA;NA;NA;NA;NA
6177;NA;"M";NA;NA;NA;NA;NA;NA;NA
6863;NA;"F";NA;NA;NA;NA;NA;NA;NA
5652;NA;"M";NA;NA;NA;"P2491";NA;NA;NA
4136;NA;"F";NA;NA;NA;"P975";NA;NA;NA
4137;NA;"M";NA;NA;NA;"P976";NA;NA;NA
4283;NA;"F";NA;NA;NA;"P1122";NA;NA;NA
3829;NA;"F";NA;NA;NA;"P668";NA;NA;NA
6554;NA;"F";NA;NA;NA;NA;NA;NA;NA
5495;NA;"F";NA;NA;NA;"P2334";NA;NA;NA
5496;NA;"M";NA;NA;NA;"P2335";NA;NA;NA
6718;NA;"F";NA;NA;NA;NA;NA;NA;NA
6719;NA;"F";NA;NA;NA;NA;NA;NA;NA
5497;NA;"F";NA;NA;NA;"P2336";NA;NA;NA
6528;NA;"F";NA;NA;NA;NA;NA;NA;NA
6824;NA;"F";NA;NA;NA;NA;NA;NA;NA
4822;NA;"M";NA;NA;NA;"P1661";NA;NA;NA
6518;NA;"M";NA;NA;NA;NA;NA;NA;NA
6481;NA;"F";NA;NA;NA;NA;NA;NA;NA
6482;NA;"F";NA;NA;NA;NA;NA;NA;NA
6811;NA;"F";NA;NA;NA;NA;NA;NA;NA
3658;NA;"M";NA;NA;NA;"P497";NA;NA;NA
6118;NA;"F";NA;NA;NA;NA;NA;NA;NA
5687;NA;"F";NA;NA;NA;"P2526";NA;NA;NA
4830;NA;"M";NA;NA;NA;"P1669";NA;NA;NA
6859;NA;"F";NA;NA;NA;NA;NA;NA;NA
6812;NA;"F";NA;NA;NA;NA;NA;NA;NA
4642;NA;"M";NA;NA;NA;"P1481";NA;NA;NA
6101;NA;"M";NA;NA;NA;NA;NA;NA;NA
3739;NA;"F";NA;NA;NA;"P578";NA;NA;NA
6102;NA;"M";NA;NA;NA;NA;NA;NA;NA
6159;NA;"M";NA;NA;NA;NA;NA;NA;NA
3958;NA;"M";NA;NA;NA;"P797";NA;NA;NA
3740;NA;"F";NA;NA;NA;"P579";NA;NA;NA
5769;NA;"M";NA;NA;NA;"P2608";NA;NA;NA
3730;NA;"M";NA;NA;NA;"P569";NA;NA;NA
6860;NA;"F";NA;NA;NA;NA;NA;NA;NA
6103;NA;"M";NA;NA;NA;NA;NA;NA;NA
3741;NA;"M";NA;NA;NA;"P580";NA;NA;NA
3784;NA;"M";NA;NA;NA;"P623";NA;NA;NA
5269;NA;"F";NA;NA;NA;"P2108";NA;NA;NA
3785;NA;"F";NA;NA;NA;"P624";NA;NA;NA
6606;NA;"M";NA;NA;NA;NA;NA;NA;NA
3786;NA;"M";NA;NA;NA;"P625";NA;NA;NA
5337;NA;"M";NA;NA;NA;"P2176";NA;NA;NA
4897;NA;"F";NA;NA;NA;"P1736";NA;NA;NA
6316;NA;"M";NA;NA;NA;NA;NA;NA;NA
3964;NA;"M";NA;NA;NA;"P803";NA;NA;NA
4899;NA;"M";NA;NA;NA;"P1738";NA;NA;NA
3965;NA;"F";NA;NA;NA;"P804";NA;NA;NA
6095;NA;"F";NA;NA;NA;NA;NA;NA;NA
4900;NA;"M";NA;NA;NA;"P1739";NA;NA;NA
3790;NA;"M";NA;NA;NA;"P629";NA;NA;NA
6638;NA;"M";NA;NA;NA;NA;NA;NA;NA
6293;NA;"F";NA;NA;NA;NA;NA;NA;NA
6672;NA;"F";NA;NA;NA;NA;NA;NA;NA
3793;NA;"F";NA;NA;NA;"P632";NA;NA;NA
4846;NA;"M";NA;NA;NA;"P1685";NA;NA;NA
6484;NA;"F";NA;NA;NA;NA;NA;NA;NA
6230;NA;"M";NA;NA;NA;NA;NA;NA;NA
4847;NA;"F";NA;NA;NA;"P1686";NA;NA;NA
6485;NA;"F";NA;NA;NA;NA;NA;NA;NA
6720;NA;"F";NA;NA;NA;NA;NA;NA;NA
4778;NA;"F";NA;NA;NA;"P1617";NA;NA;NA
4848;NA;"M";NA;NA;NA;"P1687";NA;NA;NA
6721;NA;"F";NA;NA;NA;NA;NA;NA;NA
6119;NA;"F";NA;NA;NA;NA;NA;NA;NA
4849;NA;"F";NA;NA;NA;"P1688";NA;NA;NA
6729;NA;"M";NA;NA;NA;NA;NA;NA;NA
5380;NA;"M";NA;NA;NA;"P2219";NA;NA;NA
6463;NA;"M";NA;NA;NA;NA;NA;NA;NA
6730;NA;"F";NA;NA;NA;NA;NA;NA;NA
5540;NA;"F";NA;NA;NA;"P2379";NA;NA;NA
4902;NA;"M";NA;NA;NA;"P1741";NA;NA;NA
6464;NA;"F";NA;NA;NA;NA;NA;NA;NA
6495;NA;"M";NA;NA;NA;NA;NA;NA;NA
6210;NA;"F";NA;NA;NA;NA;NA;NA;NA
6575;NA;"M";NA;NA;NA;NA;NA;NA;NA
4602;NA;"M";NA;NA;NA;"P1441";NA;NA;NA
4905;NA;"M";NA;NA;NA;"P1744";NA;NA;NA
3743;NA;"F";NA;NA;NA;"P582";NA;NA;NA
4906;NA;"M";NA;NA;NA;"P1745";NA;NA;NA
6105;NA;"F";NA;NA;NA;NA;NA;NA;NA
4907;NA;"F";NA;NA;NA;"P1746";NA;NA;NA
6503;NA;"M";NA;NA;NA;NA;NA;NA;NA
6496;NA;"F";NA;NA;NA;NA;NA;NA;NA
3744;NA;"M";NA;NA;NA;"P583";NA;NA;NA
6373;NA;"F";NA;NA;NA;NA;NA;NA;NA
6504;NA;"F";NA;NA;NA;NA;NA;NA;NA
6497;NA;"M";NA;NA;NA;NA;NA;NA;NA
3746;NA;"F";NA;NA;NA;"P585";NA;NA;NA
6670;NA;"F";NA;NA;NA;NA;NA;NA;NA
6131;NA;"F";NA;NA;NA;NA;NA;NA;NA
6106;NA;"F";NA;NA;NA;NA;NA;NA;NA
5407;NA;"F";NA;NA;NA;"P2246";NA;NA;NA
6132;NA;"F";NA;NA;NA;NA;NA;NA;NA
3748;NA;"M";NA;NA;NA;"P587";NA;NA;NA
6133;NA;"F";NA;NA;NA;NA;NA;NA;NA
6505;NA;"F";NA;NA;NA;NA;NA;NA;NA
6134;NA;"F";NA;NA;NA;NA;NA;NA;NA
6211;NA;"F";NA;NA;NA;NA;NA;NA;NA
4910;NA;"F";NA;NA;NA;"P1749";NA;NA;NA
5410;NA;"M";NA;NA;NA;"P2249";NA;NA;NA
3873;NA;"M";NA;NA;NA;"P712";NA;NA;NA
6671;NA;"F";NA;NA;NA;NA;NA;NA;NA
6465;NA;"M";NA;NA;NA;NA;NA;NA;NA
3877;NA;"F";NA;NA;NA;"P716";NA;NA;NA
5412;NA;"M";NA;NA;NA;"P2251";NA;NA;NA
4259;NA;"F";NA;NA;NA;"P1098";NA;NA;NA
6135;NA;"M";NA;NA;NA;NA;NA;NA;NA
6864;NA;"F";NA;NA;NA;NA;NA;NA;NA
3669;NA;"M";NA;NA;NA;"P508";NA;NA;NA
6231;NA;"F";NA;NA;NA;NA;NA;NA;NA
4782;NA;"M";NA;NA;NA;"P1621";NA;NA;NA
6466;NA;"F";NA;NA;NA;NA;NA;NA;NA
6137;NA;"M";NA;NA;NA;NA;NA;NA;NA
6736;NA;"F";NA;NA;NA;NA;NA;NA;NA
6541;NA;"M";NA;NA;NA;NA;NA;NA;NA
5381;NA;"F";NA;NA;NA;"P2220";NA;NA;NA
6097;NA;"F";NA;NA;NA;NA;NA;NA;NA
6232;NA;"F";NA;NA;NA;NA;NA;NA;NA
6737;NA;"F";NA;NA;NA;NA;NA;NA;NA
5382;NA;"M";NA;NA;NA;"P2221";NA;NA;NA
4262;NA;"F";NA;NA;NA;"P1101";NA;NA;NA
3672;NA;"M";NA;NA;NA;"P511";NA;NA;NA
6098;NA;"F";NA;NA;NA;NA;NA;NA;NA
6660;NA;"M";NA;NA;NA;NA;NA;NA;NA
6153;NA;"F";NA;NA;NA;NA;NA;NA;NA
3677;NA;"F";NA;NA;NA;"P516";NA;NA;NA
6506;NA;"F";NA;NA;NA;NA;NA;NA;NA
6661;NA;"M";NA;NA;NA;NA;NA;NA;NA
3931;NA;"F";NA;NA;NA;"P770";NA;NA;NA
6154;NA;"M";NA;NA;NA;NA;NA;NA;NA
6212;NA;"F";NA;NA;NA;NA;NA;NA;NA
5386;NA;"M";NA;NA;NA;"P2225";NA;NA;NA
5387;NA;"F";NA;NA;NA;"P2226";NA;NA;NA
6662;NA;"M";NA;NA;NA;NA;NA;NA;NA
6155;NA;"M";NA;NA;NA;NA;NA;NA;NA
6663;NA;"M";NA;NA;NA;NA;NA;NA;NA
5301;NA;"M";NA;NA;NA;"P2140";NA;NA;NA
6156;NA;"F";NA;NA;NA;NA;NA;NA;NA
6157;NA;"F";NA;NA;NA;NA;NA;NA;NA
3936;NA;"M";NA;NA;NA;"P775";NA;NA;NA
3937;NA;"F";NA;NA;NA;"P776";NA;NA;NA
6107;NA;"M";NA;NA;NA;NA;NA;NA;NA
6870;NA;"F";NA;NA;NA;NA;NA;NA;NA
6587;NA;"M";NA;NA;NA;NA;NA;NA;NA
6538;NA;"F";NA;NA;NA;NA;NA;NA;NA
5821;NA;"F";NA;NA;NA;"P2660";NA;NA;NA
5244;NA;"M";NA;NA;NA;"P2083";NA;NA;NA
3762;NA;"M";NA;NA;NA;"P601";NA;NA;NA
3939;NA;"M";NA;NA;NA;"P778";NA;NA;NA
6498;NA;"M";NA;NA;NA;NA;NA;NA;NA
3763;NA;"F";NA;NA;NA;"P602";NA;NA;NA
3940;NA;"M";NA;NA;NA;"P779";NA;NA;NA
6499;NA;"F";NA;NA;NA;NA;NA;NA;NA
6871;NA;"M";NA;NA;NA;NA;NA;NA;NA
6108;NA;"F";NA;NA;NA;NA;NA;NA;NA
3765;NA;"M";NA;NA;NA;"P604";NA;NA;NA
5822;NA;"F";NA;NA;NA;"P2661";NA;NA;NA
3767;NA;"F";NA;NA;NA;"P606";NA;NA;NA
6109;NA;"F";NA;NA;NA;NA;NA;NA;NA
5823;NA;"M";NA;NA;NA;"P2662";NA;NA;NA
3831;NA;"M";NA;NA;NA;"P670";NA;NA;NA
3833;NA;"F";NA;NA;NA;"P672";NA;NA;NA
6124;NA;"F";NA;NA;NA;NA;NA;NA;NA
5826;NA;"M";NA;NA;NA;"P2665";NA;NA;NA
6125;NA;"F";NA;NA;NA;NA;NA;NA;NA
6500;NA;"F";NA;NA;NA;NA;NA;NA;NA
6588;NA;"F";NA;NA;NA;NA;NA;NA;NA
4912;NA;"M";NA;NA;NA;"P1751";NA;NA;NA
5827;NA;"F";NA;NA;NA;"P2666";NA;NA;NA
6158;NA;"M";NA;NA;NA;NA;NA;NA;NA
3838;NA;"M";NA;NA;NA;"P677";NA;NA;NA
3839;NA;"F";NA;NA;NA;"P678";NA;NA;NA
6126;NA;"F";NA;NA;NA;NA;NA;NA;NA
5830;NA;"M";NA;NA;NA;"P2669";NA;NA;NA
6519;NA;"M";NA;NA;NA;NA;NA;NA;NA
3840;NA;"M";NA;NA;NA;"P679";NA;NA;NA
6166;NA;"F";NA;NA;NA;NA;NA;NA;NA
4982;NA;"F";NA;NA;NA;"P1821";NA;NA;NA
5831;NA;"F";NA;NA;NA;"P2670";NA;NA;NA
6127;NA;"F";NA;NA;NA;NA;NA;NA;NA
6128;NA;"F";NA;NA;NA;NA;NA;NA;NA
6129;NA;"F";NA;NA;NA;NA;NA;NA;NA
6872;NA;"F";NA;NA;NA;NA;NA;NA;NA
3908;NA;"F";NA;NA;NA;"P747";NA;NA;NA
3909;NA;"M";NA;NA;NA;"P748";NA;NA;NA
3910;NA;"M";NA;NA;NA;"P749";NA;NA;NA
6873;NA;"F";NA;NA;NA;NA;NA;NA;NA
6141;NA;"M";NA;NA;NA;NA;NA;NA;NA
3911;NA;"F";NA;NA;NA;"P750";NA;NA;NA
6142;NA;"F";NA;NA;NA;NA;NA;NA;NA
6143;NA;"M";NA;NA;NA;NA;NA;NA;NA
6468;NA;"M";NA;NA;NA;NA;NA;NA;NA
6144;NA;"M";NA;NA;NA;NA;NA;NA;NA
6145;NA;"F";NA;NA;NA;NA;NA;NA;NA
4790;NA;"F";NA;NA;NA;"P1629";NA;NA;NA
3915;NA;"M";NA;NA;NA;"P754";NA;NA;NA
4805;NA;"F";NA;NA;NA;"P1644";NA;NA;NA
6146;NA;"F";NA;NA;NA;NA;NA;NA;NA
6147;NA;"M";NA;NA;NA;NA;NA;NA;NA
3917;NA;"F";NA;NA;NA;"P756";NA;NA;NA
6148;NA;"F";NA;NA;NA;NA;NA;NA;NA
6149;NA;"F";NA;NA;NA;NA;NA;NA;NA
4806;NA;"M";NA;NA;NA;"P1645";NA;NA;NA
6150;NA;"M";NA;NA;NA;NA;NA;NA;NA
3918;NA;"M";NA;NA;NA;"P757";NA;NA;NA
4020;NA;"M";NA;NA;NA;"P859";NA;NA;NA
6151;NA;"F";NA;NA;NA;NA;NA;NA;NA
3920;NA;"F";NA;NA;NA;"P759";NA;NA;NA
3921;NA;"M";NA;NA;NA;"P760";NA;NA;NA
3972;NA;"M";NA;NA;NA;"P811";NA;NA;NA
4791;NA;"M";NA;NA;NA;"P1630";NA;NA;NA
6160;NA;"F";NA;NA;NA;NA;NA;NA;NA
3977;NA;"F";NA;NA;NA;"P816";NA;NA;NA
3978;NA;"M";NA;NA;NA;"P817";NA;NA;NA
6472;NA;"F";NA;NA;NA;NA;NA;NA;NA
6520;NA;"F";NA;NA;NA;NA;NA;NA;NA
3979;NA;"F";NA;NA;NA;"P818";NA;NA;NA
6161;NA;"M";NA;NA;NA;NA;NA;NA;NA
3981;NA;"M";NA;NA;NA;"P820";NA;NA;NA
6469;NA;"F";NA;NA;NA;NA;NA;NA;NA
3983;NA;"F";NA;NA;NA;"P822";NA;NA;NA
6473;NA;"M";NA;NA;NA;NA;NA;NA;NA
3985;NA;"F";NA;NA;NA;"P824";NA;NA;NA
3986;NA;"F";NA;NA;NA;"P825";NA;NA;NA
3989;NA;"F";NA;NA;NA;"P828";NA;NA;NA
6474;NA;"F";NA;NA;NA;NA;NA;NA;NA
4792;NA;"M";NA;NA;NA;"P1631";NA;NA;NA
6162;NA;"F";NA;NA;NA;NA;NA;NA;NA
6163;NA;"F";NA;NA;NA;NA;NA;NA;NA
6164;NA;"F";NA;NA;NA;NA;NA;NA;NA
4066;NA;"M";NA;NA;NA;"P905";NA;NA;NA
6475;NA;"F";NA;NA;NA;NA;NA;NA;NA
6470;NA;"M";NA;NA;NA;NA;NA;NA;NA
6471;NA;"M";NA;NA;NA;NA;NA;NA;NA
4807;NA;"F";NA;NA;NA;"P1646";NA;NA;NA
4864;NA;"M";NA;NA;NA;"P1703";NA;NA;NA
6521;NA;"M";NA;NA;NA;NA;NA;NA;NA
4073;NA;"F";NA;NA;NA;"P912";NA;NA;NA
6170;NA;"F";NA;NA;NA;NA;NA;NA;NA
6171;NA;"M";NA;NA;NA;NA;NA;NA;NA
6172;NA;"F";NA;NA;NA;NA;NA;NA;NA
4075;NA;"F";NA;NA;NA;"P914";NA;NA;NA
4025;NA;"F";NA;NA;NA;"P864";NA;NA;NA
6173;NA;"F";NA;NA;NA;NA;NA;NA;NA
6507;NA;"F";NA;NA;NA;NA;NA;NA;NA
6476;NA;"F";NA;NA;NA;NA;NA;NA;NA
4027;NA;"F";NA;NA;NA;"P866";NA;NA;NA
4028;NA;"F";NA;NA;NA;"P867";NA;NA;NA
6174;NA;"M";NA;NA;NA;NA;NA;NA;NA
4083;NA;"M";NA;NA;NA;"P922";NA;NA;NA
4031;NA;"F";NA;NA;NA;"P870";NA;NA;NA
5458;NA;"M";NA;NA;NA;"P2297";NA;NA;NA
4143;NA;"M";NA;NA;NA;"P982";NA;NA;NA
6167;NA;"F";NA;NA;NA;NA;NA;NA;NA
4991;NA;"F";NA;NA;NA;"P1830";NA;NA;NA
4041;NA;"M";NA;NA;NA;"P880";NA;NA;NA
4109;NA;"F";NA;NA;NA;"P948";NA;NA;NA
6178;NA;"F";NA;NA;NA;NA;NA;NA;NA
5566;NA;"M";NA;NA;NA;"P2405";NA;NA;NA
6179;NA;"F";NA;NA;NA;NA;NA;NA;NA
4151;NA;"F";NA;NA;NA;"P990";NA;NA;NA
4110;NA;"M";NA;NA;NA;"P949";NA;NA;NA
4111;NA;"F";NA;NA;NA;"P950";NA;NA;NA
5078;NA;"F";NA;NA;NA;"P1917";NA;NA;NA
6180;NA;"F";NA;NA;NA;NA;NA;NA;NA
6532;NA;"F";NA;NA;NA;NA;NA;NA;NA
4112;NA;"F";NA;NA;NA;"P951";NA;NA;NA
6533;NA;"M";NA;NA;NA;NA;NA;NA;NA
6534;NA;"M";NA;NA;NA;NA;NA;NA;NA
6487;NA;"F";NA;NA;NA;NA;NA;NA;NA
6181;NA;"F";NA;NA;NA;NA;NA;NA;NA
6182;NA;"F";NA;NA;NA;NA;NA;NA;NA
6535;NA;"F";NA;NA;NA;NA;NA;NA;NA
4152;NA;"M";NA;NA;NA;"P991";NA;NA;NA
6536;NA;"M";NA;NA;NA;NA;NA;NA;NA
4115;NA;"F";NA;NA;NA;"P954";NA;NA;NA
4153;NA;"F";NA;NA;NA;"P992";NA;NA;NA
6183;NA;"F";NA;NA;NA;NA;NA;NA;NA
6488;NA;"M";NA;NA;NA;NA;NA;NA;NA
6537;NA;"M";NA;NA;NA;NA;NA;NA;NA
4118;NA;"F";NA;NA;NA;"P957";NA;NA;NA
4120;NA;"M";NA;NA;NA;"P959";NA;NA;NA
6359;NA;"F";NA;NA;NA;NA;NA;NA;NA
5140;NA;"M";NA;NA;NA;"P1979";NA;NA;NA
6360;NA;"F";NA;NA;NA;NA;NA;NA;NA
4686;NA;"M";NA;NA;NA;"P1525";NA;NA;NA
6361;NA;"F";NA;NA;NA;NA;NA;NA;NA
6546;NA;"M";NA;NA;NA;NA;NA;NA;NA
4579;NA;"F";NA;NA;NA;"P1418";NA;NA;NA
6362;NA;"F";NA;NA;NA;NA;NA;NA;NA
5551;NA;"F";NA;NA;NA;"P2390";NA;NA;NA
5552;NA;"F";NA;NA;NA;"P2391";NA;NA;NA
6731;NA;"F";NA;NA;NA;NA;NA;NA;NA
4580;NA;"F";NA;NA;NA;"P1419";NA;NA;NA
6547;NA;"M";NA;NA;NA;NA;NA;NA;NA
6732;NA;"F";NA;NA;NA;NA;NA;NA;NA
6444;NA;"F";NA;NA;NA;NA;NA;NA;NA
5143;NA;"F";NA;NA;NA;"P1982";NA;NA;NA
6733;NA;"M";NA;NA;NA;NA;NA;NA;NA
6445;NA;"F";NA;NA;NA;NA;NA;NA;NA
4581;NA;"M";NA;NA;NA;"P1420";NA;NA;NA
5144;NA;"F";NA;NA;NA;"P1983";NA;NA;NA
6446;NA;"F";NA;NA;NA;NA;NA;NA;NA
4582;NA;"M";NA;NA;NA;"P1421";NA;NA;NA
4688;NA;"F";NA;NA;NA;"P1527";NA;NA;NA
6188;NA;"F";NA;NA;NA;NA;NA;NA;NA
4689;NA;"M";NA;NA;NA;"P1528";NA;NA;NA
5597;NA;"F";NA;NA;NA;"P2436";NA;NA;NA
4583;NA;"F";NA;NA;NA;"P1422";NA;NA;NA
6447;NA;"F";NA;NA;NA;NA;NA;NA;NA
4162;NA;"M";NA;NA;NA;"P1001";NA;NA;NA
5598;NA;"M";NA;NA;NA;"P2437";NA;NA;NA
4690;NA;"M";NA;NA;NA;"P1529";NA;NA;NA
6448;NA;"F";NA;NA;NA;NA;NA;NA;NA
6542;NA;"M";NA;NA;NA;NA;NA;NA;NA
6543;NA;"F";NA;NA;NA;NA;NA;NA;NA
6548;NA;"F";NA;NA;NA;NA;NA;NA;NA
5506;NA;"M";NA;NA;NA;"P2345";NA;NA;NA
6300;NA;"F";NA;NA;NA;NA;NA;NA;NA
6549;NA;"M";NA;NA;NA;NA;NA;NA;NA
6301;NA;"M";NA;NA;NA;NA;NA;NA;NA
6550;NA;"F";NA;NA;NA;NA;NA;NA;NA
5507;NA;"F";NA;NA;NA;"P2346";NA;NA;NA
4607;NA;"F";NA;NA;NA;"P1446";NA;NA;NA
4551;NA;"M";NA;NA;NA;"P1390";NA;NA;NA
6551;NA;"M";NA;NA;NA;NA;NA;NA;NA
6722;NA;"F";NA;NA;NA;NA;NA;NA;NA
4444;NA;"M";NA;NA;NA;"P1283";NA;NA;NA
5508;NA;"M";NA;NA;NA;"P2347";NA;NA;NA
6198;NA;"F";NA;NA;NA;NA;NA;NA;NA
4415;NA;"F";NA;NA;NA;"P1254";NA;NA;NA
6199;NA;"F";NA;NA;NA;NA;NA;NA;NA
5509;NA;"F";NA;NA;NA;"P2348";NA;NA;NA
6552;NA;"M";NA;NA;NA;NA;NA;NA;NA
6200;NA;"M";NA;NA;NA;NA;NA;NA;NA
6294;NA;"F";NA;NA;NA;NA;NA;NA;NA
6201;NA;"M";NA;NA;NA;NA;NA;NA;NA
6202;NA;"M";NA;NA;NA;NA;NA;NA;NA
4870;NA;"M";NA;NA;NA;"P1709";NA;NA;NA
4884;NA;"M";NA;NA;NA;"P1723";NA;NA;NA
4885;NA;"F";NA;NA;NA;"P1724";NA;NA;NA
5249;NA;"F";NA;NA;NA;"P2088";NA;NA;NA
6589;NA;"F";NA;NA;NA;NA;NA;NA;NA
6590;NA;"F";NA;NA;NA;NA;NA;NA;NA
6492;NA;"F";NA;NA;NA;NA;NA;NA;NA
6493;NA;"M";NA;NA;NA;NA;NA;NA;NA
4235;NA;"F";NA;NA;NA;"P1074";NA;NA;NA
6813;NA;"F";NA;NA;NA;NA;NA;NA;NA
4656;NA;"M";NA;NA;NA;"P1495";NA;NA;NA
6825;NA;"M";NA;NA;NA;NA;NA;NA;NA
4584;NA;"M";NA;NA;NA;"P1423";NA;NA;NA
6295;NA;"F";NA;NA;NA;NA;NA;NA;NA
6363;NA;"F";NA;NA;NA;NA;NA;NA;NA
6489;NA;"M";NA;NA;NA;NA;NA;NA;NA
6364;NA;"F";NA;NA;NA;NA;NA;NA;NA
4871;NA;"F";NA;NA;NA;"P1710";NA;NA;NA
6317;NA;"F";NA;NA;NA;NA;NA;NA;NA
6490;NA;"M";NA;NA;NA;NA;NA;NA;NA
6607;NA;"F";NA;NA;NA;NA;NA;NA;NA
6296;NA;"F";NA;NA;NA;NA;NA;NA;NA
6491;NA;"F";NA;NA;NA;NA;NA;NA;NA
6508;NA;"M";NA;NA;NA;NA;NA;NA;NA
4422;NA;"M";NA;NA;NA;"P1261";NA;NA;NA
5097;NA;"M";NA;NA;NA;"P1936";NA;NA;NA
4474;NA;"M";NA;NA;NA;"P1313";NA;NA;NA
6539;NA;"F";NA;NA;NA;NA;NA;NA;NA
6297;NA;"F";NA;NA;NA;NA;NA;NA;NA
6540;NA;"F";NA;NA;NA;NA;NA;NA;NA
6233;NA;"F";NA;NA;NA;NA;NA;NA;NA
4424;NA;"F";NA;NA;NA;"P1263";NA;NA;NA
5273;NA;"F";NA;NA;NA;"P2112";NA;NA;NA
6234;NA;"M";NA;NA;NA;NA;NA;NA;NA
4298;NA;"F";NA;NA;NA;"P1137";NA;NA;NA
4425;NA;"M";NA;NA;NA;"P1264";NA;NA;NA
6509;NA;"M";NA;NA;NA;NA;NA;NA;NA
4723;NA;"F";NA;NA;NA;"P1562";NA;NA;NA
6792;NA;"M";NA;NA;NA;NA;NA;NA;NA
6449;NA;"F";NA;NA;NA;NA;NA;NA;NA
6510;NA;"F";NA;NA;NA;NA;NA;NA;NA
6511;NA;"F";NA;NA;NA;NA;NA;NA;NA
4724;NA;"F";NA;NA;NA;"P1563";NA;NA;NA
4428;NA;"M";NA;NA;NA;"P1267";NA;NA;NA
6793;NA;"M";NA;NA;NA;NA;NA;NA;NA
5662;NA;"M";NA;NA;NA;"P2501";NA;NA;NA
5663;NA;"F";NA;NA;NA;"P2502";NA;NA;NA
6494;NA;"F";NA;NA;NA;NA;NA;NA;NA
4377;NA;"M";NA;NA;NA;"P1216";NA;NA;NA
6203;NA;"M";NA;NA;NA;NA;NA;NA;NA
4887;NA;"M";NA;NA;NA;"P1726";NA;NA;NA
4378;NA;"M";NA;NA;NA;"P1217";NA;NA;NA
6281;NA;"F";NA;NA;NA;NA;NA;NA;NA
4609;NA;"F";NA;NA;NA;"P1448";NA;NA;NA
6204;NA;"M";NA;NA;NA;NA;NA;NA;NA
4379;NA;"F";NA;NA;NA;"P1218";NA;NA;NA
4889;NA;"F";NA;NA;NA;"P1728";NA;NA;NA
4380;NA;"M";NA;NA;NA;"P1219";NA;NA;NA
4610;NA;"F";NA;NA;NA;"P1449";NA;NA;NA
4554;NA;"M";NA;NA;NA;"P1393";NA;NA;NA
6205;NA;"F";NA;NA;NA;NA;NA;NA;NA
5211;NA;"M";NA;NA;NA;"P2050";NA;NA;NA
6206;NA;"M";NA;NA;NA;NA;NA;NA;NA
5215;NA;"F";NA;NA;NA;"P2054";NA;NA;NA
4238;NA;"F";NA;NA;NA;"P1077";NA;NA;NA
6207;NA;"F";NA;NA;NA;NA;NA;NA;NA
6650;NA;"F";NA;NA;NA;NA;NA;NA;NA
6576;NA;"F";NA;NA;NA;NA;NA;NA;NA
4512;NA;"M";NA;NA;NA;"P1351";NA;NA;NA
6577;NA;"F";NA;NA;NA;NA;NA;NA;NA
6625;NA;"M";NA;NA;NA;NA;NA;NA;NA
6208;NA;"F";NA;NA;NA;NA;NA;NA;NA
4555;NA;"F";NA;NA;NA;"P1394";NA;NA;NA
6578;NA;"F";NA;NA;NA;NA;NA;NA;NA
6502;NA;"M";NA;NA;NA;NA;NA;NA;NA
5226;NA;"M";NA;NA;NA;"P2065";NA;NA;NA
4479;NA;"M";NA;NA;NA;"P1318";NA;NA;NA
5276;NA;"F";NA;NA;NA;"P2115";NA;NA;NA
6609;NA;"M";NA;NA;NA;NA;NA;NA;NA
4953;NA;"M";NA;NA;NA;"P1792";NA;NA;NA
5005;NA;"F";NA;NA;NA;"P1844";NA;NA;NA
4480;NA;"M";NA;NA;NA;"P1319";NA;NA;NA
5279;NA;"F";NA;NA;NA;"P2118";NA;NA;NA
6524;NA;"M";NA;NA;NA;NA;NA;NA;NA
4481;NA;"F";NA;NA;NA;"P1320";NA;NA;NA
5281;NA;"F";NA;NA;NA;"P2120";NA;NA;NA
5018;NA;"F";NA;NA;NA;"P1857";NA;NA;NA
5282;NA;"F";NA;NA;NA;"P2121";NA;NA;NA
4446;NA;"M";NA;NA;NA;"P1285";NA;NA;NA
5006;NA;"F";NA;NA;NA;"P1845";NA;NA;NA
6610;NA;"F";NA;NA;NA;NA;NA;NA;NA
5283;NA;"M";NA;NA;NA;"P2122";NA;NA;NA
6611;NA;"F";NA;NA;NA;NA;NA;NA;NA
5284;NA;"M";NA;NA;NA;"P2123";NA;NA;NA
6265;NA;"F";NA;NA;NA;NA;NA;NA;NA
6612;NA;"F";NA;NA;NA;NA;NA;NA;NA
5285;NA;"F";NA;NA;NA;"P2124";NA;NA;NA
5286;NA;"M";NA;NA;NA;"P2125";NA;NA;NA
6613;NA;"F";NA;NA;NA;NA;NA;NA;NA
6525;NA;"M";NA;NA;NA;NA;NA;NA;NA
4482;NA;"M";NA;NA;NA;"P1321";NA;NA;NA
5287;NA;"F";NA;NA;NA;"P2126";NA;NA;NA
5007;NA;"M";NA;NA;NA;"P1846";NA;NA;NA
6640;NA;"M";NA;NA;NA;NA;NA;NA;NA
6641;NA;"F";NA;NA;NA;NA;NA;NA;NA
6642;NA;"M";NA;NA;NA;NA;NA;NA;NA
6526;NA;"F";NA;NA;NA;NA;NA;NA;NA
6643;NA;"F";NA;NA;NA;NA;NA;NA;NA
5346;NA;"M";NA;NA;NA;"P2185";NA;NA;NA
4484;NA;"F";NA;NA;NA;"P1323";NA;NA;NA
6644;NA;"M";NA;NA;NA;NA;NA;NA;NA
5347;NA;"F";NA;NA;NA;"P2186";NA;NA;NA
6318;NA;"M";NA;NA;NA;NA;NA;NA;NA
6645;NA;"M";NA;NA;NA;NA;NA;NA;NA
5351;NA;"F";NA;NA;NA;"P2190";NA;NA;NA
6647;NA;"F";NA;NA;NA;NA;NA;NA;NA
4302;NA;"M";NA;NA;NA;"P1141";NA;NA;NA
6529;NA;"M";NA;NA;NA;NA;NA;NA;NA
6648;NA;"M";NA;NA;NA;NA;NA;NA;NA
6282;NA;"M";NA;NA;NA;NA;NA;NA;NA
5019;NA;"M";NA;NA;NA;"P1858";NA;NA;NA
6328;NA;"M";NA;NA;NA;NA;NA;NA;NA
4519;NA;"F";NA;NA;NA;"P1358";NA;NA;NA
6266;NA;"M";NA;NA;NA;NA;NA;NA;NA
6530;NA;"M";NA;NA;NA;NA;NA;NA;NA
6649;NA;"M";NA;NA;NA;NA;NA;NA;NA
6527;NA;"M";NA;NA;NA;NA;NA;NA;NA
6614;NA;"M";NA;NA;NA;NA;NA;NA;NA
6427;NA;"F";NA;NA;NA;NA;NA;NA;NA
6267;NA;"F";NA;NA;NA;NA;NA;NA;NA
6213;NA;"M";NA;NA;NA;NA;NA;NA;NA
5162;NA;"F";NA;NA;NA;"P2001";NA;NA;NA
6298;NA;"M";NA;NA;NA;NA;NA;NA;NA
6329;NA;"M";NA;NA;NA;NA;NA;NA;NA
5026;NA;"M";NA;NA;NA;"P1865";NA;NA;NA
6674;NA;"F";NA;NA;NA;NA;NA;NA;NA
5426;NA;"F";NA;NA;NA;"P2265";NA;NA;NA
4587;NA;"M";NA;NA;NA;"P1426";NA;NA;NA
6330;NA;"F";NA;NA;NA;NA;NA;NA;NA
5028;NA;"M";NA;NA;NA;"P1867";NA;NA;NA
6675;NA;"M";NA;NA;NA;NA;NA;NA;NA
6365;NA;"F";NA;NA;NA;NA;NA;NA;NA
4523;NA;"F";NA;NA;NA;"P1362";NA;NA;NA
5427;NA;"M";NA;NA;NA;"P2266";NA;NA;NA
5428;NA;"M";NA;NA;NA;"P2267";NA;NA;NA
5429;NA;"F";NA;NA;NA;"P2268";NA;NA;NA
6366;NA;"M";NA;NA;NA;NA;NA;NA;NA
6190;NA;"M";NA;NA;NA;NA;NA;NA;NA
5431;NA;"F";NA;NA;NA;"P2270";NA;NA;NA
6191;NA;"M";NA;NA;NA;NA;NA;NA;NA
5029;NA;"F";NA;NA;NA;"P1868";NA;NA;NA
6331;NA;"M";NA;NA;NA;NA;NA;NA;NA
4524;NA;"M";NA;NA;NA;"P1363";NA;NA;NA
6676;NA;"M";NA;NA;NA;NA;NA;NA;NA
5030;NA;"F";NA;NA;NA;"P1869";NA;NA;NA
4203;NA;"M";NA;NA;NA;"P1042";NA;NA;NA
6367;NA;"F";NA;NA;NA;NA;NA;NA;NA
6332;NA;"F";NA;NA;NA;NA;NA;NA;NA
6678;NA;"M";NA;NA;NA;NA;NA;NA;NA
6679;NA;"M";NA;NA;NA;NA;NA;NA;NA
6192;NA;"M";NA;NA;NA;NA;NA;NA;NA
5032;NA;"M";NA;NA;NA;"P1871";NA;NA;NA
6368;NA;"M";NA;NA;NA;NA;NA;NA;NA
4204;NA;"M";NA;NA;NA;"P1043";NA;NA;NA
5033;NA;"F";NA;NA;NA;"P1872";NA;NA;NA
6680;NA;"F";NA;NA;NA;NA;NA;NA;NA
6555;NA;"F";NA;NA;NA;NA;NA;NA;NA
5034;NA;"M";NA;NA;NA;"P1873";NA;NA;NA
4588;NA;"M";NA;NA;NA;"P1427";NA;NA;NA
6333;NA;"F";NA;NA;NA;NA;NA;NA;NA
5463;NA;"M";NA;NA;NA;"P2302";NA;NA;NA
6193;NA;"F";NA;NA;NA;NA;NA;NA;NA
6369;NA;"M";NA;NA;NA;NA;NA;NA;NA
5464;NA;"M";NA;NA;NA;"P2303";NA;NA;NA
6194;NA;"M";NA;NA;NA;NA;NA;NA;NA
6708;NA;"F";NA;NA;NA;NA;NA;NA;NA
6709;NA;"M";NA;NA;NA;NA;NA;NA;NA
6370;NA;"F";NA;NA;NA;NA;NA;NA;NA
5110;NA;"M";NA;NA;NA;"P1949";NA;NA;NA
6334;NA;"F";NA;NA;NA;NA;NA;NA;NA
6214;NA;"F";NA;NA;NA;NA;NA;NA;NA
5111;NA;"F";NA;NA;NA;"P1950";NA;NA;NA
5113;NA;"F";NA;NA;NA;"P1952";NA;NA;NA
5114;NA;"F";NA;NA;NA;"P1953";NA;NA;NA
4205;NA;"F";NA;NA;NA;"P1044";NA;NA;NA
4589;NA;"F";NA;NA;NA;"P1428";NA;NA;NA
5115;NA;"M";NA;NA;NA;"P1954";NA;NA;NA
4727;NA;"F";NA;NA;NA;"P1566";NA;NA;NA
4728;NA;"M";NA;NA;NA;"P1567";NA;NA;NA
4206;NA;"M";NA;NA;NA;"P1045";NA;NA;NA
4611;NA;"M";NA;NA;NA;"P1450";NA;NA;NA
6371;NA;"F";NA;NA;NA;NA;NA;NA;NA
5116;NA;"M";NA;NA;NA;"P1955";NA;NA;NA
6450;NA;"M";NA;NA;NA;NA;NA;NA;NA
5445;NA;"M";NA;NA;NA;"P2284";NA;NA;NA
6372;NA;"F";NA;NA;NA;NA;NA;NA;NA
6451;NA;"M";NA;NA;NA;NA;NA;NA;NA
5117;NA;"F";NA;NA;NA;"P1956";NA;NA;NA
6452;NA;"F";NA;NA;NA;NA;NA;NA;NA
6686;NA;"M";NA;NA;NA;NA;NA;NA;NA
5173;NA;"F";NA;NA;NA;"P2012";NA;NA;NA
6195;NA;"F";NA;NA;NA;NA;NA;NA;NA
6196;NA;"F";NA;NA;NA;NA;NA;NA;NA
6197;NA;"F";NA;NA;NA;NA;NA;NA;NA
6558;NA;"M";NA;NA;NA;NA;NA;NA;NA
6235;NA;"F";NA;NA;NA;NA;NA;NA;NA
4387;NA;"F";NA;NA;NA;"P1226";NA;NA;NA
5166;NA;"M";NA;NA;NA;"P2005";NA;NA;NA
6319;NA;"M";NA;NA;NA;NA;NA;NA;NA
6428;NA;"F";NA;NA;NA;NA;NA;NA;NA
5167;NA;"F";NA;NA;NA;"P2006";NA;NA;NA
4388;NA;"F";NA;NA;NA;"P1227";NA;NA;NA
4692;NA;"M";NA;NA;NA;"P1531";NA;NA;NA
6215;NA;"F";NA;NA;NA;NA;NA;NA;NA
6320;NA;"F";NA;NA;NA;NA;NA;NA;NA
4389;NA;"M";NA;NA;NA;"P1228";NA;NA;NA
6556;NA;"F";NA;NA;NA;NA;NA;NA;NA
6429;NA;"M";NA;NA;NA;NA;NA;NA;NA
5169;NA;"M";NA;NA;NA;"P2008";NA;NA;NA
4775;NA;"F";NA;NA;NA;"P1614";NA;NA;NA
5440;NA;"M";NA;NA;NA;"P2279";NA;NA;NA
5471;NA;"F";NA;NA;NA;"P2310";NA;NA;NA
4776;NA;"M";NA;NA;NA;"P1615";NA;NA;NA
4661;NA;"F";NA;NA;NA;"P1500";NA;NA;NA
5472;NA;"M";NA;NA;NA;"P2311";NA;NA;NA
4662;NA;"M";NA;NA;NA;"P1501";NA;NA;NA
4390;NA;"M";NA;NA;NA;"P1229";NA;NA;NA
5446;NA;"M";NA;NA;NA;"P2285";NA;NA;NA
6687;NA;"F";NA;NA;NA;NA;NA;NA;NA
6771;NA;"F";NA;NA;NA;NA;NA;NA;NA
6712;NA;"F";NA;NA;NA;NA;NA;NA;NA
5441;NA;"F";NA;NA;NA;"P2280";NA;NA;NA
5604;NA;"M";NA;NA;NA;"P2443";NA;NA;NA
6664;NA;"F";NA;NA;NA;NA;NA;NA;NA
6772;NA;"F";NA;NA;NA;NA;NA;NA;NA
5177;NA;"F";NA;NA;NA;"P2016";NA;NA;NA
6814;NA;"M";NA;NA;NA;NA;NA;NA;NA
4629;NA;"M";NA;NA;NA;"P1468";NA;NA;NA
6283;NA;"F";NA;NA;NA;NA;NA;NA;NA
6682;NA;"F";NA;NA;NA;NA;NA;NA;NA
6284;NA;"M";NA;NA;NA;NA;NA;NA;NA
4391;NA;"F";NA;NA;NA;"P1230";NA;NA;NA
5320;NA;"M";NA;NA;NA;"P2159";NA;NA;NA
5699;NA;"F";NA;NA;NA;"P2538";NA;NA;NA
6627;NA;"M";NA;NA;NA;NA;NA;NA;NA
6628;NA;"M";NA;NA;NA;NA;NA;NA;NA
6629;NA;"M";NA;NA;NA;NA;NA;NA;NA
6285;NA;"F";NA;NA;NA;NA;NA;NA;NA
6762;NA;"F";NA;NA;NA;NA;NA;NA;NA
6630;NA;"F";NA;NA;NA;NA;NA;NA;NA
6815;NA;"F";NA;NA;NA;NA;NA;NA;NA
6416;NA;"F";NA;NA;NA;NA;NA;NA;NA
6390;NA;"M";NA;NA;NA;NA;NA;NA;NA
6559;NA;"M";NA;NA;NA;NA;NA;NA;NA
6268;NA;"F";NA;NA;NA;NA;NA;NA;NA
6417;NA;"M";NA;NA;NA;NA;NA;NA;NA
6683;NA;"F";NA;NA;NA;NA;NA;NA;NA
6826;NA;"M";NA;NA;NA;NA;NA;NA;NA
6245;NA;"M";NA;NA;NA;NA;NA;NA;NA
6216;NA;"M";NA;NA;NA;NA;NA;NA;NA
6453;NA;"F";NA;NA;NA;NA;NA;NA;NA
6665;NA;"F";NA;NA;NA;NA;NA;NA;NA
6763;NA;"M";NA;NA;NA;NA;NA;NA;NA
6838;NA;"M";NA;NA;NA;NA;NA;NA;NA
6217;NA;"F";NA;NA;NA;NA;NA;NA;NA
6839;NA;"M";NA;NA;NA;NA;NA;NA;NA
6591;NA;"F";NA;NA;NA;NA;NA;NA;NA
6374;NA;"F";NA;NA;NA;NA;NA;NA;NA
6561;NA;"F";NA;NA;NA;NA;NA;NA;NA
6592;NA;"M";NA;NA;NA;NA;NA;NA;NA
6562;NA;"M";NA;NA;NA;NA;NA;NA;NA
6563;NA;"M";NA;NA;NA;NA;NA;NA;NA
6418;NA;"M";NA;NA;NA;NA;NA;NA;NA
6375;NA;"F";NA;NA;NA;NA;NA;NA;NA
6594;NA;"M";NA;NA;NA;NA;NA;NA;NA
6339;NA;"M";NA;NA;NA;NA;NA;NA;NA
6840;NA;"F";NA;NA;NA;NA;NA;NA;NA
6595;NA;"F";NA;NA;NA;NA;NA;NA;NA
6218;NA;"F";NA;NA;NA;NA;NA;NA;NA
6564;NA;"M";NA;NA;NA;NA;NA;NA;NA
6219;NA;"M";NA;NA;NA;NA;NA;NA;NA
6596;NA;"M";NA;NA;NA;NA;NA;NA;NA
6827;NA;"M";NA;NA;NA;NA;NA;NA;NA
6565;NA;"F";NA;NA;NA;NA;NA;NA;NA
6220;NA;"M";NA;NA;NA;NA;NA;NA;NA
6566;NA;"M";NA;NA;NA;NA;NA;NA;NA
6454;NA;"F";NA;NA;NA;NA;NA;NA;NA
6221;NA;"M";NA;NA;NA;NA;NA;NA;NA
6724;NA;"M";NA;NA;NA;NA;NA;NA;NA
6764;NA;"M";NA;NA;NA;NA;NA;NA;NA
6652;NA;"F";NA;NA;NA;NA;NA;NA;NA
6223;NA;"F";NA;NA;NA;NA;NA;NA;NA
6597;NA;"F";NA;NA;NA;NA;NA;NA;NA
6579;NA;"M";NA;NA;NA;NA;NA;NA;NA
6224;NA;"M";NA;NA;NA;NA;NA;NA;NA
6580;NA;"F";NA;NA;NA;NA;NA;NA;NA
6225;NA;"F";NA;NA;NA;NA;NA;NA;NA
6226;NA;"F";NA;NA;NA;NA;NA;NA;NA
6340;NA;"M";NA;NA;NA;NA;NA;NA;NA
6828;NA;"M";NA;NA;NA;NA;NA;NA;NA
6581;NA;"M";NA;NA;NA;NA;NA;NA;NA
6684;NA;"F";NA;NA;NA;NA;NA;NA;NA
6666;NA;"F";NA;NA;NA;NA;NA;NA;NA
6236;NA;"M";NA;NA;NA;NA;NA;NA;NA
6667;NA;"M";NA;NA;NA;NA;NA;NA;NA
6286;NA;"F";NA;NA;NA;NA;NA;NA;NA
6668;NA;"F";NA;NA;NA;NA;NA;NA;NA
6567;NA;"M";NA;NA;NA;NA;NA;NA;NA
6685;NA;"M";NA;NA;NA;NA;NA;NA;NA
6227;NA;"F";NA;NA;NA;NA;NA;NA;NA
6713;NA;"M";NA;NA;NA;NA;NA;NA;NA
6714;NA;"F";NA;NA;NA;NA;NA;NA;NA
6568;NA;"F";NA;NA;NA;NA;NA;NA;NA
6228;NA;"M";NA;NA;NA;NA;NA;NA;NA
6246;NA;"F";NA;NA;NA;NA;NA;NA;NA
6247;NA;"M";NA;NA;NA;NA;NA;NA;NA
6249;NA;"F";NA;NA;NA;NA;NA;NA;NA
6250;NA;"F";NA;NA;NA;NA;NA;NA;NA
6251;NA;"F";NA;NA;NA;NA;NA;NA;NA
6582;NA;"M";NA;NA;NA;NA;NA;NA;NA
6252;NA;"F";NA;NA;NA;NA;NA;NA;NA
6254;NA;"M";NA;NA;NA;NA;NA;NA;NA
6255;NA;"M";NA;NA;NA;NA;NA;NA;NA
6256;NA;"F";NA;NA;NA;NA;NA;NA;NA
6237;NA;"F";NA;NA;NA;NA;NA;NA;NA
6257;NA;"F";NA;NA;NA;NA;NA;NA;NA
6302;NA;"M";NA;NA;NA;NA;NA;NA;NA
6765;NA;"F";NA;NA;NA;NA;NA;NA;NA
6773;NA;"M";NA;NA;NA;NA;NA;NA;NA
6341;NA;"M";NA;NA;NA;NA;NA;NA;NA
6688;NA;"F";NA;NA;NA;NA;NA;NA;NA
6287;NA;"M";NA;NA;NA;NA;NA;NA;NA
6774;NA;"F";NA;NA;NA;NA;NA;NA;NA
6569;NA;"M";NA;NA;NA;NA;NA;NA;NA
6238;NA;"M";NA;NA;NA;NA;NA;NA;NA
6841;NA;"M";NA;NA;NA;NA;NA;NA;NA
6376;NA;"F";NA;NA;NA;NA;NA;NA;NA
6570;NA;"F";NA;NA;NA;NA;NA;NA;NA
6239;NA;"M";NA;NA;NA;NA;NA;NA;NA
6430;NA;"M";NA;NA;NA;NA;NA;NA;NA
6766;NA;"F";NA;NA;NA;NA;NA;NA;NA
6775;NA;"M";NA;NA;NA;NA;NA;NA;NA
6240;NA;"M";NA;NA;NA;NA;NA;NA;NA
6571;NA;"F";NA;NA;NA;NA;NA;NA;NA
6715;NA;"M";NA;NA;NA;NA;NA;NA;NA
6342;NA;"M";NA;NA;NA;NA;NA;NA;NA
6258;NA;"M";NA;NA;NA;NA;NA;NA;NA
6767;NA;"F";NA;NA;NA;NA;NA;NA;NA
6343;NA;"F";NA;NA;NA;NA;NA;NA;NA
6716;NA;"M";NA;NA;NA;NA;NA;NA;NA
6344;NA;"M";NA;NA;NA;NA;NA;NA;NA
6288;NA;"F";NA;NA;NA;NA;NA;NA;NA
6572;NA;"F";NA;NA;NA;NA;NA;NA;NA
6259;NA;"M";NA;NA;NA;NA;NA;NA;NA
6345;NA;"M";NA;NA;NA;NA;NA;NA;NA
6769;NA;"F";NA;NA;NA;NA;NA;NA;NA
6770;NA;"F";NA;NA;NA;NA;NA;NA;NA
6260;NA;"M";NA;NA;NA;NA;NA;NA;NA
6261;NA;"F";NA;NA;NA;NA;NA;NA;NA
6346;NA;"F";NA;NA;NA;NA;NA;NA;NA
6776;NA;"F";NA;NA;NA;NA;NA;NA;NA
6270;NA;"M";NA;NA;NA;NA;NA;NA;NA
6717;NA;"M";NA;NA;NA;NA;NA;NA;NA
6583;NA;"F";NA;NA;NA;NA;NA;NA;NA
6262;NA;"M";NA;NA;NA;NA;NA;NA;NA
6794;NA;"M";NA;NA;NA;NA;NA;NA;NA
6289;NA;"M";NA;NA;NA;NA;NA;NA;NA
6816;NA;"F";NA;NA;NA;NA;NA;NA;NA
6271;NA;"M";NA;NA;NA;NA;NA;NA;NA
6272;NA;"F";NA;NA;NA;NA;NA;NA;NA
6273;NA;"F";NA;NA;NA;NA;NA;NA;NA
6321;NA;"F";NA;NA;NA;NA;NA;NA;NA
6347;NA;"M";NA;NA;NA;NA;NA;NA;NA
6274;NA;"M";NA;NA;NA;NA;NA;NA;NA
6348;NA;"F";NA;NA;NA;NA;NA;NA;NA
6817;NA;"M";NA;NA;NA;NA;NA;NA;NA
6322;NA;"M";NA;NA;NA;NA;NA;NA;NA
6275;NA;"F";NA;NA;NA;NA;NA;NA;NA
6818;NA;"F";NA;NA;NA;NA;NA;NA;NA
6276;NA;"F";NA;NA;NA;NA;NA;NA;NA
6819;NA;"F";NA;NA;NA;NA;NA;NA;NA
6392;NA;"F";NA;NA;NA;NA;NA;NA;NA
6738;NA;"M";NA;NA;NA;NA;NA;NA;NA
6585;NA;"F";NA;NA;NA;NA;NA;NA;NA
6277;NA;"F";NA;NA;NA;NA;NA;NA;NA
6820;NA;"F";NA;NA;NA;NA;NA;NA;NA
6291;NA;"M";NA;NA;NA;NA;NA;NA;NA
6739;NA;"M";NA;NA;NA;NA;NA;NA;NA
6821;NA;"M";NA;NA;NA;NA;NA;NA;NA
6431;NA;"M";NA;NA;NA;NA;NA;NA;NA
6304;NA;"F";NA;NA;NA;NA;NA;NA;NA
6305;NA;"M";NA;NA;NA;NA;NA;NA;NA
6377;NA;"F";NA;NA;NA;NA;NA;NA;NA
6306;NA;"M";NA;NA;NA;NA;NA;NA;NA
6740;NA;"F";NA;NA;NA;NA;NA;NA;NA
6432;NA;"M";NA;NA;NA;NA;NA;NA;NA
6586;NA;"M";NA;NA;NA;NA;NA;NA;NA
6323;NA;"M";NA;NA;NA;NA;NA;NA;NA
6349;NA;"F";NA;NA;NA;NA;NA;NA;NA
6307;NA;"F";NA;NA;NA;NA;NA;NA;NA
6829;NA;"M";NA;NA;NA;NA;NA;NA;NA
6324;NA;"M";NA;NA;NA;NA;NA;NA;NA
6325;NA;"F";NA;NA;NA;NA;NA;NA;NA
6831;NA;"F";NA;NA;NA;NA;NA;NA;NA
6308;NA;"M";NA;NA;NA;NA;NA;NA;NA
6326;NA;"M";NA;NA;NA;NA;NA;NA;NA
6327;NA;"M";NA;NA;NA;NA;NA;NA;NA
6309;NA;"M";NA;NA;NA;NA;NA;NA;NA
6350;NA;"F";NA;NA;NA;NA;NA;NA;NA
6835;NA;"F";NA;NA;NA;NA;NA;NA;NA
6777;NA;"F";NA;NA;NA;NA;NA;NA;NA
6836;NA;"M";NA;NA;NA;NA;NA;NA;NA
6689;NA;"M";NA;NA;NA;NA;NA;NA;NA
6310;NA;"F";NA;NA;NA;NA;NA;NA;NA
6311;NA;"F";NA;NA;NA;NA;NA;NA;NA
6741;NA;"F";NA;NA;NA;NA;NA;NA;NA
6312;NA;"F";NA;NA;NA;NA;NA;NA;NA
6742;NA;"F";NA;NA;NA;NA;NA;NA;NA
6743;NA;"F";NA;NA;NA;NA;NA;NA;NA
6631;NA;"M";NA;NA;NA;NA;NA;NA;NA
6632;NA;"F";NA;NA;NA;NA;NA;NA;NA
6351;NA;"M";NA;NA;NA;NA;NA;NA;NA
6744;NA;"M";NA;NA;NA;NA;NA;NA;NA
6315;NA;"M";NA;NA;NA;NA;NA;NA;NA
6352;NA;"M";NA;NA;NA;NA;NA;NA;NA
6419;NA;"M";NA;NA;NA;NA;NA;NA;NA
6379;NA;"F";NA;NA;NA;NA;NA;NA;NA
6780;NA;"M";NA;NA;NA;NA;NA;NA;NA
6381;NA;"F";NA;NA;NA;NA;NA;NA;NA
6634;NA;"M";NA;NA;NA;NA;NA;NA;NA
6420;NA;"M";NA;NA;NA;NA;NA;NA;NA
6635;NA;"M";NA;NA;NA;NA;NA;NA;NA
6382;NA;"F";NA;NA;NA;NA;NA;NA;NA
6653;NA;"M";NA;NA;NA;NA;NA;NA;NA
6393;NA;"M";NA;NA;NA;NA;NA;NA;NA
6384;NA;"M";NA;NA;NA;NA;NA;NA;NA
6745;NA;"F";NA;NA;NA;NA;NA;NA;NA
6421;NA;"F";NA;NA;NA;NA;NA;NA;NA
6422;NA;"M";NA;NA;NA;NA;NA;NA;NA
6746;NA;"F";NA;NA;NA;NA;NA;NA;NA
6386;NA;"M";NA;NA;NA;NA;NA;NA;NA
6795;NA;"M";NA;NA;NA;NA;NA;NA;NA
6387;NA;"M";NA;NA;NA;NA;NA;NA;NA
6656;NA;"F";NA;NA;NA;NA;NA;NA;NA
6423;NA;"F";NA;NA;NA;NA;NA;NA;NA
6394;NA;"F";NA;NA;NA;NA;NA;NA;NA
6395;NA;"F";NA;NA;NA;NA;NA;NA;NA
6424;NA;"F";NA;NA;NA;NA;NA;NA;NA
6747;NA;"M";NA;NA;NA;NA;NA;NA;NA
6657;NA;"F";NA;NA;NA;NA;NA;NA;NA
6781;NA;"M";NA;NA;NA;NA;NA;NA;NA
6433;NA;"M";NA;NA;NA;NA;NA;NA;NA
6397;NA;"F";NA;NA;NA;NA;NA;NA;NA
6748;NA;"M";NA;NA;NA;NA;NA;NA;NA
6749;NA;"M";NA;NA;NA;NA;NA;NA;NA
6750;NA;"F";NA;NA;NA;NA;NA;NA;NA
6751;NA;"F";NA;NA;NA;NA;NA;NA;NA
6398;NA;"M";NA;NA;NA;NA;NA;NA;NA
6399;NA;"F";NA;NA;NA;NA;NA;NA;NA
6400;NA;"M";NA;NA;NA;NA;NA;NA;NA
6355;NA;"F";NA;NA;NA;NA;NA;NA;NA
6434;NA;"M";NA;NA;NA;NA;NA;NA;NA
6752;NA;"F";NA;NA;NA;NA;NA;NA;NA
6401;NA;"F";NA;NA;NA;NA;NA;NA;NA
6435;NA;"F";NA;NA;NA;NA;NA;NA;NA
6436;NA;"M";NA;NA;NA;NA;NA;NA;NA
6356;NA;"F";NA;NA;NA;NA;NA;NA;NA
6402;NA;"F";NA;NA;NA;NA;NA;NA;NA
6658;NA;"F";NA;NA;NA;NA;NA;NA;NA
6404;NA;"F";NA;NA;NA;NA;NA;NA;NA
6659;NA;"F";NA;NA;NA;NA;NA;NA;NA
6405;NA;"F";NA;NA;NA;NA;NA;NA;NA
6599;NA;"M";NA;NA;NA;NA;NA;NA;NA
6753;NA;"M";NA;NA;NA;NA;NA;NA;NA
6437;NA;"M";NA;NA;NA;NA;NA;NA;NA
6407;NA;"F";NA;NA;NA;NA;NA;NA;NA
6438;NA;"F";NA;NA;NA;NA;NA;NA;NA
6455;NA;"F";NA;NA;NA;NA;NA;NA;NA
6456;NA;"M";NA;NA;NA;NA;NA;NA;NA
6439;NA;"F";NA;NA;NA;NA;NA;NA;NA
6440;NA;"M";NA;NA;NA;NA;NA;NA;NA
6441;NA;"M";NA;NA;NA;NA;NA;NA;NA
6442;NA;"M";NA;NA;NA;NA;NA;NA;NA
6457;NA;"M";NA;NA;NA;NA;NA;NA;NA
6458;NA;"M";NA;NA;NA;NA;NA;NA;NA
6755;NA;"F";NA;NA;NA;NA;NA;NA;NA
6409;NA;"F";NA;NA;NA;NA;NA;NA;NA
6756;NA;"M";NA;NA;NA;NA;NA;NA;NA
6757;NA;"F";NA;NA;NA;NA;NA;NA;NA
6410;NA;"F";NA;NA;NA;NA;NA;NA;NA
6411;NA;"NA";NA;NA;NA;NA;NA;NA;NA
6459;NA;"M";NA;NA;NA;NA;NA;NA;NA
6758;NA;"M";NA;NA;NA;NA;NA;NA;NA
6759;NA;"F";NA;NA;NA;NA;NA;NA;NA
6600;NA;"M";NA;NA;NA;NA;NA;NA;NA
6796;NA;"M";NA;NA;NA;NA;NA;NA;NA
6460;NA;"M";NA;NA;NA;NA;NA;NA;NA
6797;NA;"M";NA;NA;NA;NA;NA;NA;NA
6798;NA;"M";NA;NA;NA;NA;NA;NA;NA
6782;NA;"M";NA;NA;NA;NA;NA;NA;NA
6783;NA;"M";NA;NA;NA;NA;NA;NA;NA
6799;NA;"F";NA;NA;NA;NA;NA;NA;NA
6800;NA;"M";NA;NA;NA;NA;NA;NA;NA
6690;NA;"M";NA;NA;NA;NA;NA;NA;NA
6801;NA;"F";NA;NA;NA;NA;NA;NA;NA
6802;NA;"M";NA;NA;NA;NA;NA;NA;NA
6803;NA;"M";NA;NA;NA;NA;NA;NA;NA
6804;NA;"M";NA;NA;NA;NA;NA;NA;NA
6784;NA;"F";NA;NA;NA;NA;NA;NA;NA
6842;NA;"M";NA;NA;NA;NA;NA;NA;NA
6843;NA;"F";NA;NA;NA;NA;NA;NA;NA
6844;NA;"F";NA;NA;NA;NA;NA;NA;NA
6845;NA;"F";NA;NA;NA;NA;NA;NA;NA
6601;NA;"F";NA;NA;NA;NA;NA;NA;NA
6846;NA;"F";NA;NA;NA;NA;NA;NA;NA
6847;NA;"M";NA;NA;NA;NA;NA;NA;NA
6691;NA;"M";NA;NA;NA;NA;NA;NA;NA
6848;NA;"F";NA;NA;NA;NA;NA;NA;NA
6785;NA;"F";NA;NA;NA;NA;NA;NA;NA
6849;NA;"M";NA;NA;NA;NA;NA;NA;NA
6850;NA;"M";NA;NA;NA;NA;NA;NA;NA
6851;NA;"F";NA;NA;NA;NA;NA;NA;NA
6852;NA;"M";NA;NA;NA;NA;NA;NA;NA
6853;NA;"M";NA;NA;NA;NA;NA;NA;NA
6854;NA;"F";NA;NA;NA;NA;NA;NA;NA
6855;NA;"M";NA;NA;NA;NA;NA;NA;NA
6856;NA;"F";NA;NA;NA;NA;NA;NA;NA
6857;NA;"F";NA;NA;NA;NA;NA;NA;NA
6858;NA;"F";NA;NA;NA;NA;NA;NA;NA
6602;NA;"M";NA;NA;NA;NA;NA;NA;NA
6616;NA;"F";NA;NA;NA;NA;NA;NA;NA
6617;NA;"M";NA;NA;NA;NA;NA;NA;NA
6618;NA;"F";NA;NA;NA;NA;NA;NA;NA
6619;NA;"M";NA;NA;NA;NA;NA;NA;NA
6620;NA;"F";NA;NA;NA;NA;NA;NA;NA
6621;NA;"F";NA;NA;NA;NA;NA;NA;NA
6622;NA;"F";NA;NA;NA;NA;NA;NA;NA
6624;NA;"M";NA;NA;NA;NA;NA;NA;NA
6692;NA;"M";NA;NA;NA;NA;NA;NA;NA
6694;NA;"F";NA;NA;NA;NA;NA;NA;NA
6696;NA;"M";NA;NA;NA;NA;NA;NA;NA
6698;NA;"M";NA;NA;NA;NA;NA;NA;NA
6700;NA;"M";NA;NA;NA;NA;NA;NA;NA
6701;NA;"F";NA;NA;NA;NA;NA;NA;NA
6702;NA;"M";NA;NA;NA;NA;NA;NA;NA
6703;NA;"F";NA;NA;NA;NA;NA;NA;NA
6706;NA;"F";NA;NA;NA;NA;NA;NA;NA
7624;NA;"F";NA;NA;NA;NA;NA;NA;NA
8065;NA;"F";NA;NA;NA;NA;NA;NA;NA
6953;NA;"F";NA;NA;NA;NA;NA;NA;NA
7200;NA;"M";NA;NA;NA;NA;NA;NA;NA
7160;NA;"F";NA;NA;NA;NA;NA;NA;NA
7982;NA;"M";NA;NA;NA;NA;NA;NA;NA
6926;NA;"F";NA;NA;NA;NA;NA;NA;NA
6954;NA;"M";NA;NA;NA;NA;NA;NA;NA
7449;NA;"F";NA;NA;NA;NA;NA;NA;NA
7161;NA;"F";NA;NA;NA;NA;NA;NA;NA
8202;NA;"M";NA;NA;NA;NA;NA;NA;NA
7880;NA;"F";NA;NA;NA;NA;NA;NA;NA
7162;NA;"F";NA;NA;NA;NA;NA;NA;NA
6955;NA;"M";NA;NA;NA;NA;NA;NA;NA
7491;NA;"M";NA;NA;NA;NA;NA;NA;NA
7046;NA;"F";NA;NA;NA;NA;NA;NA;NA
7163;NA;"M";NA;NA;NA;NA;NA;NA;NA
7142;NA;"M";NA;NA;NA;NA;NA;NA;NA
7376;NA;"M";NA;NA;NA;NA;NA;NA;NA
7492;NA;"F";NA;NA;NA;NA;NA;NA;NA
8200;NA;"M";NA;NA;NA;NA;NA;NA;NA
7164;NA;"F";NA;NA;NA;NA;NA;NA;NA
6956;NA;"F";NA;NA;NA;NA;NA;NA;NA
8044;NA;"F";NA;NA;NA;NA;NA;NA;NA
7377;NA;"F";NA;NA;NA;NA;NA;NA;NA
7165;NA;"F";NA;NA;NA;NA;NA;NA;NA
7238;NA;"F";NA;NA;NA;NA;NA;NA;NA
8066;NA;"M";NA;NA;NA;NA;NA;NA;NA
7221;NA;"F";NA;NA;NA;NA;NA;NA;NA
7796;NA;"M";NA;NA;NA;NA;NA;NA;NA
7509;NA;"F";NA;NA;NA;NA;NA;NA;NA
6901;NA;"M";NA;NA;NA;NA;NA;NA;NA
7222;NA;"M";NA;NA;NA;NA;NA;NA;NA
7690;NA;"F";NA;NA;NA;NA;NA;NA;NA
7858;NA;"F";NA;NA;NA;NA;NA;NA;NA
7716;NA;"M";NA;NA;NA;NA;NA;NA;NA
6928;NA;"M";NA;NA;NA;NA;NA;NA;NA
7625;NA;"F";NA;NA;NA;NA;NA;NA;NA
7470;NA;"M";NA;NA;NA;NA;NA;NA;NA
7223;NA;"M";NA;NA;NA;NA;NA;NA;NA
7881;NA;"M";NA;NA;NA;NA;NA;NA;NA
8045;NA;"M";NA;NA;NA;NA;NA;NA;NA
7471;NA;"M";NA;NA;NA;NA;NA;NA;NA
7167;NA;"M";NA;NA;NA;NA;NA;NA;NA
8026;NA;"M";NA;NA;NA;NA;NA;NA;NA
7587;NA;"F";NA;NA;NA;NA;NA;NA;NA
7224;NA;"F";NA;NA;NA;NA;NA;NA;NA
7626;NA;"F";NA;NA;NA;NA;NA;NA;NA
7939;NA;"M";NA;NA;NA;NA;NA;NA;NA
8046;NA;"F";NA;NA;NA;NA;NA;NA;NA
7627;NA;"F";NA;NA;NA;NA;NA;NA;NA
6929;NA;"F";NA;NA;NA;NA;NA;NA;NA
8047;NA;"M";NA;NA;NA;NA;NA;NA;NA
6930;NA;"M";NA;NA;NA;NA;NA;NA;NA
7725;NA;"M";NA;NA;NA;NA;NA;NA;NA
7450;NA;"F";NA;NA;NA;NA;NA;NA;NA
7004;NA;"F";NA;NA;NA;NA;NA;NA;NA
8048;NA;"F";NA;NA;NA;NA;NA;NA;NA
7225;NA;"F";NA;NA;NA;NA;NA;NA;NA
7859;NA;"F";NA;NA;NA;NA;NA;NA;NA
7227;NA;"F";NA;NA;NA;NA;NA;NA;NA
8049;NA;"F";NA;NA;NA;NA;NA;NA;NA
7905;NA;"M";NA;NA;NA;NA;NA;NA;NA
7983;NA;"M";NA;NA;NA;NA;NA;NA;NA
7510;NA;"F";NA;NA;NA;NA;NA;NA;NA
8027;NA;"F";NA;NA;NA;NA;NA;NA;NA
8203;NA;"M";NA;NA;NA;NA;NA;NA;NA
7834;NA;"M";NA;NA;NA;NA;NA;NA;NA
8088;NA;"F";NA;NA;NA;NA;NA;NA;NA
7337;NA;"M";NA;NA;NA;NA;NA;NA;NA
7201;NA;"M";NA;NA;NA;NA;NA;NA;NA
6902;NA;"M";NA;NA;NA;NA;NA;NA;NA
7186;NA;"M";NA;NA;NA;NA;NA;NA;NA
7860;NA;"F";NA;NA;NA;NA;NA;NA;NA
8231;NA;"M";NA;NA;NA;NA;NA;NA;NA
8232;NA;"M";NA;NA;NA;NA;NA;NA;NA
7753;NA;"M";NA;NA;NA;NA;NA;NA;NA
7754;NA;"M";NA;NA;NA;NA;NA;NA;NA
7755;NA;"M";NA;NA;NA;NA;NA;NA;NA
8233;NA;"M";NA;NA;NA;NA;NA;NA;NA
7756;NA;"F";NA;NA;NA;NA;NA;NA;NA
8028;NA;"F";NA;NA;NA;NA;NA;NA;NA
8234;NA;"M";NA;NA;NA;NA;NA;NA;NA
8089;NA;"F";NA;NA;NA;NA;NA;NA;NA
7202;NA;"F";NA;NA;NA;NA;NA;NA;NA
7861;NA;"F";NA;NA;NA;NA;NA;NA;NA
7757;NA;"F";NA;NA;NA;NA;NA;NA;NA
7203;NA;"F";NA;NA;NA;NA;NA;NA;NA
7862;NA;"F";NA;NA;NA;NA;NA;NA;NA
7758;NA;"M";NA;NA;NA;NA;NA;NA;NA
7940;NA;"F";NA;NA;NA;NA;NA;NA;NA
7204;NA;"F";NA;NA;NA;NA;NA;NA;NA
7759;NA;"M";NA;NA;NA;NA;NA;NA;NA
7760;NA;"M";NA;NA;NA;NA;NA;NA;NA
7099;NA;"F";NA;NA;NA;NA;NA;NA;NA
8236;NA;"M";NA;NA;NA;NA;NA;NA;NA
7168;NA;"M";NA;NA;NA;NA;NA;NA;NA
7100;NA;"F";NA;NA;NA;NA;NA;NA;NA
7451;NA;"F";NA;NA;NA;NA;NA;NA;NA
7101;NA;"M";NA;NA;NA;NA;NA;NA;NA
8237;NA;"M";NA;NA;NA;NA;NA;NA;NA
7205;NA;"F";NA;NA;NA;NA;NA;NA;NA
7072;NA;"F";NA;NA;NA;NA;NA;NA;NA
7021;NA;"M";NA;NA;NA;NA;NA;NA;NA
8238;NA;"F";NA;NA;NA;NA;NA;NA;NA
7984;NA;"F";NA;NA;NA;NA;NA;NA;NA
7102;NA;"F";NA;NA;NA;NA;NA;NA;NA
8090;NA;"M";NA;NA;NA;NA;NA;NA;NA
8091;NA;"M";NA;NA;NA;NA;NA;NA;NA
7022;NA;"M";NA;NA;NA;NA;NA;NA;NA
7985;NA;"F";NA;NA;NA;NA;NA;NA;NA
8067;NA;"F";NA;NA;NA;NA;NA;NA;NA
7865;NA;"F";NA;NA;NA;NA;NA;NA;NA
7206;NA;"F";NA;NA;NA;NA;NA;NA;NA
7812;NA;"F";NA;NA;NA;NA;NA;NA;NA
7866;NA;"F";NA;NA;NA;NA;NA;NA;NA
7813;NA;"F";NA;NA;NA;NA;NA;NA;NA
7169;NA;"F";NA;NA;NA;NA;NA;NA;NA
7867;NA;"F";NA;NA;NA;NA;NA;NA;NA
7207;NA;"M";NA;NA;NA;NA;NA;NA;NA
6992;NA;"M";NA;NA;NA;NA;NA;NA;NA
7588;NA;"M";NA;NA;NA;NA;NA;NA;NA
7761;NA;"F";NA;NA;NA;NA;NA;NA;NA
7868;NA;"F";NA;NA;NA;NA;NA;NA;NA
7589;NA;"M";NA;NA;NA;NA;NA;NA;NA
7208;NA;"M";NA;NA;NA;NA;NA;NA;NA
7274;NA;"F";NA;NA;NA;NA;NA;NA;NA
7590;NA;"F";NA;NA;NA;NA;NA;NA;NA
7732;NA;"F";NA;NA;NA;NA;NA;NA;NA
7209;NA;"F";NA;NA;NA;NA;NA;NA;NA
6931;NA;"M";NA;NA;NA;NA;NA;NA;NA
7733;NA;"F";NA;NA;NA;NA;NA;NA;NA
7550;NA;"M";NA;NA;NA;NA;NA;NA;NA
7551;NA;"M";NA;NA;NA;NA;NA;NA;NA
8156;NA;"F";NA;NA;NA;NA;NA;NA;NA
7170;NA;"M";NA;NA;NA;NA;NA;NA;NA
7187;NA;"M";NA;NA;NA;NA;NA;NA;NA
7941;NA;"F";NA;NA;NA;NA;NA;NA;NA
7171;NA;"M";NA;NA;NA;NA;NA;NA;NA
6903;NA;"M";NA;NA;NA;NA;NA;NA;NA
7338;NA;"F";NA;NA;NA;NA;NA;NA;NA
7103;NA;"M";NA;NA;NA;NA;NA;NA;NA
7776;NA;"M";NA;NA;NA;NA;NA;NA;NA
7239;NA;"F";NA;NA;NA;NA;NA;NA;NA
7407;NA;"M";NA;NA;NA;NA;NA;NA;NA
8157;NA;"M";NA;NA;NA;NA;NA;NA;NA
7473;NA;"F";NA;NA;NA;NA;NA;NA;NA
7408;NA;"M";NA;NA;NA;NA;NA;NA;NA
8158;NA;"M";NA;NA;NA;NA;NA;NA;NA
7924;NA;"M";NA;NA;NA;NA;NA;NA;NA
8159;NA;"M";NA;NA;NA;NA;NA;NA;NA
7777;NA;"M";NA;NA;NA;NA;NA;NA;NA
7240;NA;"M";NA;NA;NA;NA;NA;NA;NA
7925;NA;"F";NA;NA;NA;NA;NA;NA;NA
7228;NA;"F";NA;NA;NA;NA;NA;NA;NA
7241;NA;"M";NA;NA;NA;NA;NA;NA;NA
7814;NA;"F";NA;NA;NA;NA;NA;NA;NA
7409;NA;"F";NA;NA;NA;NA;NA;NA;NA
7275;NA;"F";NA;NA;NA;NA;NA;NA;NA
7815;NA;"F";NA;NA;NA;NA;NA;NA;NA
8092;NA;"F";NA;NA;NA;NA;NA;NA;NA
7242;NA;"M";NA;NA;NA;NA;NA;NA;NA
7926;NA;"F";NA;NA;NA;NA;NA;NA;NA
7778;NA;"M";NA;NA;NA;NA;NA;NA;NA
7779;NA;"M";NA;NA;NA;NA;NA;NA;NA
7410;NA;"F";NA;NA;NA;NA;NA;NA;NA
8160;NA;"F";NA;NA;NA;NA;NA;NA;NA
7927;NA;"F";NA;NA;NA;NA;NA;NA;NA
7389;NA;"M";NA;NA;NA;NA;NA;NA;NA
7220;NA;"F";NA;NA;NA;NA;NA;NA;NA
7452;NA;"M";NA;NA;NA;NA;NA;NA;NA
7411;NA;"M";NA;NA;NA;NA;NA;NA;NA
7884;NA;"F";NA;NA;NA;NA;NA;NA;NA
7928;NA;"M";NA;NA;NA;NA;NA;NA;NA
7780;NA;"F";NA;NA;NA;NA;NA;NA;NA
7552;NA;"F";NA;NA;NA;NA;NA;NA;NA
7453;NA;"F";NA;NA;NA;NA;NA;NA;NA
7816;NA;"M";NA;NA;NA;NA;NA;NA;NA
7645;NA;"M";NA;NA;NA;NA;NA;NA;NA
7553;NA;"M";NA;NA;NA;NA;NA;NA;NA
7412;NA;"F";NA;NA;NA;NA;NA;NA;NA
7817;NA;"F";NA;NA;NA;NA;NA;NA;NA
7554;NA;"M";NA;NA;NA;NA;NA;NA;NA
7555;NA;"M";NA;NA;NA;NA;NA;NA;NA
7406;NA;"F";NA;NA;NA;NA;NA;NA;NA
7254;NA;"F";NA;NA;NA;NA;NA;NA;NA
7339;NA;"M";NA;NA;NA;NA;NA;NA;NA
8093;NA;"F";NA;NA;NA;NA;NA;NA;NA
7023;NA;"F";NA;NA;NA;NA;NA;NA;NA
7413;NA;"M";NA;NA;NA;NA;NA;NA;NA
8094;NA;"F";NA;NA;NA;NA;NA;NA;NA
7118;NA;"M";NA;NA;NA;NA;NA;NA;NA
7119;NA;"M";NA;NA;NA;NA;NA;NA;NA
7454;NA;"M";NA;NA;NA;NA;NA;NA;NA
7414;NA;"M";NA;NA;NA;NA;NA;NA;NA
7455;NA;"F";NA;NA;NA;NA;NA;NA;NA
6932;NA;"F";NA;NA;NA;NA;NA;NA;NA
8161;NA;"F";NA;NA;NA;NA;NA;NA;NA
7839;NA;"F";NA;NA;NA;NA;NA;NA;NA
7047;NA;"M";NA;NA;NA;NA;NA;NA;NA
7005;NA;"M";NA;NA;NA;NA;NA;NA;NA
7390;NA;"M";NA;NA;NA;NA;NA;NA;NA
6933;NA;"M";NA;NA;NA;NA;NA;NA;NA
7340;NA;"M";NA;NA;NA;NA;NA;NA;NA
7797;NA;"M";NA;NA;NA;NA;NA;NA;NA
7869;NA;"F";NA;NA;NA;NA;NA;NA;NA
7870;NA;"M";NA;NA;NA;NA;NA;NA;NA
7871;NA;"M";NA;NA;NA;NA;NA;NA;NA
7908;NA;"F";NA;NA;NA;NA;NA;NA;NA
7243;NA;"F";NA;NA;NA;NA;NA;NA;NA
7276;NA;"F";NA;NA;NA;NA;NA;NA;NA
7048;NA;"F";NA;NA;NA;NA;NA;NA;NA
7244;NA;"M";NA;NA;NA;NA;NA;NA;NA
7986;NA;"F";NA;NA;NA;NA;NA;NA;NA
7341;NA;"M";NA;NA;NA;NA;NA;NA;NA
7256;NA;"M";NA;NA;NA;NA;NA;NA;NA
7342;NA;"F";NA;NA;NA;NA;NA;NA;NA
7872;NA;"F";NA;NA;NA;NA;NA;NA;NA
7049;NA;"F";NA;NA;NA;NA;NA;NA;NA
7591;NA;"M";NA;NA;NA;NA;NA;NA;NA
7120;NA;"F";NA;NA;NA;NA;NA;NA;NA
7873;NA;"M";NA;NA;NA;NA;NA;NA;NA
7592;NA;"M";NA;NA;NA;NA;NA;NA;NA
7343;NA;"F";NA;NA;NA;NA;NA;NA;NA
7874;NA;"M";NA;NA;NA;NA;NA;NA;NA
7051;NA;"F";NA;NA;NA;NA;NA;NA;NA
7875;NA;"F";NA;NA;NA;NA;NA;NA;NA
8113;NA;"M";NA;NA;NA;NA;NA;NA;NA
7052;NA;"F";NA;NA;NA;NA;NA;NA;NA
7257;NA;"M";NA;NA;NA;NA;NA;NA;NA
7344;NA;"F";NA;NA;NA;NA;NA;NA;NA
7121;NA;"M";NA;NA;NA;NA;NA;NA;NA
7345;NA;"F";NA;NA;NA;NA;NA;NA;NA
7143;NA;"M";NA;NA;NA;NA;NA;NA;NA
7876;NA;"F";NA;NA;NA;NA;NA;NA;NA
7378;NA;"NA";NA;NA;NA;NA;NA;NA;NA
8239;NA;"M";NA;NA;NA;NA;NA;NA;NA
7877;NA;"M";NA;NA;NA;NA;NA;NA;NA
7415;NA;"M";NA;NA;NA;NA;NA;NA;NA
7416;NA;"M";NA;NA;NA;NA;NA;NA;NA
7122;NA;"F";NA;NA;NA;NA;NA;NA;NA
7878;NA;"F";NA;NA;NA;NA;NA;NA;NA
6993;NA;"F";NA;NA;NA;NA;NA;NA;NA
7055;NA;"F";NA;NA;NA;NA;NA;NA;NA
7608;NA;"M";NA;NA;NA;NA;NA;NA;NA
7056;NA;"M";NA;NA;NA;NA;NA;NA;NA
6994;NA;"M";NA;NA;NA;NA;NA;NA;NA
7417;NA;"M";NA;NA;NA;NA;NA;NA;NA
7058;NA;"F";NA;NA;NA;NA;NA;NA;NA
7144;NA;"F";NA;NA;NA;NA;NA;NA;NA
7676;NA;"F";NA;NA;NA;NA;NA;NA;NA
7987;NA;"M";NA;NA;NA;NA;NA;NA;NA
7556;NA;"M";NA;NA;NA;NA;NA;NA;NA
7273;NA;"F";NA;NA;NA;NA;NA;NA;NA
7123;NA;"M";NA;NA;NA;NA;NA;NA;NA
8204;NA;"F";NA;NA;NA;NA;NA;NA;NA
7942;NA;"M";NA;NA;NA;NA;NA;NA;NA
7474;NA;"F";NA;NA;NA;NA;NA;NA;NA
8205;NA;"M";NA;NA;NA;NA;NA;NA;NA
8095;NA;"M";NA;NA;NA;NA;NA;NA;NA
6877;NA;"F";NA;NA;NA;NA;NA;NA;NA
6972;NA;"M";NA;NA;NA;NA;NA;NA;NA
7781;NA;"M";NA;NA;NA;NA;NA;NA;NA
7628;NA;"F";NA;NA;NA;NA;NA;NA;NA
7879;NA;"F";NA;NA;NA;NA;NA;NA;NA
7073;NA;"F";NA;NA;NA;NA;NA;NA;NA
6973;NA;"F";NA;NA;NA;NA;NA;NA;NA
7277;NA;"F";NA;NA;NA;NA;NA;NA;NA
7646;NA;"F";NA;NA;NA;NA;NA;NA;NA
7074;NA;"M";NA;NA;NA;NA;NA;NA;NA
7391;NA;"F";NA;NA;NA;NA;NA;NA;NA
7692;NA;"F";NA;NA;NA;NA;NA;NA;NA
7075;NA;"M";NA;NA;NA;NA;NA;NA;NA
7818;NA;"F";NA;NA;NA;NA;NA;NA;NA
7840;NA;"M";NA;NA;NA;NA;NA;NA;NA
7245;NA;"M";NA;NA;NA;NA;NA;NA;NA
7076;NA;"F";NA;NA;NA;NA;NA;NA;NA
7392;NA;"F";NA;NA;NA;NA;NA;NA;NA
7006;NA;"F";NA;NA;NA;NA;NA;NA;NA
7820;NA;"F";NA;NA;NA;NA;NA;NA;NA
6974;NA;"M";NA;NA;NA;NA;NA;NA;NA
8029;NA;"F";NA;NA;NA;NA;NA;NA;NA
7077;NA;"F";NA;NA;NA;NA;NA;NA;NA
7822;NA;"F";NA;NA;NA;NA;NA;NA;NA
7511;NA;"F";NA;NA;NA;NA;NA;NA;NA
7078;NA;"F";NA;NA;NA;NA;NA;NA;NA
7823;NA;"F";NA;NA;NA;NA;NA;NA;NA
7079;NA;"F";NA;NA;NA;NA;NA;NA;NA
7824;NA;"F";NA;NA;NA;NA;NA;NA;NA
7694;NA;"M";NA;NA;NA;NA;NA;NA;NA
7080;NA;"F";NA;NA;NA;NA;NA;NA;NA
7294;NA;"M";NA;NA;NA;NA;NA;NA;NA
7081;NA;"M";NA;NA;NA;NA;NA;NA;NA
7246;NA;"M";NA;NA;NA;NA;NA;NA;NA
7210;NA;"M";NA;NA;NA;NA;NA;NA;NA
7278;NA;"M";NA;NA;NA;NA;NA;NA;NA
7083;NA;"F";NA;NA;NA;NA;NA;NA;NA
7909;NA;"F";NA;NA;NA;NA;NA;NA;NA
6878;NA;"F";NA;NA;NA;NA;NA;NA;NA
6975;NA;"F";NA;NA;NA;NA;NA;NA;NA
7825;NA;"F";NA;NA;NA;NA;NA;NA;NA
7284;NA;"F";NA;NA;NA;NA;NA;NA;NA
7826;NA;"F";NA;NA;NA;NA;NA;NA;NA
7929;NA;"F";NA;NA;NA;NA;NA;NA;NA
7697;NA;"F";NA;NA;NA;NA;NA;NA;NA
7295;NA;"M";NA;NA;NA;NA;NA;NA;NA
7397;NA;"M";NA;NA;NA;NA;NA;NA;NA
7084;NA;"F";NA;NA;NA;NA;NA;NA;NA
7910;NA;"M";NA;NA;NA;NA;NA;NA;NA
6934;NA;"F";NA;NA;NA;NA;NA;NA;NA
8096;NA;"F";NA;NA;NA;NA;NA;NA;NA
6879;NA;"F";NA;NA;NA;NA;NA;NA;NA
7085;NA;"F";NA;NA;NA;NA;NA;NA;NA
7398;NA;"F";NA;NA;NA;NA;NA;NA;NA
7829;NA;"F";NA;NA;NA;NA;NA;NA;NA
7399;NA;"M";NA;NA;NA;NA;NA;NA;NA
8030;NA;"M";NA;NA;NA;NA;NA;NA;NA
6976;NA;"F";NA;NA;NA;NA;NA;NA;NA
7086;NA;"F";NA;NA;NA;NA;NA;NA;NA
7830;NA;"F";NA;NA;NA;NA;NA;NA;NA
7400;NA;"F";NA;NA;NA;NA;NA;NA;NA
7930;NA;"M";NA;NA;NA;NA;NA;NA;NA
7401;NA;"F";NA;NA;NA;NA;NA;NA;NA
7402;NA;"F";NA;NA;NA;NA;NA;NA;NA
6977;NA;"M";NA;NA;NA;NA;NA;NA;NA
7379;NA;"M";NA;NA;NA;NA;NA;NA;NA
7963;NA;"F";NA;NA;NA;NA;NA;NA;NA
8031;NA;"F";NA;NA;NA;NA;NA;NA;NA
7346;NA;"F";NA;NA;NA;NA;NA;NA;NA
7798;NA;"F";NA;NA;NA;NA;NA;NA;NA
7738;NA;"M";NA;NA;NA;NA;NA;NA;NA
7475;NA;"M";NA;NA;NA;NA;NA;NA;NA
6957;NA;"M";NA;NA;NA;NA;NA;NA;NA
6958;NA;"M";NA;NA;NA;NA;NA;NA;NA
6995;NA;"M";NA;NA;NA;NA;NA;NA;NA
7739;NA;"M";NA;NA;NA;NA;NA;NA;NA
7296;NA;"M";NA;NA;NA;NA;NA;NA;NA
7172;NA;"M";NA;NA;NA;NA;NA;NA;NA
7841;NA;"F";NA;NA;NA;NA;NA;NA;NA
7740;NA;"F";NA;NA;NA;NA;NA;NA;NA
7762;NA;"F";NA;NA;NA;NA;NA;NA;NA
7911;NA;"F";NA;NA;NA;NA;NA;NA;NA
7763;NA;"M";NA;NA;NA;NA;NA;NA;NA
7476;NA;"M";NA;NA;NA;NA;NA;NA;NA
8114;NA;"NA";NA;NA;NA;NA;NA;NA;NA
8115;NA;"M";NA;NA;NA;NA;NA;NA;NA
7741;NA;"F";NA;NA;NA;NA;NA;NA;NA
7596;NA;"F";NA;NA;NA;NA;NA;NA;NA
7258;NA;"M";NA;NA;NA;NA;NA;NA;NA
6996;NA;"M";NA;NA;NA;NA;NA;NA;NA
7831;NA;"M";NA;NA;NA;NA;NA;NA;NA
7087;NA;"F";NA;NA;NA;NA;NA;NA;NA
8206;NA;"F";NA;NA;NA;NA;NA;NA;NA
7832;NA;"M";NA;NA;NA;NA;NA;NA;NA
6997;NA;"F";NA;NA;NA;NA;NA;NA;NA
7088;NA;"M";NA;NA;NA;NA;NA;NA;NA
8116;NA;"M";NA;NA;NA;NA;NA;NA;NA
7888;NA;"M";NA;NA;NA;NA;NA;NA;NA
8117;NA;"F";NA;NA;NA;NA;NA;NA;NA
7089;NA;"F";NA;NA;NA;NA;NA;NA;NA
7312;NA;"M";NA;NA;NA;NA;NA;NA;NA
7313;NA;"M";NA;NA;NA;NA;NA;NA;NA
7090;NA;"F";NA;NA;NA;NA;NA;NA;NA
8118;NA;"F";NA;NA;NA;NA;NA;NA;NA
7456;NA;"F";NA;NA;NA;NA;NA;NA;NA
7211;NA;"F";NA;NA;NA;NA;NA;NA;NA
8097;NA;"F";NA;NA;NA;NA;NA;NA;NA
6998;NA;"F";NA;NA;NA;NA;NA;NA;NA
7358;NA;"F";NA;NA;NA;NA;NA;NA;NA
7059;NA;"F";NA;NA;NA;NA;NA;NA;NA
6905;NA;"M";NA;NA;NA;NA;NA;NA;NA
8004;NA;"F";NA;NA;NA;NA;NA;NA;NA
7091;NA;"M";NA;NA;NA;NA;NA;NA;NA
8119;NA;"M";NA;NA;NA;NA;NA;NA;NA
8176;NA;"F";NA;NA;NA;NA;NA;NA;NA
7092;NA;"F";NA;NA;NA;NA;NA;NA;NA
8120;NA;"M";NA;NA;NA;NA;NA;NA;NA
7261;NA;"F";NA;NA;NA;NA;NA;NA;NA
6978;NA;"F";NA;NA;NA;NA;NA;NA;NA
7557;NA;"M";NA;NA;NA;NA;NA;NA;NA
8180;NA;"F";NA;NA;NA;NA;NA;NA;NA
8121;NA;"M";NA;NA;NA;NA;NA;NA;NA
7650;NA;"M";NA;NA;NA;NA;NA;NA;NA
7093;NA;"M";NA;NA;NA;NA;NA;NA;NA
8122;NA;"F";NA;NA;NA;NA;NA;NA;NA
8005;NA;"M";NA;NA;NA;NA;NA;NA;NA
8182;NA;"F";NA;NA;NA;NA;NA;NA;NA
6906;NA;"F";NA;NA;NA;NA;NA;NA;NA
7262;NA;"M";NA;NA;NA;NA;NA;NA;NA
7931;NA;"M";NA;NA;NA;NA;NA;NA;NA
8124;NA;"F";NA;NA;NA;NA;NA;NA;NA
7095;NA;"M";NA;NA;NA;NA;NA;NA;NA
7764;NA;"F";NA;NA;NA;NA;NA;NA;NA
8187;NA;"F";NA;NA;NA;NA;NA;NA;NA
7096;NA;"M";NA;NA;NA;NA;NA;NA;NA
8125;NA;"M";NA;NA;NA;NA;NA;NA;NA
7516;NA;"M";NA;NA;NA;NA;NA;NA;NA
7742;NA;"M";NA;NA;NA;NA;NA;NA;NA
7097;NA;"F";NA;NA;NA;NA;NA;NA;NA
8126;NA;"F";NA;NA;NA;NA;NA;NA;NA
7124;NA;"F";NA;NA;NA;NA;NA;NA;NA
7717;NA;"M";NA;NA;NA;NA;NA;NA;NA
7698;NA;"M";NA;NA;NA;NA;NA;NA;NA
7125;NA;"F";NA;NA;NA;NA;NA;NA;NA
7517;NA;"M";NA;NA;NA;NA;NA;NA;NA
7126;NA;"F";NA;NA;NA;NA;NA;NA;NA
8138;NA;"M";NA;NA;NA;NA;NA;NA;NA
8127;NA;"F";NA;NA;NA;NA;NA;NA;NA
8128;NA;"F";NA;NA;NA;NA;NA;NA;NA
7969;NA;"F";NA;NA;NA;NA;NA;NA;NA
7128;NA;"F";NA;NA;NA;NA;NA;NA;NA
7970;NA;"F";NA;NA;NA;NA;NA;NA;NA
6907;NA;"F";NA;NA;NA;NA;NA;NA;NA
7914;NA;"F";NA;NA;NA;NA;NA;NA;NA
7129;NA;"F";NA;NA;NA;NA;NA;NA;NA
7971;NA;"M";NA;NA;NA;NA;NA;NA;NA
7988;NA;"M";NA;NA;NA;NA;NA;NA;NA
7518;NA;"F";NA;NA;NA;NA;NA;NA;NA
7972;NA;"M";NA;NA;NA;NA;NA;NA;NA
7519;NA;"F";NA;NA;NA;NA;NA;NA;NA
8207;NA;"M";NA;NA;NA;NA;NA;NA;NA
7989;NA;"F";NA;NA;NA;NA;NA;NA;NA
7520;NA;"F";NA;NA;NA;NA;NA;NA;NA
7521;NA;"F";NA;NA;NA;NA;NA;NA;NA
7418;NA;"M";NA;NA;NA;NA;NA;NA;NA
7419;NA;"F";NA;NA;NA;NA;NA;NA;NA
8139;NA;"M";NA;NA;NA;NA;NA;NA;NA
8140;NA;"F";NA;NA;NA;NA;NA;NA;NA
6959;NA;"M";NA;NA;NA;NA;NA;NA;NA
6908;NA;"F";NA;NA;NA;NA;NA;NA;NA
6960;NA;"M";NA;NA;NA;NA;NA;NA;NA
6909;NA;"F";NA;NA;NA;NA;NA;NA;NA
7130;NA;"F";NA;NA;NA;NA;NA;NA;NA
8050;NA;"F";NA;NA;NA;NA;NA;NA;NA
7104;NA;"F";NA;NA;NA;NA;NA;NA;NA
7279;NA;"M";NA;NA;NA;NA;NA;NA;NA
7597;NA;"M";NA;NA;NA;NA;NA;NA;NA
7522;NA;"F";NA;NA;NA;NA;NA;NA;NA
7915;NA;"M";NA;NA;NA;NA;NA;NA;NA
7359;NA;"F";NA;NA;NA;NA;NA;NA;NA
7916;NA;"F";NA;NA;NA;NA;NA;NA;NA
7991;NA;"M";NA;NA;NA;NA;NA;NA;NA
7974;NA;"F";NA;NA;NA;NA;NA;NA;NA
7558;NA;"M";NA;NA;NA;NA;NA;NA;NA
7024;NA;"M";NA;NA;NA;NA;NA;NA;NA
7917;NA;"M";NA;NA;NA;NA;NA;NA;NA
6935;NA;"F";NA;NA;NA;NA;NA;NA;NA
8188;NA;"M";NA;NA;NA;NA;NA;NA;NA
7105;NA;"M";NA;NA;NA;NA;NA;NA;NA
8189;NA;"F";NA;NA;NA;NA;NA;NA;NA
7918;NA;"F";NA;NA;NA;NA;NA;NA;NA
7247;NA;"M";NA;NA;NA;NA;NA;NA;NA
7975;NA;"M";NA;NA;NA;NA;NA;NA;NA
8191;NA;"F";NA;NA;NA;NA;NA;NA;NA
7992;NA;"M";NA;NA;NA;NA;NA;NA;NA
8006;NA;"F";NA;NA;NA;NA;NA;NA;NA
8007;NA;"F";NA;NA;NA;NA;NA;NA;NA
7920;NA;"M";NA;NA;NA;NA;NA;NA;NA
7363;NA;"M";NA;NA;NA;NA;NA;NA;NA
7891;NA;"F";NA;NA;NA;NA;NA;NA;NA
7699;NA;"F";NA;NA;NA;NA;NA;NA;NA
7932;NA;"F";NA;NA;NA;NA;NA;NA;NA
8193;NA;"F";NA;NA;NA;NA;NA;NA;NA
7976;NA;"F";NA;NA;NA;NA;NA;NA;NA
7718;NA;"F";NA;NA;NA;NA;NA;NA;NA
7333;NA;"F";NA;NA;NA;NA;NA;NA;NA
7025;NA;"F";NA;NA;NA;NA;NA;NA;NA
7264;NA;"F";NA;NA;NA;NA;NA;NA;NA
7892;NA;"F";NA;NA;NA;NA;NA;NA;NA
7364;NA;"F";NA;NA;NA;NA;NA;NA;NA
6913;NA;"F";NA;NA;NA;NA;NA;NA;NA
7559;NA;"F";NA;NA;NA;NA;NA;NA;NA
7977;NA;"F";NA;NA;NA;NA;NA;NA;NA
7743;NA;"M";NA;NA;NA;NA;NA;NA;NA
7366;NA;"F";NA;NA;NA;NA;NA;NA;NA
7367;NA;"M";NA;NA;NA;NA;NA;NA;NA
7255;NA;"M";NA;NA;NA;NA;NA;NA;NA
7334;NA;"F";NA;NA;NA;NA;NA;NA;NA
7026;NA;"M";NA;NA;NA;NA;NA;NA;NA
7477;NA;"F";NA;NA;NA;NA;NA;NA;NA
7131;NA;"F";NA;NA;NA;NA;NA;NA;NA
8008;NA;"F";NA;NA;NA;NA;NA;NA;NA
7944;NA;"M";NA;NA;NA;NA;NA;NA;NA
7978;NA;"M";NA;NA;NA;NA;NA;NA;NA
8141;NA;"F";NA;NA;NA;NA;NA;NA;NA
7979;NA;"F";NA;NA;NA;NA;NA;NA;NA
7980;NA;"F";NA;NA;NA;NA;NA;NA;NA
7993;NA;"M";NA;NA;NA;NA;NA;NA;NA
7893;NA;"F";NA;NA;NA;NA;NA;NA;NA
7106;NA;"F";NA;NA;NA;NA;NA;NA;NA
7265;NA;"M";NA;NA;NA;NA;NA;NA;NA
7933;NA;"F";NA;NA;NA;NA;NA;NA;NA
7651;NA;"F";NA;NA;NA;NA;NA;NA;NA
7457;NA;"M";NA;NA;NA;NA;NA;NA;NA
7560;NA;"M";NA;NA;NA;NA;NA;NA;NA
8011;NA;"M";NA;NA;NA;NA;NA;NA;NA
7132;NA;"M";NA;NA;NA;NA;NA;NA;NA
6999;NA;"F";NA;NA;NA;NA;NA;NA;NA
7133;NA;"F";NA;NA;NA;NA;NA;NA;NA
8012;NA;"F";NA;NA;NA;NA;NA;NA;NA
7934;NA;"M";NA;NA;NA;NA;NA;NA;NA
7935;NA;"M";NA;NA;NA;NA;NA;NA;NA
8068;NA;"M";NA;NA;NA;NA;NA;NA;NA
8194;NA;"F";NA;NA;NA;NA;NA;NA;NA
7629;NA;"M";NA;NA;NA;NA;NA;NA;NA
7008;NA;"M";NA;NA;NA;NA;NA;NA;NA
8013;NA;"M";NA;NA;NA;NA;NA;NA;NA
7429;NA;"F";NA;NA;NA;NA;NA;NA;NA
7430;NA;"M";NA;NA;NA;NA;NA;NA;NA
7599;NA;"F";NA;NA;NA;NA;NA;NA;NA
7744;NA;"F";NA;NA;NA;NA;NA;NA;NA
7459;NA;"F";NA;NA;NA;NA;NA;NA;NA
8162;NA;"M";NA;NA;NA;NA;NA;NA;NA
7523;NA;"F";NA;NA;NA;NA;NA;NA;NA
7782;NA;"F";NA;NA;NA;NA;NA;NA;NA
8069;NA;"M";NA;NA;NA;NA;NA;NA;NA
7461;NA;"F";NA;NA;NA;NA;NA;NA;NA
8195;NA;"M";NA;NA;NA;NA;NA;NA;NA
8070;NA;"M";NA;NA;NA;NA;NA;NA;NA
7478;NA;"M";NA;NA;NA;NA;NA;NA;NA
6918;NA;"F";NA;NA;NA;NA;NA;NA;NA
7107;NA;"F";NA;NA;NA;NA;NA;NA;NA
7009;NA;"M";NA;NA;NA;NA;NA;NA;NA
7630;NA;"M";NA;NA;NA;NA;NA;NA;NA
7765;NA;"M";NA;NA;NA;NA;NA;NA;NA
7010;NA;"M";NA;NA;NA;NA;NA;NA;NA
7605;NA;"M";NA;NA;NA;NA;NA;NA;NA
8014;NA;"F";NA;NA;NA;NA;NA;NA;NA
7011;NA;"M";NA;NA;NA;NA;NA;NA;NA
7561;NA;"F";NA;NA;NA;NA;NA;NA;NA
8196;NA;"F";NA;NA;NA;NA;NA;NA;NA
7280;NA;"F";NA;NA;NA;NA;NA;NA;NA
7012;NA;"M";NA;NA;NA;NA;NA;NA;NA
7945;NA;"F";NA;NA;NA;NA;NA;NA;NA
7936;NA;"M";NA;NA;NA;NA;NA;NA;NA
7766;NA;"F";NA;NA;NA;NA;NA;NA;NA
7719;NA;"M";NA;NA;NA;NA;NA;NA;NA
7212;NA;"M";NA;NA;NA;NA;NA;NA;NA
7767;NA;"M";NA;NA;NA;NA;NA;NA;NA
7145;NA;"F";NA;NA;NA;NA;NA;NA;NA
7027;NA;"F";NA;NA;NA;NA;NA;NA;NA
8051;NA;"M";NA;NA;NA;NA;NA;NA;NA
7946;NA;"M";NA;NA;NA;NA;NA;NA;NA
8052;NA;"M";NA;NA;NA;NA;NA;NA;NA
7431;NA;"F";NA;NA;NA;NA;NA;NA;NA
7947;NA;"F";NA;NA;NA;NA;NA;NA;NA
8053;NA;"F";NA;NA;NA;NA;NA;NA;NA
7013;NA;"M";NA;NA;NA;NA;NA;NA;NA
7995;NA;"M";NA;NA;NA;NA;NA;NA;NA
8054;NA;"M";NA;NA;NA;NA;NA;NA;NA
8055;NA;"F";NA;NA;NA;NA;NA;NA;NA
8197;NA;"F";NA;NA;NA;NA;NA;NA;NA
7996;NA;"F";NA;NA;NA;NA;NA;NA;NA
7997;NA;"M";NA;NA;NA;NA;NA;NA;NA
8056;NA;"M";NA;NA;NA;NA;NA;NA;NA
8057;NA;"F";NA;NA;NA;NA;NA;NA;NA
7948;NA;"M";NA;NA;NA;NA;NA;NA;NA
7677;NA;"M";NA;NA;NA;NA;NA;NA;NA
8058;NA;"F";NA;NA;NA;NA;NA;NA;NA
7998;NA;"F";NA;NA;NA;NA;NA;NA;NA
8059;NA;"M";NA;NA;NA;NA;NA;NA;NA
8015;NA;"F";NA;NA;NA;NA;NA;NA;NA
8099;NA;"F";NA;NA;NA;NA;NA;NA;NA
8060;NA;"M";NA;NA;NA;NA;NA;NA;NA
7745;NA;"F";NA;NA;NA;NA;NA;NA;NA
8198;NA;"M";NA;NA;NA;NA;NA;NA;NA
7949;NA;"F";NA;NA;NA;NA;NA;NA;NA
7060;NA;"M";NA;NA;NA;NA;NA;NA;NA
8000;NA;"M";NA;NA;NA;NA;NA;NA;NA
8061;NA;"M";NA;NA;NA;NA;NA;NA;NA
7950;NA;"M";NA;NA;NA;NA;NA;NA;NA
7188;NA;"F";NA;NA;NA;NA;NA;NA;NA
7951;NA;"F";NA;NA;NA;NA;NA;NA;NA
7678;NA;"F";NA;NA;NA;NA;NA;NA;NA
8001;NA;"M";NA;NA;NA;NA;NA;NA;NA
8062;NA;"F";NA;NA;NA;NA;NA;NA;NA
8003;NA;"F";NA;NA;NA;NA;NA;NA;NA
7230;NA;"F";NA;NA;NA;NA;NA;NA;NA
7015;NA;"F";NA;NA;NA;NA;NA;NA;NA
7562;NA;"M";NA;NA;NA;NA;NA;NA;NA
7746;NA;"M";NA;NA;NA;NA;NA;NA;NA
7146;NA;"M";NA;NA;NA;NA;NA;NA;NA
6919;NA;"F";NA;NA;NA;NA;NA;NA;NA
7952;NA;"M";NA;NA;NA;NA;NA;NA;NA
7266;NA;"M";NA;NA;NA;NA;NA;NA;NA
7747;NA;"M";NA;NA;NA;NA;NA;NA;NA
7953;NA;"M";NA;NA;NA;NA;NA;NA;NA
7249;NA;"M";NA;NA;NA;NA;NA;NA;NA
8064;NA;"F";NA;NA;NA;NA;NA;NA;NA
6920;NA;"M";NA;NA;NA;NA;NA;NA;NA
7250;NA;"M";NA;NA;NA;NA;NA;NA;NA
8100;NA;"F";NA;NA;NA;NA;NA;NA;NA
8016;NA;"F";NA;NA;NA;NA;NA;NA;NA
8071;NA;"M";NA;NA;NA;NA;NA;NA;NA
7463;NA;"M";NA;NA;NA;NA;NA;NA;NA
7314;NA;"M";NA;NA;NA;NA;NA;NA;NA
7108;NA;"M";NA;NA;NA;NA;NA;NA;NA
7954;NA;"M";NA;NA;NA;NA;NA;NA;NA
7347;NA;"F";NA;NA;NA;NA;NA;NA;NA
7420;NA;"M";NA;NA;NA;NA;NA;NA;NA
6921;NA;"F";NA;NA;NA;NA;NA;NA;NA
7213;NA;"M";NA;NA;NA;NA;NA;NA;NA
6922;NA;"F";NA;NA;NA;NA;NA;NA;NA
7285;NA;"F";NA;NA;NA;NA;NA;NA;NA
7748;NA;"M";NA;NA;NA;NA;NA;NA;NA
7524;NA;"M";NA;NA;NA;NA;NA;NA;NA
7652;NA;"F";NA;NA;NA;NA;NA;NA;NA
6961;NA;"M";NA;NA;NA;NA;NA;NA;NA
6963;NA;"F";NA;NA;NA;NA;NA;NA;NA
8101;NA;"F";NA;NA;NA;NA;NA;NA;NA
7147;NA;"M";NA;NA;NA;NA;NA;NA;NA
6964;NA;"F";NA;NA;NA;NA;NA;NA;NA
7000;NA;"M";NA;NA;NA;NA;NA;NA;NA
6965;NA;"M";NA;NA;NA;NA;NA;NA;NA
7631;NA;"F";NA;NA;NA;NA;NA;NA;NA
7028;NA;"M";NA;NA;NA;NA;NA;NA;NA
7749;NA;"F";NA;NA;NA;NA;NA;NA;NA
7700;NA;"F";NA;NA;NA;NA;NA;NA;NA
7432;NA;"F";NA;NA;NA;NA;NA;NA;NA
6966;NA;"F";NA;NA;NA;NA;NA;NA;NA
7304;NA;"M";NA;NA;NA;NA;NA;NA;NA
7305;NA;"M";NA;NA;NA;NA;NA;NA;NA
7632;NA;"F";NA;NA;NA;NA;NA;NA;NA
7783;NA;"M";NA;NA;NA;NA;NA;NA;NA
7029;NA;"M";NA;NA;NA;NA;NA;NA;NA
7425;NA;"M";NA;NA;NA;NA;NA;NA;NA
7148;NA;"M";NA;NA;NA;NA;NA;NA;NA
7109;NA;"M";NA;NA;NA;NA;NA;NA;NA
6967;NA;"F";NA;NA;NA;NA;NA;NA;NA
7030;NA;"M";NA;NA;NA;NA;NA;NA;NA
8199;NA;"M";NA;NA;NA;NA;NA;NA;NA
8034;NA;"M";NA;NA;NA;NA;NA;NA;NA
7955;NA;"M";NA;NA;NA;NA;NA;NA;NA
8146;NA;"M";NA;NA;NA;NA;NA;NA;NA
7957;NA;"F";NA;NA;NA;NA;NA;NA;NA
7031;NA;"M";NA;NA;NA;NA;NA;NA;NA
7525;NA;"M";NA;NA;NA;NA;NA;NA;NA
7958;NA;"M";NA;NA;NA;NA;NA;NA;NA
7959;NA;"M";NA;NA;NA;NA;NA;NA;NA
7653;NA;"M";NA;NA;NA;NA;NA;NA;NA
7633;NA;"F";NA;NA;NA;NA;NA;NA;NA
7563;NA;"F";NA;NA;NA;NA;NA;NA;NA
7214;NA;"F";NA;NA;NA;NA;NA;NA;NA
7564;NA;"F";NA;NA;NA;NA;NA;NA;NA
7173;NA;"F";NA;NA;NA;NA;NA;NA;NA
7464;NA;"F";NA;NA;NA;NA;NA;NA;NA
7348;NA;"M";NA;NA;NA;NA;NA;NA;NA
7799;NA;"F";NA;NA;NA;NA;NA;NA;NA
7842;NA;"M";NA;NA;NA;NA;NA;NA;NA
6881;NA;"M";NA;NA;NA;NA;NA;NA;NA
7267;NA;"M";NA;NA;NA;NA;NA;NA;NA
7174;NA;"M";NA;NA;NA;NA;NA;NA;NA
7843;NA;"F";NA;NA;NA;NA;NA;NA;NA
7381;NA;"M";NA;NA;NA;NA;NA;NA;NA
7960;NA;"F";NA;NA;NA;NA;NA;NA;NA
8035;NA;"M";NA;NA;NA;NA;NA;NA;NA
7654;NA;"F";NA;NA;NA;NA;NA;NA;NA
8240;NA;"F";NA;NA;NA;NA;NA;NA;NA
7606;NA;"M";NA;NA;NA;NA;NA;NA;NA
7149;NA;"F";NA;NA;NA;NA;NA;NA;NA
7937;NA;"F";NA;NA;NA;NA;NA;NA;NA
7382;NA;"M";NA;NA;NA;NA;NA;NA;NA
8072;NA;"F";NA;NA;NA;NA;NA;NA;NA
7961;NA;"M";NA;NA;NA;NA;NA;NA;NA
7844;NA;"M";NA;NA;NA;NA;NA;NA;NA
7426;NA;"M";NA;NA;NA;NA;NA;NA;NA
8241;NA;"F";NA;NA;NA;NA;NA;NA;NA
8102;NA;"M";NA;NA;NA;NA;NA;NA;NA
7315;NA;"M";NA;NA;NA;NA;NA;NA;NA
8147;NA;"M";NA;NA;NA;NA;NA;NA;NA
7316;NA;"M";NA;NA;NA;NA;NA;NA;NA
7488;NA;"M";NA;NA;NA;NA;NA;NA;NA
7845;NA;"M";NA;NA;NA;NA;NA;NA;NA
7368;NA;"F";NA;NA;NA;NA;NA;NA;NA
7634;NA;"M";NA;NA;NA;NA;NA;NA;NA
7846;NA;"M";NA;NA;NA;NA;NA;NA;NA
7962;NA;"M";NA;NA;NA;NA;NA;NA;NA
8103;NA;"F";NA;NA;NA;NA;NA;NA;NA
7427;NA;"M";NA;NA;NA;NA;NA;NA;NA
7465;NA;"M";NA;NA;NA;NA;NA;NA;NA
7134;NA;"F";NA;NA;NA;NA;NA;NA;NA
7720;NA;"F";NA;NA;NA;NA;NA;NA;NA
7526;NA;"M";NA;NA;NA;NA;NA;NA;NA
7231;NA;"F";NA;NA;NA;NA;NA;NA;NA
7607;NA;"F";NA;NA;NA;NA;NA;NA;NA
7175;NA;"F";NA;NA;NA;NA;NA;NA;NA
7001;NA;"M";NA;NA;NA;NA;NA;NA;NA
7150;NA;"F";NA;NA;NA;NA;NA;NA;NA
7110;NA;"F";NA;NA;NA;NA;NA;NA;NA
7189;NA;"F";NA;NA;NA;NA;NA;NA;NA
7701;NA;"M";NA;NA;NA;NA;NA;NA;NA
7679;NA;"F";NA;NA;NA;NA;NA;NA;NA
7287;NA;"M";NA;NA;NA;NA;NA;NA;NA
7190;NA;"F";NA;NA;NA;NA;NA;NA;NA
7288;NA;"F";NA;NA;NA;NA;NA;NA;NA
7061;NA;"M";NA;NA;NA;NA;NA;NA;NA
7289;NA;"M";NA;NA;NA;NA;NA;NA;NA
7847;NA;"F";NA;NA;NA;NA;NA;NA;NA
7635;NA;"M";NA;NA;NA;NA;NA;NA;NA
7032;NA;"F";NA;NA;NA;NA;NA;NA;NA
7033;NA;"F";NA;NA;NA;NA;NA;NA;NA
7151;NA;"F";NA;NA;NA;NA;NA;NA;NA
7784;NA;"F";NA;NA;NA;NA;NA;NA;NA
7769;NA;"F";NA;NA;NA;NA;NA;NA;NA
8022;NA;"M";NA;NA;NA;NA;NA;NA;NA
7721;NA;"F";NA;NA;NA;NA;NA;NA;NA
6982;NA;"M";NA;NA;NA;NA;NA;NA;NA
7750;NA;"M";NA;NA;NA;NA;NA;NA;NA
7135;NA;"M";NA;NA;NA;NA;NA;NA;NA
8107;NA;"M";NA;NA;NA;NA;NA;NA;NA
7307;NA;"F";NA;NA;NA;NA;NA;NA;NA
7785;NA;"M";NA;NA;NA;NA;NA;NA;NA
7308;NA;"M";NA;NA;NA;NA;NA;NA;NA
7016;NA;"M";NA;NA;NA;NA;NA;NA;NA
6983;NA;"M";NA;NA;NA;NA;NA;NA;NA
8131;NA;"M";NA;NA;NA;NA;NA;NA;NA
8108;NA;"F";NA;NA;NA;NA;NA;NA;NA
6984;NA;"M";NA;NA;NA;NA;NA;NA;NA
7116;NA;"F";NA;NA;NA;NA;NA;NA;NA
6985;NA;"F";NA;NA;NA;NA;NA;NA;NA
6986;NA;"F";NA;NA;NA;NA;NA;NA;NA
7786;NA;"M";NA;NA;NA;NA;NA;NA;NA
7291;NA;"F";NA;NA;NA;NA;NA;NA;NA
7311;NA;"M";NA;NA;NA;NA;NA;NA;NA
8109;NA;"F";NA;NA;NA;NA;NA;NA;NA
6988;NA;"F";NA;NA;NA;NA;NA;NA;NA
7136;NA;"F";NA;NA;NA;NA;NA;NA;NA
8073;NA;"M";NA;NA;NA;NA;NA;NA;NA
8163;NA;"F";NA;NA;NA;NA;NA;NA;NA
7383;NA;"M";NA;NA;NA;NA;NA;NA;NA
7034;NA;"M";NA;NA;NA;NA;NA;NA;NA
7489;NA;"M";NA;NA;NA;NA;NA;NA;NA
7191;NA;"F";NA;NA;NA;NA;NA;NA;NA
7565;NA;"M";NA;NA;NA;NA;NA;NA;NA
7490;NA;"F";NA;NA;NA;NA;NA;NA;NA
7528;NA;"F";NA;NA;NA;NA;NA;NA;NA
7319;NA;"F";NA;NA;NA;NA;NA;NA;NA
8110;NA;"M";NA;NA;NA;NA;NA;NA;NA
6882;NA;"F";NA;NA;NA;NA;NA;NA;NA
8111;NA;"M";NA;NA;NA;NA;NA;NA;NA
7035;NA;"F";NA;NA;NA;NA;NA;NA;NA
7938;NA;"F";NA;NA;NA;NA;NA;NA;NA
7848;NA;"F";NA;NA;NA;NA;NA;NA;NA
7322;NA;"F";NA;NA;NA;NA;NA;NA;NA
6884;NA;"M";NA;NA;NA;NA;NA;NA;NA
7530;NA;"F";NA;NA;NA;NA;NA;NA;NA
7751;NA;"F";NA;NA;NA;NA;NA;NA;NA
8164;NA;"F";NA;NA;NA;NA;NA;NA;NA
7323;NA;"F";NA;NA;NA;NA;NA;NA;NA
7722;NA;"F";NA;NA;NA;NA;NA;NA;NA
7036;NA;"M";NA;NA;NA;NA;NA;NA;NA
7324;NA;"F";NA;NA;NA;NA;NA;NA;NA
7404;NA;"F";NA;NA;NA;NA;NA;NA;NA
6886;NA;"M";NA;NA;NA;NA;NA;NA;NA
7326;NA;"F";NA;NA;NA;NA;NA;NA;NA
7063;NA;"M";NA;NA;NA;NA;NA;NA;NA
7771;NA;"M";NA;NA;NA;NA;NA;NA;NA
7192;NA;"F";NA;NA;NA;NA;NA;NA;NA
6887;NA;"F";NA;NA;NA;NA;NA;NA;NA
6989;NA;"M";NA;NA;NA;NA;NA;NA;NA
7327;NA;"F";NA;NA;NA;NA;NA;NA;NA
6888;NA;"F";NA;NA;NA;NA;NA;NA;NA
7405;NA;"F";NA;NA;NA;NA;NA;NA;NA
7002;NA;"F";NA;NA;NA;NA;NA;NA;NA
7037;NA;"F";NA;NA;NA;NA;NA;NA;NA
7437;NA;"M";NA;NA;NA;NA;NA;NA;NA
8150;NA;"M";NA;NA;NA;NA;NA;NA;NA
8080;NA;"F";NA;NA;NA;NA;NA;NA;NA
7039;NA;"M";NA;NA;NA;NA;NA;NA;NA
7040;NA;"M";NA;NA;NA;NA;NA;NA;NA
7849;NA;"F";NA;NA;NA;NA;NA;NA;NA
6937;NA;"M";NA;NA;NA;NA;NA;NA;NA
7193;NA;"F";NA;NA;NA;NA;NA;NA;NA
7656;NA;"F";NA;NA;NA;NA;NA;NA;NA
7017;NA;"F";NA;NA;NA;NA;NA;NA;NA
7438;NA;"M";NA;NA;NA;NA;NA;NA;NA
8081;NA;"F";NA;NA;NA;NA;NA;NA;NA
6938;NA;"F";NA;NA;NA;NA;NA;NA;NA
6990;NA;"M";NA;NA;NA;NA;NA;NA;NA
7152;NA;"F";NA;NA;NA;NA;NA;NA;NA
7350;NA;"F";NA;NA;NA;NA;NA;NA;NA
8023;NA;"M";NA;NA;NA;NA;NA;NA;NA
8165;NA;"M";NA;NA;NA;NA;NA;NA;NA
7153;NA;"F";NA;NA;NA;NA;NA;NA;NA
8166;NA;"F";NA;NA;NA;NA;NA;NA;NA
8167;NA;"F";NA;NA;NA;NA;NA;NA;NA
7139;NA;"M";NA;NA;NA;NA;NA;NA;NA
7140;NA;"M";NA;NA;NA;NA;NA;NA;NA
7659;NA;"M";NA;NA;NA;NA;NA;NA;NA
7660;NA;"M";NA;NA;NA;NA;NA;NA;NA
7662;NA;"M";NA;NA;NA;NA;NA;NA;NA
7702;NA;"M";NA;NA;NA;NA;NA;NA;NA
8169;NA;"F";NA;NA;NA;NA;NA;NA;NA
7703;NA;"M";NA;NA;NA;NA;NA;NA;NA
7177;NA;"F";NA;NA;NA;NA;NA;NA;NA
7268;NA;"M";NA;NA;NA;NA;NA;NA;NA
8082;NA;"F";NA;NA;NA;NA;NA;NA;NA
7704;NA;"M";NA;NA;NA;NA;NA;NA;NA
7800;NA;"M";NA;NA;NA;NA;NA;NA;NA
6991;NA;"NA";NA;NA;NA;NA;NA;NA;NA
7328;NA;"F";NA;NA;NA;NA;NA;NA;NA
7003;NA;"F";NA;NA;NA;NA;NA;NA;NA
7707;NA;"M";NA;NA;NA;NA;NA;NA;NA
7154;NA;"F";NA;NA;NA;NA;NA;NA;NA
6924;NA;"M";NA;NA;NA;NA;NA;NA;NA
7269;NA;"F";NA;NA;NA;NA;NA;NA;NA
6925;NA;"F";NA;NA;NA;NA;NA;NA;NA
8083;NA;"M";NA;NA;NA;NA;NA;NA;NA
7292;NA;"F";NA;NA;NA;NA;NA;NA;NA
7787;NA;"F";NA;NA;NA;NA;NA;NA;NA
7788;NA;"F";NA;NA;NA;NA;NA;NA;NA
7789;NA;"M";NA;NA;NA;NA;NA;NA;NA
7680;NA;"M";NA;NA;NA;NA;NA;NA;NA
7232;NA;"F";NA;NA;NA;NA;NA;NA;NA
7773;NA;"M";NA;NA;NA;NA;NA;NA;NA
8024;NA;"M";NA;NA;NA;NA;NA;NA;NA
7178;NA;"F";NA;NA;NA;NA;NA;NA;NA
8133;NA;"F";NA;NA;NA;NA;NA;NA;NA
8135;NA;"F";NA;NA;NA;NA;NA;NA;NA
7179;NA;"M";NA;NA;NA;NA;NA;NA;NA
8154;NA;"F";NA;NA;NA;NA;NA;NA;NA
6939;NA;"M";NA;NA;NA;NA;NA;NA;NA
8136;NA;"M";NA;NA;NA;NA;NA;NA;NA
7681;NA;"M";NA;NA;NA;NA;NA;NA;NA
8173;NA;"F";NA;NA;NA;NA;NA;NA;NA
7351;NA;"M";NA;NA;NA;NA;NA;NA;NA
8209;NA;"F";NA;NA;NA;NA;NA;NA;NA
8211;NA;"M";NA;NA;NA;NA;NA;NA;NA
7894;NA;"M";NA;NA;NA;NA;NA;NA;NA
7180;NA;"M";NA;NA;NA;NA;NA;NA;NA
8214;NA;"F";NA;NA;NA;NA;NA;NA;NA
7850;NA;"M";NA;NA;NA;NA;NA;NA;NA
7181;NA;"F";NA;NA;NA;NA;NA;NA;NA
7428;NA;"M";NA;NA;NA;NA;NA;NA;NA
8215;NA;"F";NA;NA;NA;NA;NA;NA;NA
8217;NA;"M";NA;NA;NA;NA;NA;NA;NA
8223;NA;"F";NA;NA;NA;NA;NA;NA;NA
7064;NA;"M";NA;NA;NA;NA;NA;NA;NA
8224;NA;"M";NA;NA;NA;NA;NA;NA;NA
8245;NA;"M";NA;NA;NA;NA;NA;NA;NA
6940;NA;"F";NA;NA;NA;NA;NA;NA;NA
7065;NA;"M";NA;NA;NA;NA;NA;NA;NA
8246;NA;"M";NA;NA;NA;NA;NA;NA;NA
7493;NA;"M";NA;NA;NA;NA;NA;NA;NA
7384;NA;"F";NA;NA;NA;NA;NA;NA;NA
7234;NA;"F";NA;NA;NA;NA;NA;NA;NA
7369;NA;"M";NA;NA;NA;NA;NA;NA;NA
8225;NA;"F";NA;NA;NA;NA;NA;NA;NA
7531;NA;"M";NA;NA;NA;NA;NA;NA;NA
7439;NA;"M";NA;NA;NA;NA;NA;NA;NA
8025;NA;"M";NA;NA;NA;NA;NA;NA;NA
7041;NA;"M";NA;NA;NA;NA;NA;NA;NA
6968;NA;"F";NA;NA;NA;NA;NA;NA;NA
7532;NA;"M";NA;NA;NA;NA;NA;NA;NA
7270;NA;"F";NA;NA;NA;NA;NA;NA;NA
7335;NA;"M";NA;NA;NA;NA;NA;NA;NA
7533;NA;"M";NA;NA;NA;NA;NA;NA;NA
6969;NA;"M";NA;NA;NA;NA;NA;NA;NA
7534;NA;"F";NA;NA;NA;NA;NA;NA;NA
7444;NA;"F";NA;NA;NA;NA;NA;NA;NA
7535;NA;"M";NA;NA;NA;NA;NA;NA;NA
7216;NA;"M";NA;NA;NA;NA;NA;NA;NA
7494;NA;"F";NA;NA;NA;NA;NA;NA;NA
7466;NA;"M";NA;NA;NA;NA;NA;NA;NA
7495;NA;"M";NA;NA;NA;NA;NA;NA;NA
7498;NA;"M";NA;NA;NA;NA;NA;NA;NA
7536;NA;"M";NA;NA;NA;NA;NA;NA;NA
7499;NA;"F";NA;NA;NA;NA;NA;NA;NA
7235;NA;"M";NA;NA;NA;NA;NA;NA;NA
7537;NA;"M";NA;NA;NA;NA;NA;NA;NA
7538;NA;"M";NA;NA;NA;NA;NA;NA;NA
7539;NA;"F";NA;NA;NA;NA;NA;NA;NA
7540;NA;"M";NA;NA;NA;NA;NA;NA;NA
6970;NA;"F";NA;NA;NA;NA;NA;NA;NA
7293;NA;"F";NA;NA;NA;NA;NA;NA;NA
7018;NA;"M";NA;NA;NA;NA;NA;NA;NA
7541;NA;"M";NA;NA;NA;NA;NA;NA;NA
6892;NA;"M";NA;NA;NA;NA;NA;NA;NA
7447;NA;"F";NA;NA;NA;NA;NA;NA;NA
7467;NA;"M";NA;NA;NA;NA;NA;NA;NA
7501;NA;"M";NA;NA;NA;NA;NA;NA;NA
7682;NA;"M";NA;NA;NA;NA;NA;NA;NA
7724;NA;"F";NA;NA;NA;NA;NA;NA;NA
6893;NA;"F";NA;NA;NA;NA;NA;NA;NA
7853;NA;"F";NA;NA;NA;NA;NA;NA;NA
6894;NA;"F";NA;NA;NA;NA;NA;NA;NA
6895;NA;"M";NA;NA;NA;NA;NA;NA;NA
7448;NA;"M";NA;NA;NA;NA;NA;NA;NA
6896;NA;"M";NA;NA;NA;NA;NA;NA;NA
6897;NA;"M";NA;NA;NA;NA;NA;NA;NA
6971;NA;"M";NA;NA;NA;NA;NA;NA;NA
7502;NA;"F";NA;NA;NA;NA;NA;NA;NA
7352;NA;"F";NA;NA;NA;NA;NA;NA;NA
7468;NA;"F";NA;NA;NA;NA;NA;NA;NA
7503;NA;"F";NA;NA;NA;NA;NA;NA;NA
7542;NA;"F";NA;NA;NA;NA;NA;NA;NA
6898;NA;"F";NA;NA;NA;NA;NA;NA;NA
7251;NA;"M";NA;NA;NA;NA;NA;NA;NA
7042;NA;"F";NA;NA;NA;NA;NA;NA;NA
7854;NA;"M";NA;NA;NA;NA;NA;NA;NA
7271;NA;"M";NA;NA;NA;NA;NA;NA;NA
7683;NA;"M";NA;NA;NA;NA;NA;NA;NA
7809;NA;"M";NA;NA;NA;NA;NA;NA;NA
7543;NA;"F";NA;NA;NA;NA;NA;NA;NA
7810;NA;"M";NA;NA;NA;NA;NA;NA;NA
7684;NA;"M";NA;NA;NA;NA;NA;NA;NA
7336;NA;"F";NA;NA;NA;NA;NA;NA;NA
7141;NA;"M";NA;NA;NA;NA;NA;NA;NA
7043;NA;"F";NA;NA;NA;NA;NA;NA;NA
7044;NA;"M";NA;NA;NA;NA;NA;NA;NA
7685;NA;"F";NA;NA;NA;NA;NA;NA;NA
7045;NA;"M";NA;NA;NA;NA;NA;NA;NA
7544;NA;"M";NA;NA;NA;NA;NA;NA;NA
7545;NA;"F";NA;NA;NA;NA;NA;NA;NA
7548;NA;"F";NA;NA;NA;NA;NA;NA;NA
7811;NA;"F";NA;NA;NA;NA;NA;NA;NA
7611;NA;"F";NA;NA;NA;NA;NA;NA;NA
7570;NA;"F";NA;NA;NA;NA;NA;NA;NA
6947;NA;"M";NA;NA;NA;NA;NA;NA;NA
7282;NA;"M";NA;NA;NA;NA;NA;NA;NA
7217;NA;"F";NA;NA;NA;NA;NA;NA;NA
7855;NA;"F";NA;NA;NA;NA;NA;NA;NA
7617;NA;"M";NA;NA;NA;NA;NA;NA;NA
7252;NA;"F";NA;NA;NA;NA;NA;NA;NA
7236;NA;"F";NA;NA;NA;NA;NA;NA;NA
7895;NA;"F";NA;NA;NA;NA;NA;NA;NA
7637;NA;"M";NA;NA;NA;NA;NA;NA;NA
7619;NA;"F";NA;NA;NA;NA;NA;NA;NA
7566;NA;"F";NA;NA;NA;NA;NA;NA;NA
7253;NA;"M";NA;NA;NA;NA;NA;NA;NA
7574;NA;"M";NA;NA;NA;NA;NA;NA;NA
7638;NA;"F";NA;NA;NA;NA;NA;NA;NA
7896;NA;"M";NA;NA;NA;NA;NA;NA;NA
7575;NA;"F";NA;NA;NA;NA;NA;NA;NA
7576;NA;"F";NA;NA;NA;NA;NA;NA;NA
7272;NA;"M";NA;NA;NA;NA;NA;NA;NA
7577;NA;"M";NA;NA;NA;NA;NA;NA;NA
7019;NA;"F";NA;NA;NA;NA;NA;NA;NA
7353;NA;"F";NA;NA;NA;NA;NA;NA;NA
7856;NA;"F";NA;NA;NA;NA;NA;NA;NA
7195;NA;"F";NA;NA;NA;NA;NA;NA;NA
7218;NA;"F";NA;NA;NA;NA;NA;NA;NA
7219;NA;"F";NA;NA;NA;NA;NA;NA;NA
7897;NA;"F";NA;NA;NA;NA;NA;NA;NA
7640;NA;"M";NA;NA;NA;NA;NA;NA;NA
7642;NA;"M";NA;NA;NA;NA;NA;NA;NA
7020;NA;"F";NA;NA;NA;NA;NA;NA;NA
7857;NA;"F";NA;NA;NA;NA;NA;NA;NA
7237;NA;"F";NA;NA;NA;NA;NA;NA;NA
7567;NA;"M";NA;NA;NA;NA;NA;NA;NA
6952;NA;"F";NA;NA;NA;NA;NA;NA;NA
8201;NA;"M";NA;NA;NA;NA;NA;NA;NA
7898;NA;"F";NA;NA;NA;NA;NA;NA;NA
7775;NA;"M";NA;NA;NA;NA;NA;NA;NA
7354;NA;"F";NA;NA;NA;NA;NA;NA;NA
7355;NA;"M";NA;NA;NA;NA;NA;NA;NA
7644;NA;"F";NA;NA;NA;NA;NA;NA;NA
7899;NA;"F";NA;NA;NA;NA;NA;NA;NA
7386;NA;"F";NA;NA;NA;NA;NA;NA;NA
7715;NA;"M";NA;NA;NA;NA;NA;NA;NA
