ID_SEJOUR;duree_reveil_tot;duree_rea_tot;sexe;nb_medic
3771;0;1 day, 23:38:00;M;
3773;0;2 days, 15:01:22;M;
3774;0;17:16:00;M;
3775;0;23:22:41;F;
3783;0;0;F;
3785;0;0;F;
3788;2:08:48;0;M;28,0
3789;0;0;M;1,0
3790;0;0;F;1,0
3791;1:58:08;0;F;10,0
3792;0;0;F;1,0
3794;1:23:13;0;M;14,0
3797;0;0;F;
3798;0;0;F;
3799;0;0;M;1,0
3802;3:23:29;0;F;14,0
3803;0;0;F;11,0
3805;0;0;F;
3806;2:12:30;0;F;13,0
3807;0;0;M;
3808;3:29:41;0;M;11,0
3809;1:18:23;0;M;16,0
3810;1:06:58;0;F;3,0
3811;1:59:02;0;M;15,0
3812;0;0;F;
3813;1:32:51;0;F;19,0
3814;0;1 day, 2:47:00;F;13,0
3815;0;0;M;
3816;1:05:02;0;M;9,0
3817;1:32:33;0;F;14,0
3818;1:00:12;0;F;5,0
3819;0;0;F;
3820;0;0;M;
3821;1:23:00;0;F;16,0
3822;0;0;M;
3823;1:27:58;0;M;7,0
3824;1:19:49;0;F;18,0
3825;1:21:33;0;F;12,0
3826;0;0;M;
3827;1:25:06;0;F;22,0
3829;0:51:10;0;M;6,0
3830;0:34:15;0;F;2,0
3831;1:58:24;0;M;10,0
3832;1:37:16;0;F;11,0
3833;1:14:17;0;F;21,0
3835;0:39:59;0;M;4,0
3836;0:41:52;0;F;6,0
3837;0;0;F;
3838;2:17:53;0;M;9,0
3839;2:01:40;0;F;10,0
3841;0;0;M;
3842;2:22:43;0;M;21,0
3843;0;2 days, 0:38:52;M;48,0
3844;0;3 days, 12:34:31;M;66,0
3845;1:50:02;0;F;19,0
3846;1:19:26;0;F;14,0
3847;2:25:01;0;F;19,0
3849;1:35:00;0;M;17,0
3850;2:09:27;0;M;24,0
3851;0;0;M;
3853;0;3 days, 21:31:52;M;53,0
3855;1:29:56;0;M;14,0
3856;1:15:55;0;F;20,0
3859;1:36:17;0;M;14,0
3860;4:48:21;0;M;11,0
3861;1:27:59;0;M;13,0
3862;1:28:45;0;F;17,0
3864;1:20:54;0;M;13,0
3865;0;0;M;2,0
3868;0;0;F;
3869;2:07:17;0;M;16,0
3870;0;0;M;
3871;1:59:46;0;F;10,0
3872;0:50:22;0;F;4,0
3873;1:38:51;0;M;9,0
3874;2:05:28;0;M;7,0
3875;0;0;F;
3876;5:48:50;0;M;19,0
3877;1:35:41;0;F;12,0
3878;1:58:04;0;M;4,0
3879;1:16:38;0;M;
3882;1:50:00;0;M;13,0
3885;1:21:03;0;F;23,0
3886;2:14:30;0;M;13,0
3887;1:56:41;0;F;4,0
3888;1:23:33;0;M;8,0
3889;1:32:28;0;F;17,0
3890;1:08:23;0;M;5,0
3891;0;0;F;
3892;1:04:47;0;F;7,0
3893;1:01:54;0;M;12,0
3894;1:07:15;0;F;11,0
3895;2:38:27;0;F;9,0
3896;1:50:29;0;M;2,0
3898;0;0;F;
3899;2:04:31;0;F;17,0
3900;2:02:45;0;F;10,0
3901;1:45:55;0;F;18,0
3902;0;0;M;
3903;2:02:49;21:25:52;M;21,0
3908;0;0;M;
3909;1:08:10;0;F;8,0
3910;0;0;M;
3913;2:13:49;0;F;11,0
3915;1:20:17;0;F;8,0
3916;1:02:40;0;F;6,0
3918;1:27:42;0;M;13,0
3919;0;0;M;
3920;2:42:50;0;F;20,0
3921;2:09:00;0;M;18,0
3922;0;0;F;
3923;1:41:31;0;F;11,0
3925;1:58:17;0;F;11,0
3926;1:18:44;0;F;12,0
3927;1:53:58;0;M;8,0
3928;0;0;M;
3930;1:06:26;0;F;7,0
3931;1:17:33;0;F;4,0
3933;0;0;M;
3935;0;0;M;
3938;0;0;M;
3939;3:13:09;0;F;21,0
3942;0;0;M;
3943;1:38:54;0;F;11,0
3944;1:23:47;0;F;6,0
3945;0;0;M;
3946;1:24:56;0;F;13,0
3947;0;0;F;4,0
3948;0;0;F;
3949;1:13:36;0;M;4,0
3950;0;0;F;
3951;1:03:18;0;M;
3956;1:10:38;0;F;1,0
3958;1:57:39;0;M;16,0
3963;0;0;M;1,0
3964;0;0;F;12,0
3965;1:42:05;0;M;11,0
3966;1:46:40;0;M;9,0
3967;0:43:10;0;F;3,0
3968;0;0;F;
3970;1:31:00;0;M;13,0
3971;1:59:02;0;F;7,0
3972;1:27:39;0;F;4,0
3973;0:59:46;0;M;7,0
3974;0:54:04;0;F;2,0
3975;0;0;M;
3976;0;0;F;1,0
3977;2:11:48;0;F;24,0
3978;0;0;F;2,0
3979;3:49:14;0;F;6,0
3980;0;0;M;
3981;1:18:43;0;M;10,0
3983;1:25:56;0;F;3,0
3984;2:46:57;0;M;4,0
3985;1:51:08;0;M;10,0
3987;0;0;M;
3988;1:44:58;0;F;11,0
3989;1:26:31;0;M;7,0
3991;0;0;F;5,0
3992;0;0;F;
3993;1:37:03;0;F;4,0
3994;1:31:38;0;F;1,0
3995;0;0;F;
3996;0;23:06:05;M;7,0
3997;0;0;F;
3998;1:26:17;0;M;12,0
3999;0;0;F;
4000;0;0;F;
4001;1:47:08;0;F;14,0
4002;2:57:00;0;M;9,0
4003;1:45:46;0;F;8,0
4004;2:17:54;0;M;14,0
4005;1:27:00;0;F;14,0
4007;1:50:31;0;M;15,0
4008;2:16:55;0;M;16,0
4009;1:27:38;0;F;8,0
4010;0;0;F;
4011;2:01:15;0;F;17,0
4012;1:32:30;0;M;5,0
4013;1:56:27;0;M;5,0
4014;1:30:07;0;M;5,0
4015;1:08:40;0;M;3,0
4016;2:25:20;0;F;13,0
4017;1:45:03;0;M;18,0
4018;1:37:26;0;F;13,0
4019;3:05:57;0;M;18,0
4020;1:18:00;0;F;16,0
4021;2:18:21;0;F;17,0
4022;1:36:57;0;F;16,0
4023;1:31:53;0;M;16,0
4024;1:35:06;0;M;17,0
4025;2:19:39;0;F;17,0
4026;1:53:28;0;M;16,0
4027;2:14:34;0;F;19,0
4028;1:34:28;0;F;14,0
4029;2:19:43;0;M;25,0
4030;2:14:57;0;F;8,0
4032;1:55:51;0;M;3,0
4033;1:19:46;0;M;3,0
4034;1:54:01;0;F;23,0
4035;0;0;F;
4038;0;0;F;
4039;1:33:53;0;F;8,0
4040;1:46:09;0;M;12,0
4042;0;0;F;
4043;0;0;F;
4044;1:40:09;0;F;9,0
4045;1:52:23;0;F;6,0
4046;2:28:38;0;M;8,0
4047;1:35:36;0;M;11,0
4048;1:31:48;0;M;4,0
4049;0;18:02:49;F;42,0
4050;1:23:35;0;F;9,0
4051;0:55:07;0;M;1,0
4052;1:17:34;0;M;4,0
4053;1:06:38;0;F;1,0
4054;2:11:14;0;M;12,0
4057;1:16:47;0;F;6,0
4058;1:33:58;0;F;19,0
4061;2:59:04;0;F;11,0
4062;2:02:18;0;M;3,0
4063;0;3 days, 18:30:21;M;60,0
4064;1:28:34;0;M;6,0
4065;1:16:18;0;M;4,0
4066;1:52:55;0;M;13,0
4067;0;0;F;
4068;0;0;M;
4070;2:00:54;0;F;
4071;1:45:39;0;M;15,0
4072;1:53:39;0;M;13,0
4073;0;0;M;
4074;3:07:02;0;M;17,0
4075;0;0;F;5,0
4076;1:29:46;0;F;10,0
4077;0;0;M;
4078;1:37:03;0;M;4,0
4082;2:58:43;0;F;11,0
4083;0;0;F;
4084;3:53:32;0;M;23,0
4088;0;0;M;
4089;2:22:09;0;F;5,0
4090;2:18:44;0;M;9,0
4091;0;0;F;
4092;1:49:13;0;F;
4093;2:10:07;0;F;16,0
4094;0;0;F;
4095;2:11:26;0;F;13,0
4097;0;0;F;
4098;0;0;F;
4099;0;0;F;1,0
4100;0;0;F;
4101;1:46:31;0;F;5,0
4102;1:03:48;0;M;6,0
4103;1:13:22;0;F;8,0
4104;1:03:30;0;M;1,0
4106;1:17:55;0;M;5,0
4107;1:28:18;0;M;16,0
4108;0:58:33;0;M;5,0
4109;0;0;F;
4110;0;0;F;2,0
4112;0;0;M;
4113;1:14:15;0;F;5,0
4115;0;0;M;
4116;1:04:41;0;M;4,0
4118;0:58:37;0;M;7,0
4119;2:11:47;0;M;4,0
4120;1:29:10;0;F;14,0
4122;1:18:16;0;F;
4124;1:13:14;0;M;9,0
4125;1:42:19;0;F;7,0
4126;0;0;F;
4128;0;0;F;
4129;0;0;M;2,0
4130;2:33:23;0;F;9,0
4131;1:53:47;0;M;9,0
4132;3:02:28;0;F;13,0
4133;0;0;F;
4134;0;0;F;22,0
4135;1:11:00;0;F;4,0
4136;2:00:19;0;F;4,0
4137;1:09:07;0;F;3,0
4138;1:16:17;0;F;2,0
4139;1:25:03;0;F;7,0
4140;1:37:29;0;F;6,0
4141;0;0;M;
4142;3:25:17;0;M;13,0
4143;0;0;M;10,0
4144;1:29:40;0;F;6,0
4145;0;0;F;
4146;1:20:18;0;M;4,0
4147;1:25:29;0;M;2,0
4148;0;0;F;
4149;1:15:41;0;M;6,0
4150;1:34:12;0;F;4,0
4153;0:48:53;0;F;5,0
4154;0:53:12;0;M;8,0
4155;1:11:16;0;M;4,0
4157;0:55:02;0;F;5,0
4161;3:24:54;0;M;10,0
4162;4:56:58;0;F;14,0
4163;0;19:17:15;F;27,0
4164;1:58:28;0;F;8,0
4165;2:44:45;0;M;8,0
4166;3:51:23;0;M;10,0
4167;0;0;F;
4168;2:11:56;0;M;9,0
4169;0:15:05;0;M;
4170;5:50:36;0;F;1,0
4171;2:01:21;0;F;6,0
4172;1:24:39;0;M;9,0
4173;1:22:28;0;M;8,0
4174;1:15:29;0;F;6,0
4176;2:19:35;0;F;6,0
4178;1:19:31;0;F;6,0
4181;0;0;M;
4182;1:13:44;0;M;4,0
4184;1:36:49;0;F;8,0
4185;1:22:55;0;M;8,0
4186;5:05:01;0;F;22,0
4187;1:34:16;0;M;15,0
4188;1:30:32;0;F;10,0
4189;0;7 days, 12:20:00;F;228,0
4190;1:55:48;0;F;20,0
4191;1:54:13;0;M;17,0
4192;11:00:51;0;M;1,0
4193;1:44:58;0;F;14,0
4194;1:01:19;0;M;3,0
4195;6:28:55;18:17:42;F;23,0
4198;0;4 days, 17:38:45;M;38,0
4201;4:51:22;2 days, 20:21:07;M;57,0
4202;1:55:53;0;F;6,0
4203;5:29:13;0;F;14,0
4204;0;0;F;
4207;1:15:38;0;M;5,0
4210;1:01:27;0;M;4,0
4211;1:17:11;0;M;3,0
4212;3:09:00;0;M;10,0
4213;1:44:11;0;F;5,0
4214;2:37:30;0;F;21,0
4215;1:28:26;0;F;12,0
4216;0:59:29;0;F;6,0
4217;2:58:50;0;M;7,0
4220;2:16:48;0;M;9,0
4222;0;0;M;
4223;0;0;M;
4225;1:10:45;0;M;4,0
4226;0:54:53;0;F;5,0
4227;2:37:25;0;F;2,0
4228;1:26:38;0;F;3,0
4229;1:06:30;0;M;4,0
4230;1:57:37;0;M;7,0
4231;1:10:17;0;F;13,0
4232;2:05:43;0;M;9,0
4234;1:20:49;0;F;13,0
4235;1:45:45;0;F;12,0
4236;1:19:45;0;M;11,0
4237;1:14:55;0;M;10,0
4238;1:07:12;0;F;3,0
4240;1:09:57;0;M;3,0
4241;1:34:27;0;F;6,0
4242;5:10:24;20:14:55;F;24,0
4243;0;0;M;
4244;1:52:53;0;M;8,0
4245;2:17:56;0;F;15,0
4246;2:41:22;0;M;22,0
4247;0:35:39;0;F;7,0
4249;2:35:30;2 days, 22:59:45;M;46,0
4250;1:50:03;0;F;14,0
4251;0;0;M;
4252;0;1 day, 20:46:41;M;46,0
4254;2:02:35;0;F;3,0
4255;0;19 days, 10:03:44;M;178,0
4256;0;0;M;
4259;1:16:10;0;M;12,0
4260;8:53:33;0;F;15,0
4261;2:26:33;0;M;10,0
4262;0;0;F;4,0
4263;1:21:00;0;F;7,0
4264;2:12:14;0;F;10,0
4265;1:52:29;0;F;9,0
4266;0;0;M;
4267;0;0;F;
4268;1:34:51;0;M;6,0
4269;1:13:24;0;F;11,0
4275;1:41:01;0;F;9,0
4276;1:31:31;0;M;7,0
4277;1:27:14;0;F;10,0
4278;0;0;F;3,0
4279;2:00:23;0;M;8,0
4280;0;1 day, 1:58:36;M;24,0
4281;1:30:51;0;M;10,0
4283;0;20:06:44;F;25,0
4284;1:29:08;0;F;4,0
4285;1:10:58;0;M;7,0
4286;1:59:56;0;F;6,0
4287;1:33:37;0;M;8,0
4289;2:23:49;0;F;11,0
4290;3:48:56;0;M;13,0
4291;1:49:17;0;M;2,0
4292;1:21:13;0;M;2,0
4293;0;0;F;6,0
4294;0;0;F;7,0
4296;1:41:40;0;M;7,0
4297;1:27:32;0;F;6,0
4300;1:04:47;0;F;4,0
4301;1:25:54;0;F;10,0
4302;1:14:23;0;M;9,0
4303;0;0;M;
4304;1:53:24;0;M;17,0
4305;1:28:41;0;F;10,0
4306;0;14:44:00;M;16,0
4307;2:32:41;0;M;20,0
4309;1:15:41;0;F;5,0
4310;1:26:12;0;F;22,0
4311;1:27:04;0;M;17,0
4312;1:35:37;0;M;9,0
4313;1:58:51;0;M;18,0
4315;1:56:38;0;F;15,0
4316;0;0;M;
4317;3:18:37;0;F;8,0
4318;0;0;F;1,0
4319;0;0;F;
4320;0;0;F;
4321;3:56:53;0;F;26,0
4322;1:12:59;0;M;4,0
4323;2:06:08;0;F;12,0
4324;0;0;F;
4326;0;0;M;4,0
4328;1:25:29;0;M;9,0
4329;0;0;M;
4330;1:51:36;0;M;13,0
4331;3:03:15;7 days, 4:44:43;F;60,0
4332;1:55:06;0;F;13,0
4333;1:12:23;0;F;10,0
4335;1:04:20;0;F;9,0
4336;3:18:13;0;M;7,0
4339;2:06:28;0;F;12,0
4341;1:43:58;22:57:42;M;14,0
4342;0;5 days, 18:27:02;M;112,0
4345;0;0;M;
4346;0;0;M;
4347;0;2 days, 23:42:26;F;55,0
4348;1:02:52;0;F;6,0
4349;1:35:00;0;M;16,0
4350;1:21:50;0;F;9,0
4351;1:23:30;0;M;20,0
4353;0;0;F;
4354;1:39:29;0;M;14,0
4356;2:18:38;0;F;6,0
4357;1:01:30;0;M;4,0
4358;1:52:02;0;M;8,0
4359;1:26:38;0;M;10,0
4360;1:02:54;0;F;7,0
4363;1:14:26;0;F;4,0
4364;1:59:14;0;M;8,0
4365;1:03:45;0;F;10,0
4367;1:29:31;0;M;3,0
4370;2:09:35;0;F;6,0
4371;1:24:22;0;M;3,0
4372;1:06:41;0;F;8,0
4374;2:49:10;0;M;9,0
4377;3:05:27;0;M;26,0
4378;0;2 days, 4:06:12;M;62,0
4379;1:02:20;0;M;1,0
4380;0;1 day, 17:32:27;M;54,0
4383;2:33:55;0;F;13,0
4384;0:59:05;0;M;5,0
4385;0;0;M;
4386;1:34:28;0;M;8,0
4387;0;0;F;
4388;0;0;M;
4389;4:22:43;0;M;9,0
4390;0:59:54;0;F;2,0
4391;1:01:10;0;F;11,0
4392;1:04:31;0;M;5,0
4393;1:55:45;0;F;4,0
4394;2:38:33;0;M;1,0
4396;1:04:07;0;F;14,0
4397;1:31:14;0;F;13,0
4400;1:30:09;0;M;15,0
4401;1:36:05;0;F;18,0
4403;1:23:53;0;M;13,0
4404;2:29:39;0;M;14,0
4405;1:05:56;0;F;11,0
4406;0;0;M;
4407;0;20:57:38;F;33,0
4408;2:30:59;0;F;16,0
4409;0;4 days, 14:07:48;M;44,0
4410;0;6 days, 9:26:04;M;53,0
4411;0;2 days, 22:52:44;M;34,0
4413;1:29:35;0;M;20,0
4414;0;0;F;
4415;1:21:39;0;F;5,0
4416;0;0;M;
4417;2:26:51;0;F;15,0
4418;0;2 days, 1:20:00;F;13,0
4419;0:48:54;0;F;5,0
4421;1:27:19;0;F;9,0
4422;0;0;F;
4423;0;0;F;2,0
4424;2:10:18;0;F;4,0
4425;2:15:48;0;M;12,0
4426;2:21:27;0;F;4,0
4428;1:06:43;0;F;8,0
4430;1:54:12;0;M;5,0
4434;1:01:41;0;F;4,0
4436;1:15:51;0;M;10,0
4437;2:44:32;0;M;11,0
4438;1:17:23;0;F;9,0
4441;1:51:20;0;F;7,0
4444;1:54:30;0;M;17,0
4445;2:04:36;0;M;10,0
4446;1:36:03;0;F;6,0
4449;1:19:41;0;F;7,0
4451;0;8 days, 20:50:09;M;39,0
4453;0;6 days, 10:19:06;F;54,0
4454;2:46:29;0;M;19,0
4455;1:22:31;0;F;3,0
4456;0;14:56:55;M;29,0
4457;0:55:10;0;F;3,0
4458;1:48:03;0;M;10,0
4460;1:21:53;0;F;6,0
4462;1:25:14;0;F;10,0
4463;3:08:32;0;F;10,0
4464;0;0;F;
4465;0;0;M;
4466;4:42:37;0;F;19,0
4468;0;0;M;
4469;1:08:07;0;F;6,0
4470;1:32:38;0;F;8,0
4471;2:43:11;0;M;18,0
4472;1:57:28;0;M;13,0
4475;1:09:35;0;F;2,0
4476;0;0;M;
4477;1:10:01;0;F;5,0
4478;0:59:00;0;F;4,0
4480;1:31:32;0;M;14,0
4481;0;0;M;
4482;0:58:48;0;F;6,0
4483;1:29:22;0;M;7,0
4484;1:00:11;0;M;7,0
4486;0;0;M;1,0
4487;1:25:04;0;M;9,0
4488;1:38:53;0;M;18,0
4491;1:21:48;0;F;15,0
4492;2:59:48;0;F;12,0
4493;1:06:46;0;M;7,0
4494;1:51:04;0;M;2,0
4495;1:18:13;0;F;2,0
4496;0;3 days, 0:37:06;M;77,0
4498;0;0;M;
4499;0;0;M;
4500;0;0;F;
4501;0;0;M;
4502;2:09:27;0;F;8,0
4504;1:44:37;0;F;15,0
4505;1:57:02;0;M;19,0
4506;2:21:07;0;M;13,0
4507;0:57:26;0;M;5,0
4508;1:42:51;0;M;4,0
4509;1:38:00;0;F;11,0
4510;1:47:24;0;F;9,0
4511;0;0;F;
4512;0;0;M;
4514;1:27:13;0;F;12,0
4515;1:21:49;0;M;3,0
4517;0;1 day, 18:59:00;M;9,0
4518;1:57:58;0;M;10,0
4520;1:23:17;0;M;5,0
4523;1:27:24;0;M;9,0
4524;5:42:55;0;F;15,0
4525;1:37:06;0;M;13,0
4526;1:19:57;0;M;10,0
4527;1:23:26;0;F;14,0
4528;2:26:28;0;M;6,0
4529;1:04:17;0;F;2,0
4530;1:17:21;0;F;6,0
4531;2:14:49;0;M;7,0
4533;0;0;M;1,0
4534;0;3 days, 6:06:00;F;45,0
4535;0;0;F;1,0
4536;0;0;F;1,0
4537;1:14:24;0;M;13,0
4538;3:47:08;0;F;11,0
4539;2:23:01;0;F;14,0
4540;1:06:35;0;M;2,0
4541;3:27:08;0;M;10,0
4545;2:13:02;0;M;13,0
4546;3:25:55;0;F;12,0
4547;0;0;F;
4548;1:46:32;0;F;5,0
4552;0;0;F;
4555;0;0;M;
4556;0:58:03;0;F;4,0
4557;1:26:15;0;F;4,0
4558;1:14:08;0;F;3,0
4559;0:58:25;0;M;8,0
4561;1:13:03;0;M;2,0
4563;1:31:14;0;F;9,0
4564;1:54:27;0;F;12,0
4565;1:13:38;0;M;13,0
4567;0:22:35;0;M;4,0
4568;0:51:15;0;M;3,0
4569;1:22:02;0;F;6,0
4571;0:51:26;0;M;4,0
4572;1:36:27;0;M;2,0
4573;1:45:55;0;F;10,0
4574;0;8 days, 18:16:00;F;29,0
4575;10:56:11;0;F;6,0
4576;0;6 days, 13:22:00;M;18,0
4577;1:09:57;0;F;4,0
4579;1:19:13;0;M;3,0
4580;6:01:32;0;F;8,0
4581;3:12:09;0;F;4,0
4582;1:33:23;0;M;15,0
4583;0;0;F;
4585;2:52:39;0;M;13,0
4586;3:22:11;0;M;7,0
4587;0;0;M;8,0
4588;1:47:41;0;F;6,0
4590;2:27:26;0;F;10,0
4591;1:53:11;0;M;8,0
4592;1:37:51;0;F;8,0
4593;1:26:23;0;F;5,0
4594;7:59:33;0;M;26,0
4597;1:44:46;0;F;18,0
4598;1:44:31;0;F;18,0
4600;1:20:49;0;M;6,0
4601;2:18:47;0;M;16,0
4602;0;0;M;
4604;1:39:24;0;M;24,0
4605;0:51:29;0;F;5,0
4606;0;4 days, 0:54:03;F;50,0
4607;1:09:41;0;F;5,0
4609;1:06:02;0;F;6,0
4610;1:27:45;0;M;14,0
4611;1:29:51;0;M;7,0
4613;1:04:02;0;F;4,0
4614;1:47:23;0;M;3,0
4615;0;12 days, 1:20:04;F;58,0
4616;1:12:55;0;M;5,0
4617;1:09:04;0;F;12,0
4618;1:43:40;0;F;4,0
4619;1:51:02;0;F;17,0
4620;0:35:18;0;M;4,0
4621;1:31:56;0;M;2,0
4622;1:59:40;0;F;16,0
4624;2:15:06;0;F;2,0
4626;1:08:16;0;F;4,0
4627;1:46:04;0;M;13,0
4628;0;0;M;
4630;2:12:23;0;M;5,0
4631;0;4 days, 3:29:00;M;25,0
4632;1:11:07;0;M;13,0
4634;0;0;F;2,0
4635;1:35:03;0;M;3,0
4636;1:56:15;0;F;11,0
4637;4:05:29;0;F;12,0
4638;1:37:40;0;M;8,0
4639;0;11 days, 11:19:00;M;74,0
4640;1:54:49;1 day, 0:15:31;M;31,0
4642;1:35:29;0;F;20,0
4643;1:42:21;0;M;13,0
4644;1:17:29;0;F;11,0
4645;1:18:09;0;F;2,0
4646;1:05:04;0;F;5,0
4647;0;0;F;
4648;2:03:27;0;F;4,0
4650;0;0;M;4,0
4651;1:31:58;0;M;17,0
4652;0;9 days, 0:48:08;M;88,0
4653;1:09:05;0;F;4,0
4654;2:22:40;0;M;9,0
4655;3:29:27;0;F;15,0
4658;1:34:31;0;M;10,0
4660;2:02:37;0;F;7,0
4661;1:26:06;0;F;11,0
4662;2:02:31;0;F;9,0
4663;1:28:36;0;M;18,0
4665;1:54:07;0;M;8,0
4666;2:54:21;0;F;12,0
4669;0:25:16;0;M;2,0
4670;1:19:32;0;F;14,0
4671;0;2 days, 23:55:33;M;77,0
4675;1:37:01;0;M;13,0
4677;1:28:38;0;M;12,0
4678;1:31:19;0;F;8,0
4679;2:17:55;0;F;15,0
4682;2:13:03;0;F;10,0
4683;1:06:06;0;M;12,0
4684;1:06:02;0;M;6,0
4685;0;0;M;
4686;0;0;M;24,0
4687;0;20:49:00;M;11,0
4689;4:59:57;0;M;8,0
4690;2:36:18;0;F;5,0
4691;2:10:24;0;M;3,0
4692;0;0;F;11,0
4694;2:11:32;0;F;10,0
4695;2:05:01;0;F;9,0
4696;1:13:40;0;F;15,0
4697;0;3 days, 21:42:41;F;63,0
4699;0;0;M;
4701;1:40:13;0;F;6,0
4702;4:31:59;0;F;6,0
4703;0;2 days, 18:48:10;F;54,0
4704;0;2 days, 0:45:05;M;17,0
4705;1:55:37;0;F;8,0
4706;0;0;M;11,0
4707;1:54:33;0;F;26,0
4708;1:28:56;0;F;5,0
4709;1:32:10;0;F;12,0
4710;1:29:54;0;F;7,0
4712;0;0:15:00;M;
4713;0;0;F;
4715;1:56:29;0;M;14,0
4716;2:21:41;0;M;7,0
4719;0:57:50;2 days, 1:04:47;M;48,0
4720;5:15:25;0;F;9,0
4721;2:44:47;0;F;19,0
4722;2:07:58;0;F;14,0
4723;0;0;M;
4724;3:11:18;0;F;18,0
4725;1:21:48;0;M;4,0
4726;1:43:51;0;M;8,0
4728;0;0;F;
4729;0;0;F;
4730;1:45:02;0;M;13,0
4731;1:23:08;0;F;5,0
4733;0;0;M;
4735;0;0;M;
4737;2:33:41;0;F;17,0
4738;1:07:26;0;F;1,0
4739;1:41:32;0;F;8,0
4742;0;0;F;4,0
4743;1:02:46;0;F;5,0
4744;0;0;M;4,0
4745;0;0;M;
4746;0;0;M;1,0
4747;1:25:06;0;F;6,0
4749;1:06:31;0;M;3,0
4750;2:15:56;0;F;12,0
4751;1:36:39;0;F;7,0
4752;0;0;M;
4753;0;0;F;5,0
4754;2:19:50;0;M;3,0
4755;5:39:57;0;F;15,0
4757;1:01:36;0;F;6,0
4758;0;0;M;9,0
4759;0:50:36;0;F;8,0
4761;1:40:58;0;M;6,0
4763;0:57:00;0;F;13,0
4764;2:53:08;0;F;13,0
4765;1:44:47;0;M;3,0
4766;0;0;M;
4767;1:18:11;0;F;7,0
4768;1:36:06;0;M;9,0
4769;2:50:32;0;M;18,0
4770;1:56:11;0;M;6,0
4772;1:34:42;0;F;5,0
4773;3:39:19;0;M;16,0
4775;1:50:24;0;F;11,0
4776;1:45:04;0;M;4,0
4777;2:45:52;0;M;4,0
4779;1:15:58;0;F;6,0
4780;1:57:08;0;M;7,0
4781;1:41:22;0;M;17,0
4782;2:18:46;0;M;6,0
4783;0;0;M;
4785;1:02:24;0;F;2,0
4786;3:00:20;0;M;1,0
4790;1:09:53;0;M;3,0
4791;2:08:30;0;M;3,0
4793;0:51:01;0;F;3,0
4794;2:17:18;0;F;10,0
4795;1:32:38;0;M;10,0
4796;0;10:43:00;M;15,0
4797;0;8 days, 3:32:01;F;64,0
4799;2:37:14;0;F;23,0
4800;1:22:38;0;F;3,0
4801;1:50:28;0;F;7,0
4802;1:18:17;0;M;13,0
4803;1:23:16;0;F;3,0
4804;0:50:22;0;F;7,0
4805;2:20:58;0;F;17,0
4806;0;0;M;
4808;0;2 days, 1:29:39;F;39,0
4809;2:17:05;0;F;9,0
4811;0:51:32;0;M;2,0
4812;1:14:58;0;M;3,0
4813;1:26:07;0;F;13,0
4814;2:51:41;0;F;7,0
4815;1:56:08;0;M;2,0
4816;1:24:23;0;M;4,0
4817;2:06:10;0;M;5,0
4820;1:18:36;0;M;9,0
4821;2:07:20;0;M;5,0
4822;1:36:44;0;F;7,0
4823;1:51:12;0;M;5,0
4824;0:59:04;0;F;5,0
4825;1:03:48;0;F;11,0
4826;1:26:57;0;M;13,0
4827;1:53:41;0;M;15,0
4828;0;19:37:16;M;10,0
4830;2:17:10;0;M;9,0
4831;0;25 days, 15:56:00;F;183,0
4832;0;1 day, 2:52:32;M;34,0
4834;0;0;F;
4835;1:40:44;0;M;8,0
4836;2:47:29;0;M;4,0
4838;1:18:54;0;F;12,0
4839;1:48:17;0;M;17,0
4841;1:09:25;0;F;10,0
4842;2:12:30;0;M;5,0
4843;1:28:15;0;F;9,0
4844;0;4 days, 0:43:00;M;47,0
4846;1:52:41;0;M;13,0
4848;1:26:55;0;F;6,0
4850;4:32:58;0;M;14,0
4851;0;0;F;
4852;1:15:42;0;F;11,0
4855;0;0;M;7,0
4856;1:27:11;0;F;20,0
4857;0;2 days, 12:23:19;F;58,0
4858;7:03:04;0;F;6,0
4860;1:44:18;0;F;11,0
4862;0;0;M;2,0
4864;1:23:26;0;M;10,0
4865;0;3 days, 17:18:00;M;19,0
4866;0:18:53;0;F;5,0
4867;0;3 days, 13:48:00;F;20,0
4870;1:43:02;0;M;5,0
4871;1:34:58;0;F;15,0
4872;1:16:28;0;M;13,0
4873;2:05:01;0;M;17,0
4874;1:27:01;0;F;17,0
4876;2:18:18;0;F;13,0
4877;2:04:41;0;M;20,0
4878;2:23:09;0;M;12,0
4879;1:41:20;0;M;14,0
4880;3:07:40;0;F;15,0
4881;2:09:40;0;M;19,0
4882;0:24:36;0;F;2,0
4884;1:26:08;0;F;2,0
4885;0;0;M;
4886;1:18:26;0;F;2,0
4887;2:26:42;0;M;9,0
4888;1:43:03;0;F;11,0
4889;1:01:35;0;F;8,0
4890;1:08:34;0;M;2,0
4891;1:20:39;0;M;18,0
4892;1:33:40;0;F;15,0
4893;0;0;M;
4894;1:51:27;0;F;13,0
4895;2:02:54;0;M;20,0
4896;2:46:14;0;M;18,0
4897;1:46:07;0;F;16,0
4899;1:07:40;0;M;10,0
4900;6:09:56;0;F;22,0
4903;0;0;F;
4904;0;0;F;1,0
4905;3:05:38;0;F;19,0
4906;1:34:15;0;M;7,0
4908;0;5 days, 16:32:23;F;50,0
4909;1:48:21;0;F;11,0
4910;0;22:28:22;M;43,0
4911;3:45:30;0;F;10,0
4913;2:26:24;0;F;12,0
4914;1:44:57;0;M;15,0
4916;0;1 day, 5:11:02;M;16,0
4918;4:33:42;0;F;26,0
4919;0;7 days, 20:20:00;F;67,0
4921;1:09:30;0;M;7,0
4922;0;0;F;
4923;1:41:06;0;F;9,0
4924;1:40:34;0;M;10,0
4926;0;0;M;
4927;0;0;F;1,0
4928;1:30:45;0;M;10,0
4929;1:31:53;0;F;11,0
4931;0;0;M;
4932;1:19:04;0;M;11,0
4933;1:43:57;0;M;3,0
4934;0:48:26;0;F;2,0
4935;0;4 days, 12:29:00;M;18,0
4936;1:07:19;0;F;11,0
4937;2:03:59;0;M;10,0
4938;3:36:42;0;F;2,0
4939;0;0;M;2,0
4940;2:30:22;0;F;18,0
4941;0;7 days, 16:14:00;M;17,0
4942;2:54:03;0;M;6,0
4943;0;0;M;
4945;1:15:19;0;F;15,0
4946;2:09:13;0;M;9,0
4947;1:35:11;0;F;13,0
4948;2:42:08;0;F;10,0
4949;1:20:49;0;M;7,0
4950;1:51:14;0;M;13,0
4951;1:10:52;0;F;4,0
4952;1:17:13;0;M;3,0
4954;2:34:03;0;M;22,0
4955;1:17:17;0;F;7,0
4956;1:43:08;0;M;21,0
4957;8:40:07;14:28:02;F;22,0
4958;1:32:28;0;M;2,0
4959;0;5 days, 18:51:00;M;47,0
4960;1:20:48;0;F;3,0
4961;2:32:33;0;F;10,0
4962;1:30:50;0;M;17,0
4963;0;0;F;11,0
4967;2:53:46;0;F;22,0
4968;2:54:06;0;M;14,0
4969;1:04:52;0;M;5,0
4970;1:40:32;0;M;5,0
4971;1:12:08;0;F;5,0
4973;1:20:24;0;F;9,0
4974;0:55:27;0;M;4,0
4975;0;0;F;
4976;1:50:54;0;F;8,0
4978;0:09:44;0;M;1,0
4980;1:01:18;0;F;4,0
4981;0;15 days, 23:42:54;F;68,0
4982;1:26:06;0;F;3,0
4983;1:18:10;0;F;16,0
4984;0:48:45;0;M;10,0
4988;0;0;M;
4989;1:42:46;0;F;7,0
4990;0;3 days, 2:07:33;M;31,0
4991;1:53:37;0;M;14,0
4993;8:36:46;0;F;32,0
4994;1:36:42;0;F;7,0
4995;0;14 days, 20:29:53;F;80,0
4996;0;1 day, 9:15:00;M;17,0
4997;0:57:31;0;F;3,0
4998;1:33:54;0;F;2,0
4999;1:13:13;0;F;2,0
5001;1:26:51;0;F;5,0
5002;0;0;M;
5003;2:06:58;0;F;11,0
5004;1:49:24;0;F;18,0
5005;2:00:16;0;F;15,0
5006;1:55:14;0;M;5,0
5007;1:44:35;0;M;15,0
5008;0;0;F;
5009;1:49:50;0;F;5,0
5010;0;0;F;
5011;1:27:58;0;M;8,0
5012;1:42:58;0;F;3,0
5013;3:33:06;0;M;7,0
5014;8:47:08;11:15:32;F;32,0
5016;2:29:40;0;F;17,0
5017;1:29:34;0;M;16,0
5018;1:37:27;0;F;21,0
5020;2:37:08;0;M;18,0
5021;0;5 days, 22:08:00;M;35,0
5022;0;10 days, 20:14:16;M;29,0
5023;2:34:24;0;F;18,0
5024;1:31:04;0;M;4,0
5025;1:11:44;0;M;4,0
5026;1:31:17;0;F;4,0
5027;1:25:20;0;F;7,0
5028;2:01:17;0;M;9,0
5029;0;0;M;
5030;2:07:00;0;F;6,0
5031;1:36:27;0;M;11,0
5033;1:47:11;0;M;12,0
5034;1:34:22;0;M;15,0
5035;4:55:49;0;F;1,0
5037;2:08:35;0;F;9,0
5038;3:43:57;0;F;16,0
5039;0;0:01:31;F;10,0
5040;1:44:53;0;F;2,0
5041;2:58:54;0;M;6,0
5042;1:53:31;0;M;8,0
5043;0:58:45;0;F;4,0
5044;1:23:53;0;M;5,0
5045;2:13:51;0;F;10,0
5046;0;0;F;
5047;2:47:51;0;M;6,0
5048;0;0;M;
5049;0;1 day, 11:05:10;F;18,0
5050;1:27:00;0;M;8,0
5052;1:20:05;0;F;5,0
5053;1:16:14;0;M;
5054;0;0;F;
5057;0;0;F;
5058;1:49:20;0;M;4,0
5060;0:42:37;0;F;2,0
5061;0:57:22;0;F;2,0
5062;1:49:39;0;F;3,0
5063;0:55:24;0;M;3,0
5064;2:22:36;0;M;6,0
5065;1:11:42;0;F;4,0
5066;1:32:26;0;M;4,0
5067;1:12:06;0;F;4,0
5068;2:01:55;0;M;7,0
5072;1:17:08;0;M;2,0
5073;0;0;F;12,0
5074;0;0;M;8,0
5075;0;0;F;12,0
5076;1:30:13;0;F;14,0
5077;1:43:48;0;M;3,0
5078;2:55:19;0;F;12,0
5079;1:03:13;0;M;16,0
5080;1:08:44;0;F;6,0
5081;0;2 days, 22:35:00;F;32,0
5084;0:31:06;0;M;5,0
5085;1:30:49;0;M;3,0
5086;0;6 days, 6:13:00;F;34,0
5087;0;0;F;2,0
5088;0;0;M;
5089;0;0;M;13,0
5090;1:18:42;0;F;14,0
5093;1:30:33;0;M;12,0
5094;2:13:38;0;M;7,0
5097;1:26:13;0;F;3,0
5099;1:15:18;0;F;4,0
5100;1:20:17;0;F;13,0
5102;1:03:06;0;M;4,0
5104;1:10:14;0;F;15,0
5105;2:26:18;0;F;14,0
5107;3:26:38;0;M;17,0
5108;0;1 day, 16:42:00;F;16,0
5110;3:31:18;0;F;19,0
5111;1:32:13;0;M;7,0
5112;1:42:41;0;M;5,0
5113;2:18:05;0;M;9,0
5114;1:41:53;0;M;6,0
5115;3:46:00;0;F;25,0
5116;1:24:41;0;F;8,0
5117;2:08:50;0;M;7,0
5118;1:45:44;0;F;10,0
5119;0;0;F;11,0
5120;0;0;F;
5121;0;18 days, 17:50:00;M;131,0
5122;1:21:55;0;M;7,0
5123;1:49:19;0;F;19,0
5124;1:27:46;0;M;1,0
5126;1:15:24;0;M;7,0
5128;0;0;M;
5129;1:34:58;0;M;14,0
5131;4:58:54;19:03:10;F;23,0
5132;0;20:25:10;F;53,0
5133;0;0;F;24,0
5134;1:28:24;0;M;4,0
5136;2:38:41;0;M;20,0
5137;0;3 days, 4:39:10;M;28,0
5140;1:27:30;0;F;1,0
5141;1:21:03;0;M;2,0
5142;3:10:22;0;M;22,0
5143;1:38:08;0;M;7,0
5144;1:16:43;0;F;12,0
5145;0;0;M;
5146;2:13:53;0;F;12,0
5150;0;0;F;9,0
5152;2:46:29;1 day, 23:11:27;M;68,0
5153;2:07:32;0;F;18,0
5154;1:05:14;0;M;7,0
5155;0;3 days, 15:47:01;M;26,0
5156;3:03:41;0;F;17,0
5157;3:09:19;0;M;11,0
5158;1:39:18;0;F;14,0
5159;1:40:12;0;F;6,0
5160;1:58:17;0;M;18,0
5161;1:45:50;0;M;1,0
5162;1:38:07;0;F;6,0
5163;0;0;F;13,0
5164;2:16:27;0;M;9,0
5165;3:05:57;0;F;17,0
5166;0;2 days, 21:41:00;F;38,0
5167;0;10 days, 22:21:18;F;92,0
5170;0;0;F;7,0
5171;1:19:05;0;M;5,0
5172;1:40:07;0;F;6,0
5173;0:10:39;0;M;1,0
5174;1:05:30;0;F;6,0
5175;1:07:12;0;F;8,0
5176;1:12:51;0;M;5,0
5180;0:36:33;0;M;2,0
5181;0;2 days, 7:57:00;M;36,0
5182;2:59:35;0;F;14,0
5183;4:07:12;0;F;23,0
5184;0:53:19;0;M;2,0
5187;0;2 days, 1:03:03;M;44,0
5188;3:58:38;0;M;7,0
5190;0:45:16;0;F;3,0
5191;1:11:49;0;M;2,0
5192;1:15:57;0;M;7,0
5193;1:32:50;0;M;14,0
5194;3:07:32;0;F;22,0
5195;0;0;F;1,0
5197;2:38:50;0;F;9,0
5198;1:36:26;0;M;8,0
5199;2:30:46;0;M;20,0
5201;2:12:56;0;F;18,0
5202;2:34:57;0;F;14,0
5203;0;0;F;2,0
5205;1:16:58;0;F;11,0
5206;3:04:19;0;M;10,0
5207;1:45:09;0;F;8,0
5209;1:17:00;0;F;12,0
5210;2:01:34;0;F;8,0
5211;4:42:53;0;F;6,0
5212;2:57:01;0;F;5,0
5214;1:45:08;0;M;16,0
5215;2:58:41;0;M;14,0
5216;2:06:36;0;F;15,0
5218;1:01:38;0;M;6,0
5219;2:51:43;0;F;14,0
5220;1:10:57;0;F;13,0
5221;1:50:53;0;F;18,0
5222;2:35:58;0;M;16,0
5223;1:33:42;0;M;13,0
5225;0:59:21;0;F;7,0
5226;1:15:20;0;F;3,0
5228;1:21:33;0;M;14,0
5231;3:22:24;0;M;6,0
5232;2:25:09;0;F;17,0
5233;2:03:18;0;M;2,0
5234;2:33:42;0;F;6,0
5235;0;0;F;9,0
5236;1:24:50;0;F;5,0
5237;2:23:55;0;M;8,0
5239;2:57:52;0;M;17,0
5240;3:34:49;0;M;7,0
5241;0:54:51;0;M;3,0
5243;1:49:44;0;F;2,0
5244;0;0;M;
5245;0:48:47;0;F;2,0
5247;2:11:17;0;F;16,0
5248;1:33:45;0;M;18,0
5249;1:38:38;0;M;8,0
5250;3:23:20;0;F;10,0
5251;1:01:42;0;F;4,0
5252;0:58:43;0;M;3,0
5253;1:38:07;0;F;6,0
5254;4:17:17;0;F;19,0
5255;1:32:33;0;M;6,0
5256;1:44:45;0;M;4,0
5257;0;7 days, 0:33:00;F;49,0
5259;0;1 day, 14:43:00;M;9,0
5260;1:08:33;0;M;7,0
5265;1:56:51;0;F;6,0
5266;0:55:18;0;F;2,0
5267;3:36:03;0;F;3,0
5268;1:15:44;0;M;2,0
5269;1:04:11;0;F;7,0
5270;1:16:37;0;F;6,0
5271;1:51:58;0;M;18,0
5272;1:16:10;0;M;15,0
5274;1:35:37;0;M;7,0
5275;0;0;M;
5276;1:23:00;0;F;8,0
5277;1:28:07;0;F;6,0
5278;2:07:45;0;M;17,0
5279;1:33:10;0;M;3,0
5280;1:52:29;0;F;11,0
5281;1:01:19;0;M;3,0
5282;2:23:42;0;M;20,0
5283;1:32:56;0;M;10,0
5284;1:33:47;0;M;4,0
5286;1:16:25;0;F;5,0
5288;2:10:39;0;F;1,0
5289;0;0;M;8,0
5290;1:17:26;0;M;3,0
5291;2:08:15;0;F;19,0
5293;1:02:22;0;F;4,0
5297;1:38:17;0;F;5,0
5299;4:07:06;0;F;3,0
5300;1:18:36;0;M;16,0
5301;2:02:46;0;M;12,0
5303;1:55:32;0;F;13,0
5304;3:36:25;0;M;10,0
5305;0;0;M;
5306;2:42:07;0;F;14,0
5308;1:15:24;0;M;14,0
5310;1:09:35;0;F;4,0
5311;1:26:04;0;F;4,0
5314;1:34:32;0;F;13,0
5317;1:10:18;0;F;14,0
5318;19:12:04;1 day, 17:39:47;M;50,0
5319;1:33:46;14:41:18;M;37,0
5321;3:02:10;0;M;
5322;1:05:43;0;F;
5323;2:15:22;0;F;9,0
5324;1:49:58;0;F;13,0
5325;0;23:38:26;M;24,0
5326;2:10:24;0;F;6,0
5327;1:29:13;0;M;3,0
5328;0;1 day, 2:34:25;M;37,0
5329;1:46:38;0;F;10,0
5331;1:18:06;0;F;7,0
5333;0;1 day, 10:37:00;M;24,0
5335;0;22:01:17;M;29,0
5336;16:18:44;0;F;6,0
5337;1:15:47;0;M;9,0
5339;0;0;F;
5340;0;0;F;
5341;0;0;M;
5342;3:56:28;20:58:12;M;29,0
5343;1:12:56;0;M;8,0
5345;0;0;F;
5347;1:29:37;0;M;17,0
5348;3:51:05;0;F;9,0
5349;0;0;F;
5350;0;0;M;
5351;0;0;M;
5352;5:06:21;0;M;1,0
5353;2:21:47;0;M;10,0
5354;0;0;F;1,0
5355;0;0;F;1,0
5356;0;0;M;1,0
5357;1:24:53;0;M;7,0
5358;0;0;F;2,0
5361;1:40:08;0;F;10,0
5362;1:50:35;0;F;21,0
5363;2:14:38;0;F;18,0
5364;3:17:35;0;M;22,0
5365;1:30:01;0;M;2,0
5366;1:25:16;0;M;8,0
5370;2:55:27;0;M;13,0
5371;2:17:12;0;F;5,0
5372;1:10:06;0;M;5,0
5374;0;2 days, 11:52:11;F;19,0
5376;0;0;F;
5377;0:54:06;0;F;4,0
5378;0:51:58;0;M;4,0
5379;1:12:35;0;F;4,0
5380;0;0;F;
5381;1:27:02;0;M;4,0
5382;1:08:34;0;F;5,0
5383;0;0;M;
5384;1:26:49;0;M;8,0
5385;2:09:51;0;M;11,0
5386;3:52:41;0;M;25,0
5387;0;0;M;
5388;0:58:20;0;F;8,0
5389;0;0;F;
5390;1:19:27;0;M;6,0
5391;0;0;M;
5392;1:31:42;0;M;8,0
5393;1:13:19;0;M;2,0
5394;1:06:14;0;F;6,0
5395;1:48:46;0;M;14,0
5397;0:00:24;0;M;1,0
5398;1:55:50;0;F;9,0
5399;0;0;M;
5400;1:14:41;0;F;8,0
5401;0;14:46:22;M;37,0
5402;0;0;F;
5403;4:16:04;0;M;14,0
5405;1:50:47;0;M;7,0
5406;1:46:29;0;F;4,0
5407;1:01:21;0;F;4,0
5408;2:12:40;0;M;6,0
5409;1:25:38;0;F;2,0
5410;0;0:15:00;F;
5411;1:25:48;0;M;12,0
5412;1:22:42;0;M;7,0
5413;1:04:08;0;F;11,0
5414;1:29:24;0;F;14,0
5415;0;0;M;9,0
5416;1:46:42;0;F;6,0
5417;1:01:25;0;F;19,0
5419;2:04:37;0;F;21,0
5421;0;21:15:21;F;27,0
5422;0;18:28:21;M;31,0
5423;1:40:33;0;M;14,0
5425;2:24:43;20:14:09;F;20,0
5426;2:43:18;0;F;22,0
5427;1:34:29;0;M;7,0
5428;0;0;M;7,0
5429;1:29:05;0;F;21,0
5431;1:17:12;0;F;6,0
5432;1:40:59;0;F;3,0
5433;23:26:44;0;M;18,0
5434;0;0;F;
5435;1:49:21;0;F;17,0
5437;1:12:44;0;F;14,0
5440;2:12:21;0;F;5,0
5441;2:11:48;0;M;27,0
5443;1:03:53;0;F;7,0
5445;2:17:10;0;F;4,0
5446;1:33:35;0;M;4,0
5448;1:20:01;0;M;15,0
5450;0;0;F;
5451;0;5 days, 16:13:21;F;35,0
5452;3:29:19;0;M;19,0
5453;0;0;M;
5457;2:01:18;0;M;4,0
5458;0;0;M;
5460;1:35:06;0;M;5,0
5461;1:55:01;0;F;14,0
5463;0;-1 day, 23:38:42;M;28,0
5464;0;0;F;12,0
5465;0;14:21:00;F;20,0
5467;0;10 days, 15:48:00;M;64,0
5468;0:02:12;0;F;
5469;0:49:51;0;M;4,0
5470;0:49:40;0;F;4,0
5471;1:40:36;0;M;11,0
5472;1:30:29;0;M;4,0
5473;1:41:39;0;F;5,0
5475;1:41:28;0;M;10,0
5477;1:39:47;0;M;6,0
5478;1:13:44;0;F;5,0
5480;0;0;F;
5481;0;0;M;
5482;0;0;F;
5483;1:01:55;1 day, 21:16:26;F;35,0
5484;15:48:23;0;F;25,0
5485;0;0;M;
5486;0;0;F;
5487;0;0;M;
5488;0;0;F;
5489;0;0;M;
5490;4:27:30;0;F;15,0
5491;1:57:09;0;M;16,0
5492;2:21:35;0;F;12,0
5493;1:29:07;0;F;10,0
5494;3:33:48;0;M;11,0
5495;1:33:30;0;M;11,0
5496;1:08:58;0;F;19,0
5497;0:46:34;0;F;4,0
5499;1:09:52;0;M;10,0
5500;0;0;M;
5501;2:49:33;0;F;18,0
5503;1:10:33;0;M;8,0
5504;1:42:04;0;F;8,0
5505;0;6 days, 3:03:18;F;75,0
5506;2:12:43;0;M;23,0
5508;1:59:10;0;F;7,0
5509;1:13:01;0;M;10,0
5510;1:40:42;0;M;17,0
5511;1:33:08;0;F;23,0
5512;6:55:14;0;M;15,0
5513;0:16:04;0;M;4,0
5514;1:43:41;0;M;1,0
5515;0;0;F;
5519;0;3 days, 1:06:07;M;24,0
5520;3:41:33;0;F;9,0
5521;0;3 days, 19:41:35;M;82,0
5522;1:09:31;0;M;3,0
5523;0;1 day, 0:30:43;M;27,0
5524;2:05:08;0;M;15,0
5525;0;0;M;
5526;1:01:52;0;F;5,0
5527;1:07:59;0;F;10,0
5528;2:18:08;0;F;19,0
5529;1:06:34;0;F;7,0
5530;1:57:47;0;M;11,0
5531;2:19:09;0;F;13,0
5532;2:39:55;0;F;10,0
5533;2:39:32;0;M;19,0
5534;1:44:26;0;F;18,0
5535;1:51:23;0;M;14,0
5536;0;0;F;
5537;4:05:44;0;M;23,0
5538;1:50:38;0;F;3,0
5539;0;0;F;1,0
5540;0:15:03;0;M;
5541;0;1 day, 20:15:13;M;56,0
5542;1:38:37;0;F;11,0
5544;0;6 days, 2:28:00;M;57,0
5545;0;0;F;
5546;0;0;F;
5547;0;0;M;
5548;0;0;M;
5549;1:21:03;0;F;11,0
5550;1:21:16;0;M;4,0
5551;1:39:57;0;F;20,0
5554;1:15:25;0;F;5,0
5555;2:02:40;0;F;16,0
5556;0:58:30;0;M;5,0
5559;1:24:02;0;F;5,0
5560;2:21:05;0;F;19,0
5561;0;0;M;
5563;1:10:19;0;F;1,0
5565;2:10:17;0;F;12,0
5566;0;0;M;
5567;1:57:48;12 days, 20:45:00;M;97,0
5568;1:00:04;0;F;2,0
5569;2:40:28;0;F;22,0
5570;0;0;M;
5571;0;0;M;
5572;0;0;F;
5574;1:00:38;0;F;8,0
5575;2:06:35;0;M;6,0
5576;1:44:18;0;F;15,0
5577;2:32:39;0;F;10,0
5578;1:06:36;0;F;5,0
5579;1:29:32;0;M;7,0
5580;1:30:12;0;M;16,0
5581;1:12:25;0;M;17,0
5582;1:32:44;0;F;3,0
5583;1:18:21;0;M;12,0
5584;1:57:42;0;F;11,0
5585;1:13:33;0;F;4,0
5586;1:29:15;0;M;4,0
5587;1:22:13;0;M;4,0
5588;1:37:04;0;M;7,0
5591;0;0;F;
5592;0;5 days, 21:32:00;F;35,0
5593;1:55:24;0;F;8,0
5594;0;0;F;
5595;0;0;F;12,0
5597;0;0;F;1,0
5598;0;0;M;
5599;3:17:20;0;M;20,0
5600;0:50:51;0;F;1,0
5601;1:14:05;0;M;8,0
5602;1:07:13;0;F;17,0
5603;0;0;F;14,0
5604;1:56:05;0;M;18,0
5605;1:46:46;0;M;9,0
5607;0;0;F;
5608;1:21:59;0;F;7,0
5609;7:26:45;0;F;15,0
5610;1:24:27;0;F;3,0
5611;2:43:17;0;M;21,0
5612;1:29:07;0;M;7,0
5613;2:09:59;0;M;3,0
5614;1:00:58;0;F;4,0
5615;1:08:40;0;F;6,0
5616;1:16:09;0;M;6,0
5618;0;7 days, 9:20:24;F;68,0
5619;1:16:51;0;F;18,0
5620;1:23:31;0;M;17,0
5621;2:39:32;0;M;1,0
5624;0;0:01:18;F;3,0
5625;1:36:34;0;F;8,0
5626;1:51:41;0;M;9,0
5627;1:09:28;0;M;2,0
5628;1:15:44;0;M;4,0
5629;4:06:56;0;M;21,0
5630;1:46:54;0;M;9,0
5632;1:06:40;0;F;6,0
5634;1:29:38;0;F;5,0
5637;3:40:26;0;M;21,0
5638;2:20:26;0;F;9,0
5639;2:28:05;0;F;11,0
5640;0;0;M;5,0
5641;0;0;F;3,0
5643;1:40:43;0;M;7,0
5644;3:43:02;0;F;14,0
5645;1:10:06;0;M;7,0
5646;2:26:22;0;M;12,0
5647;1:29:41;0;F;13,0
5648;1:32:45;0;F;12,0
5649;1:17:49;0;M;7,0
5651;4:01:22;0;F;22,0
5652;0;1 day, 2:01:32;F;30,0
5653;0;0;M;
5654;3:37:44;0;F;21,0
5655;2:05:51;0;F;24,0
5656;1:18:37;0;F;8,0
5657;0;0;M;
5658;1:03:36;0;F;12,0
5659;0;0;F;2,0
5660;0;11 days, 19:26:07;M;148,0
5661;0;11 days, 7:49:00;F;76,0
5662;1:17:07;0;F;7,0
5663;1:32:49;0;M;9,0
5664;1:57:18;0;F;3,0
5665;2:45:24;0;F;13,0
5666;1:20:34;0;F;14,0
5667;1:42:07;0;M;2,0
5668;1:39:49;0;F;20,0
5669;2:08:17;0;M;18,0
5670;0;0;F;10,0
5671;1:19:04;0;M;7,0
5672;1:26:51;0;F;11,0
5674;1:32:53;0;M;5,0
5675;1:59:58;0;F;10,0
5676;3:00:43;0;M;14,0
5677;1:33:34;0;F;11,0
5678;3:08:09;0;F;10,0
5680;1:16:54;0;F;6,0
5681;2:24:19;0;M;9,0
5682;1:56:14;0;F;2,0
5683;1:30:51;0;M;13,0
5684;1:51:49;0;M;18,0
5685;1:14:59;0;F;2,0
5686;3:52:47;0;F;9,0
5687;0;0;F;
5688;1:31:27;0;M;7,0
5690;1:54:32;0;M;20,0
5691;0;0;F;2,0
5692;0;0;M;
5694;3:05:59;0;M;17,0
5695;2:00:18;0;F;13,0
5696;1:03:30;0;M;3,0
5697;4:34:32;0;F;5,0
5698;0:43:26;0;F;2,0
5699;1:05:40;0;F;3,0
5700;5:09:03;0;M;15,0
5701;2:10:25;0;M;17,0
5702;1:43:55;0;F;12,0
5703;3:22:44;0;M;11,0
5704;2:01:18;0;M;13,0
5705;10:51:46;0;M;13,0
5706;1:34:07;0;F;9,0
5707;2:09:26;0;F;12,0
5708;1:38:54;0;F;2,0
5709;1:26:11;0;F;10,0
5710;4:14:10;0;F;21,0
5711;4:00:26;0;M;9,0
5712;1:02:34;0;F;10,0
5714;0:58:41;0;M;11,0
5715;1:42:49;0;M;13,0
5717;1:05:54;0;F;2,0
5719;1:56:52;0;M;4,0
5720;0:56:41;0;M;10,0
5723;2:12:57;0;M;7,0
5724;3:57:10;0;F;19,0
5725;0;0;F;
5726;2:17:54;0;F;2,0
5728;2:14:27;0;M;5,0
5729;1:19:17;0;M;5,0
5730;1:33:08;0;M;3,0
5731;1:29:34;0;F;16,0
5732;0;3 days, 16:45:26;M;27,0
5733;1:53:40;0;M;13,0
5734;0:55:14;0;F;3,0
5735;1:17:22;0;M;9,0
5736;0;0;F;9,0
5737;0;0;F;7,0
5738;2:40:30;0;M;11,0
5739;1:21:24;0;F;7,0
5740;0;2 days, 2:08:56;M;56,0
5742;1:19:03;0;F;11,0
5743;15:00:37;0;M;20,0
5744;1:03:22;0;M;17,0
5745;0;6 days, 19:17:05;M;31,0
5746;2:43:50;0;M;16,0
5747;2:03:59;0;F;17,0
5748;1:48:42;0;M;8,0
5750;1:44:57;0;F;14,0
5752;0;29 days, 6:00:29;F;209,0
5753;0;0;M;
5754;0;0;M;2,0
5755;1:28:46;0;F;4,0
5756;1:06:06;0;F;2,0
5757;2:50:51;0;M;5,0
5758;0;0;F;
5759;0:59:54;0;M;6,0
5760;1:45:57;0;M;6,0
5761;1:27:09;0;M;3,0
5762;1:02:28;0;M;3,0
5763;1:06:16;0;F;4,0
5764;2:49:07;0;M;3,0
5766;2:38:56;0;M;17,0
5767;1:36:32;0;F;16,0
5768;3:13:35;0;M;23,0
5769;1:17:17;0;M;5,0
5770;0:00:24;0;M;5,0
5771;1:12:02;0;M;3,0
5772;1:37:09;0;F;12,0
5773;1:31:16;0;F;11,0
5775;4:38:08;0;M;29,0
5777;0;2 days, 16:15:00;M;29,0
5778;1:38:14;0;F;6,0
5779;2:12:24;0;F;18,0
5781;3:20:52;0;M;17,0
5782;1:36:17;0;M;6,0
5784;1:54:33;0;F;12,0
5785;1:37:43;0;M;14,0
5786;0;0;M;13,0
5787;0;0;F;
5788;0:59:16;0;M;6,0
5789;0;0;M;
5790;1:12:45;0;F;10,0
5792;0;0;M;3,0
5793;1:33:27;0;M;11,0
5794;1:32:21;0;F;10,0
5795;1:12:08;0;M;11,0
5796;1:44:31;0;F;15,0
5799;1:54:52;0;F;18,0
5800;1:22:32;0;F;7,0
5801;0;0;F;1,0
5803;1:40:33;0;M;7,0
5806;0;0;M;
5807;0;0;F;6,0
5808;1:28:57;0;M;3,0
5810;0;0;F;
5811;0;17 days, 20:32:00;F;87,0
5812;1:14:47;0;M;4,0
5813;0:48:28;0;M;5,0
5814;1:22:54;0;F;5,0
5815;0;0;M;
5816;1:20:54;0;F;3,0
5818;0;0;M;
5820;0:56:34;0;M;4,0
5821;0;0;F;
5822;1:03:49;0;M;4,0
5823;1:02:32;0;F;2,0
5824;1:31:18;0;F;4,0
5825;0;0;F;
5826;6:22:23;0;F;9,0
5827;1:34:09;0;F;5,0
5828;2:52:31;0;F;10,0
5829;5:14:02;0;M;15,0
5830;1:24:53;0;M;8,0
5831;2:03:19;0;F;15,0
5833;1:25:19;0;M;4,0
5834;1:47:52;0;M;10,0
5835;1:38:03;0;F;6,0
5836;0;5 days, 22:38:00;F;28,0
5837;1:42:45;0;M;18,0
5838;0;1 day, 3:20:58;F;30,0
5839;0;0;M;
5840;2:04:57;0;F;17,0
5842;1:03:36;0;F;14,0
5843;1:44:50;0;F;18,0
5844;0;0;F;
5845;2:00:22;0;M;19,0
5846;1:15:35;0;F;14,0
5847;1:28:05;0;M;13,0
5848;0;0;F;
5850;1:17:33;0;M;14,0
5851;2:16:40;0;M;11,0
5852;2:30:02;0;F;23,0
5853;2:46:50;0;M;16,0
5855;0:54:03;0;F;5,0
5856;6:58:28;0;M;16,0
5857;1:14:25;0;M;8,0
5858;0;16:46:27;F;35,0
5859;1:32:50;0;F;17,0
5860;3:02:53;0;M;5,0
5862;0;1 day, 10:10:00;F;13,0
5863;2:03:51;0;F;18,0
5864;0;3 days, 23:33:00;M;19,0
5866;0;29 days, 3:32:13;M;160,0
5868;1:47:20;0;F;4,0
5869;1:23:10;0;F;5,0
5871;1:18:25;0;F;10,0
5872;1:23:24;0;M;4,0
5873;0;17:51:39;F;19,0
5874;1:22:37;0;M;5,0
5876;1:54:46;0;M;6,0
5877;0;0;M;
5878;0:35:06;0;M;
5879;0;0;F;
5880;1:15:54;0;F;7,0
5881;0;0;M;
5883;1:06:49;0;F;6,0
5885;1:42:19;0;M;11,0
5887;0;0;M;
5889;2:07:14;0;F;9,0
5890;1:52:55;0;F;10,0
5891;2:09:44;0;M;10,0
5892;1:19:23;0;F;4,0
5893;2:41:00;0;M;8,0
5894;1:50:59;0;F;15,0
5895;0;3 days, 19:40:39;F;31,0
5896;2:08:31;0;F;6,0
5897;0;0;F;2,0
5898;1:46:09;0;F;12,0
5899;1:04:42;0;F;4,0
5900;2:04:46;0;M;21,0
5901;1:22:08;0;F;14,0
5902;1:25:32;0;M;9,0
5903;0;0;F;
5904;0;0;M;
5905;0;0;M;30,0
5908;3:42:50;0;F;9,0
5910;0;0;M;
5912;0:49:10;0;F;2,0
5913;1:58:27;0;M;15,0
5914;1:52:02;0;M;10,0
5915;1:41:12;0;F;12,0
5916;2:12:16;0;F;5,0
5918;0;0;M;12,0
5919;3:39:02;0;M;9,0
5920;1:28:27;0;F;1,0
5921;2:34:59;0;F;2,0
5923;1:42:13;0;F;3,0
5924;1:52:52;0;M;25,0
5925;1:13:19;0;F;15,0
5926;1:07:17;0;M;3,0
5927;3:52:10;0;F;10,0
5928;1:40:29;0;M;11,0
5929;1:02:57;0;F;4,0
5931;1:28:26;0;M;8,0
5932;1:39:08;0;M;2,0
5935;2:31:05;0;M;13,0
5937;1:03:06;9 days, 19:01:00;M;46,0
5938;11:16:40;3 days, 19:26:20;F;44,0
5939;0;14:12:00;F;11,0
5940;1:38:33;0;F;19,0
5942;7:24:28;0;F;19,0
5943;1:05:02;0;F;7,0
5944;2:18:55;0;M;7,0
5945;1:32:59;0;M;22,0
5946;1:53:19;0;M;18,0
5947;2:09:27;0;M;18,0
5949;0;2 days, 4:08:03;M;42,0
5951;2:06:25;0;F;12,0
5952;1:11:55;0;F;4,0
5953;0:39:24;0;M;2,0
5956;1:25:48;0;M;10,0
5957;1:25:18;0;M;8,0
5958;1:03:49;0;M;4,0
5959;0;0;F;
5960;1:23:26;0;F;6,0
5962;1:53:23;0;M;11,0
5964;1:25:48;0;M;3,0
5966;0;3 days, 6:51:00;F;15,0
5967;0;10 days, 20:08:22;M;29,0
5968;0;28 days, 21:16:00;F;164,0
5969;0:19:26;0;M;8,0
5970;0:29:36;0;F;1,0
5971;0;0;F;2,0
5972;1:12:25;0;F;6,0
5973;1:48:04;0;M;15,0
5974;1:43:09;0;F;5,0
5976;1:08:24;0;F;7,0
5977;1:34:18;0;M;4,0
5978;1:29:08;0;F;4,0
5979;0;0;F;23,0
5980;1:14:15;0;F;6,0
5983;1:17:30;0;F;5,0
5986;2:29:51;0;M;19,0
5987;0;0;F;3,0
5989;0;25 days, 6:21:32;F;253,0
5991;1:17:59;0;F;3,0
5992;0:48:22;0;M;4,0
5993;1:28:40;0;F;7,0
5994;0;0;F;
5995;1:44:39;0;M;4,0
5996;1:23:56;0;M;8,0
5997;1:11:11;0;F;5,0
5998;1:16:41;0;M;17,0
5999;1:46:42;0;M;1,0
6000;0;23:20:53;F;35,0
6001;2:03:07;0;M;5,0
6002;1:39:10;0;M;5,0
6003;4:58:06;0;M;10,0
6004;1:15:15;0;F;4,0
6005;0;0;F;
6006;1:30:24;0;M;4,0
6007;0;4 days, 0:01:00;M;32,0
6008;1:50:10;0;F;16,0
6012;3:08:45;0;M;10,0
6013;1:21:10;0;F;6,0
6014;3:14:58;0;M;18,0
6015;1:03:07;0;F;4,0
6016;1:29:14;0;F;6,0
6017;1:44:11;0;M;7,0
6018;0;0;M;
6019;1:40:12;0;M;6,0
6020;0;3 days, 23:19:00;F;42,0
6023;2:13:36;0;M;9,0
6024;1:55:46;0;F;15,0
6025;1:30:16;0;M;7,0
6026;0:15:01;0;M;
6027;1:22:59;0;F;10,0
6028;4:53:26;0;F;31,0
6029;1:11:10;0;M;8,0
6030;1:07:31;0;M;9,0
6031;1:40:03;0;F;6,0
6034;0;0;M;
6035;1:29:40;0;M;19,0
6036;1:40:00;0;F;19,0
6037;0;0;M;
6038;1:28:55;0;F;5,0
6040;0;0;F;
6042;0;19:00:39;M;42,0
6043;0;0;M;
6044;1:14:14;0;F;4,0
6045;3:57:29;0;M;13,0
6046;1:52:21;0;F;20,0
6047;0;0;F;
6049;0;0;F;
6050;1:18:55;0;M;5,0
6051;0;0;M;
6052;1:33:25;0;F;4,0
6055;2:51:31;0;F;18,0
6056;21:50:06;0;M;14,0
6057;6:51:31;0;M;16,0
6058;1:56:45;0;F;7,0
6059;0;0;M;
6060;2:20:01;0;F;4,0
6061;2:35:39;0;F;9,0
6062;1:12:01;0;M;3,0
6063;0;0;M;
6064;1:55:48;0;M;10,0
6066;1:44:17;0;F;10,0
6068;0;2 days, 22:47:53;M;81,0
6069;1:44:26;0;F;16,0
6070;1:55:42;0;M;14,0
6071;1:34:18;0;M;16,0
6072;2:23:30;0;F;17,0
6073;0:40:18;0;M;4,0
6074;2:54:21;0;F;13,0
6075;1:30:22;0;M;5,0
6076;1:41:27;0;M;9,0
6077;1:36:11;0;F;9,0
6079;2:19:34;0;F;7,0
6082;0;3 days, 12:09:17;M;29,0
6083;1:42:55;0;F;12,0
6084;3:08:36;0;M;15,0
6085;0;0;M;5,0
6086;2:49:36;0;M;12,0
6087;0;0;M;
6088;11:28:58;0;M;16,0
6089;1:32:44;0;M;14,0
6090;2:58:42;21:49:03;M;26,0
6091;2:03:40;0;F;17,0
6092;0:55:49;0;M;6,0
6093;1:00:39;0;F;4,0
6094;1:02:56;0;F;4,0
6096;0;0;M;
6098;3:07:58;0;F;5,0
6099;1:07:17;0;M;6,0
6100;1:00:40;0;F;13,0
6101;1:50:37;0;M;16,0
6103;0;0:01:11;M;
6104;0;0;M;
6105;0;8 days, 17:08:04;M;87,0
6106;2:21:46;0;M;18,0
6107;2:56:14;0;F;9,0
6108;1:04:01;0;M;2,0
6109;1:20:51;0;M;6,0
6110;0;0;M;
6112;1:48:18;0;F;4,0
6113;1:32:21;0;M;9,0
6115;1:20:29;1 day, 22:43:36;F;44,0
6116;1:10:11;0;F;16,0
6117;1:39:17;0;M;5,0
6118;1:13:53;0;M;5,0
6119;1:30:57;0;M;10,0
6120;1:33:42;0;F;13,0
6121;2:49:22;0;M;26,0
6123;4:23:19;0;F;5,0
6124;1:19:35;0;F;6,0
6125;2:32:13;0;M;2,0
6127;1:23:00;0;F;5,0
6129;0;0;F;8,0
6130;2:12:29;0;M;16,0
6132;1:41:28;0;M;5,0
6135;0;0;M;3,0
6136;1:48:12;0;M;4,0
6137;0;16 days, 16:43:04;M;107,0
6138;1:44:06;0;M;18,0
6140;1:45:16;0;M;11,0
6141;1:36:19;0;F;7,0
6144;1:55:25;0;M;9,0
6145;2:05:59;0;F;8,0
6146;1:56:40;0;M;5,0
6148;1:31:19;0;M;6,0
6149;1:50:35;0;M;4,0
6150;1:35:57;0;F;8,0
6151;1:04:19;0;F;2,0
6152;1:20:47;0;F;12,0
6153;1:41:31;0;F;2,0
6154;1:07:19;0;M;17,0
6155;2:57:36;0;M;30,0
6157;3:11:43;0;M;11,0
6160;0:58:55;0;F;9,0
6163;1:41:17;0;M;9,0
6164;2:02:39;0;F;3,0
6165;1:04:08;0;F;8,0
6166;0;1 day, 16:45:54;M;28,0
6167;0;1 day, 0:43:48;F;40,0
6168;1:03:43;0;M;8,0
6169;2:05:21;0;M;13,0
6170;1:54:48;0;F;3,0
6171;1:51:03;0;F;10,0
6172;1:36:00;0;M;14,0
6173;1:06:33;0;M;10,0
6174;2:25:42;0;M;19,0
6175;1:44:15;0;F;8,0
6178;1:11:01;0;F;17,0
6180;2:15:26;0;F;11,0
6181;1:27:03;0;F;4,0
6182;0;0;F;1,0
6183;4:53:12;0;M;17,0
6184;1:02:28;0;M;8,0
6185;0:59:05;0;M;3,0
6186;1:20:16;0;M;12,0
6187;0:53:19;0;F;4,0
6189;1:17:41;0;M;4,0
6190;2:17:01;0;F;16,0
6192;1:38:14;0;M;10,0
6194;0;0;M;4,0
6195;0;0;M;1,0
6196;1:19:24;0;F;19,0
6197;0;6 days, 6:43:47;F;79,0
6198;1:16:08;0;M;11,0
6199;1:12:46;0;F;12,0
6200;2:13:17;0;F;13,0
6202;3:05:52;0;F;19,0
6203;2:04:28;0;F;12,0
6204;5:59:29;0;M;12,0
6205;1:02:04;0;F;9,0
6206;1:36:06;0;F;16,0
6207;1:21:26;0;F;9,0
6208;4:44:42;0;M;9,0
6209;4:33:44;0;M;16,0
6211;2:49:35;0;F;19,0
6212;2:27:16;0;F;18,0
6213;0:24:36;0;M;3,0
6214;1:54:14;0;F;4,0
6215;3:59:05;0;F;4,0
6216;1:36:05;0;F;10,0
6217;2:10:26;0;M;13,0
6218;1:21:58;0;M;11,0
6219;2:27:54;0;M;11,0
6220;1:13:08;0;F;6,0
6221;3:16:00;0;F;15,0
6225;2:13:28;0;M;16,0
6226;1:53:46;0;M;19,0
6227;0:59:28;0;M;3,0
6228;1:53:32;0;M;6,0
6229;1:42:00;0;F;
6231;1:43:12;0;F;12,0
6232;2:00:31;0;M;15,0
6233;1:50:11;0;F;17,0
6234;3:39:58;0;F;21,0
6235;1:37:18;0;F;1,0
6236;1:07:11;0;M;7,0
6237;0;0;F;13,0
6238;0;0;F;
6239;0;0;M;
6240;0;0;F;
6241;3:03:56;0;M;21,0
6242;1:20:14;0;M;22,0
6244;0;2 days, 21:29:06;M;40,0
6247;1:11:05;0;F;4,0
6248;2:15:39;0;F;20,0
6249;0;0;M;1,0
6250;1:42:21;0;M;10,0
6251;1:15:52;0;F;4,0
6252;1:17:34;0;F;5,0
6253;1:30:21;0;F;9,0
6254;2:28:03;0;M;1,0
6255;0:55:57;0;F;1,0
6257;1:21:05;0;M;17,0
6258;0:48:11;0;F;6,0
6259;0:56:09;0;M;4,0
6260;0:32:46;0;M;3,0
6261;1:47:32;0;F;19,0
6262;1:13:33;0;M;4,0
6263;2:52:09;0;F;8,0
6264;2:31:57;0;M;9,0
6265;0:39:50;0;M;1,0
6266;0;0;F;7,0
6267;2:08:10;0;M;9,0
6268;0;1 day, 21:53:00;F;44,0
6269;1:56:44;0;M;8,0
6270;1:37:13;0;M;14,0
6272;1:41:29;0;F;8,0
6274;1:18:24;0;M;9,0
6276;1:56:44;0;F;13,0
6278;1:42:58;0;F;12,0
6280;0;1 day, 13:47:00;F;63,0
6281;0;4 days, 0:58:00;F;43,0
6282;1:56:59;0;M;15,0
6283;0:56:44;0;M;9,0
6284;0;2 days, 20:00:34;M;88,0
6285;0:58:56;0;M;2,0
6286;2:19:14;0;F;8,0
6287;1:12:02;0;F;
6288;1:44:51;0;M;8,0
6289;1:14:01;0;F;6,0
6290;1:02:13;0;M;6,0
6291;1:42:29;0;F;5,0
6292;1:14:45;0;M;8,0
6293;2:07:27;0;M;8,0
6294;5:44:16;0;F;11,0
6296;3:04:28;0;F;8,0
6299;2:51:06;0;M;13,0
6301;1:14:41;0;M;1,0
6302;1:34:09;0;F;13,0
6304;2:09:57;0;F;9,0
6305;1:25:53;0;M;10,0
6306;1:56:51;0;M;12,0
6307;1:05:19;0;F;2,0
6308;0;0;M;
6309;2:11:58;0;M;9,0
6310;1:21:59;0;M;6,0
6311;0;16 days, 18:37:00;F;102,0
6312;1:06:53;0;F;10,0
6313;3:31:02;0;F;8,0
6314;1:39:12;0;M;9,0
6315;0;0;M;
6317;2:18:25;0;M;13,0
6318;0;0;M;6,0
6319;0;0;F;1,0
6320;2:18:26;0;F;21,0
6321;5:06:14;0;F;18,0
6322;1:23:48;0;M;7,0
6323;3:17:59;0;F;19,0
6324;1:27:32;0;M;17,0
6325;1:32:02;0;F;8,0
6326;1:57:09;0;F;13,0
6327;2:15:49;0;M;5,0
6328;1:31:14;0;F;
6331;1:49:17;0;M;9,0
6332;1:47:19;0;F;10,0
6333;0;0;M;
6334;16:26:45;0;F;9,0
6335;0;45 days, 12:38:00;M;222,0
6336;0;0;F;
6337;0;0;F;
6338;1:33:43;0;M;7,0
6339;0;0;M;
6340;1:05:30;0;F;5,0
6341;0;0;M;
6342;2:27:29;0;F;6,0
6343;1:48:05;0;F;9,0
6344;1:41:45;0;M;15,0
6345;1:56:02;0;M;5,0
6346;2:07:20;0;F;6,0
6348;1:08:22;0;F;12,0
6349;2:28:22;0;F;12,0
6350;0;0;F;
6351;1:45:52;0;M;6,0
6352;2:00:57;0;M;14,0
6353;2:15:14;0;M;12,0
6354;1:28:40;0;M;24,0
6355;1:25:17;0;F;14,0
6356;1:32:14;0;F;12,0
6357;0;1 day, 18:31:12;M;23,0
6358;2:23:27;0;F;10,0
6360;5:15:40;0;M;6,0
6362;0;2 days, 19:54:10;M;20,0
6363;1:47:05;0;M;7,0
6366;1:54:57;0;F;10,0
6367;0;0;F;
6368;1:20:33;0;M;11,0
6369;0;0;F;
6370;2:25:35;0;F;12,0
6371;1:31:08;0;F;5,0
6372;2:11:34;0;F;14,0
6373;2:24:01;0;F;11,0
6375;1:03:22;0;M;1,0
6377;0;0;F;
6379;1:32:53;0;M;6,0
6380;0;2 days, 2:34:00;M;43,0
6381;1:30:37;0;F;5,0
6382;0;3 days, 21:46:09;M;69,0
6383;2:24:14;0;M;13,0
6384;0;23:25:02;M;36,0
6385;1:26:55;0;F;14,0
6387;1:52:47;0;M;12,0
6389;0;0;F;1,0
6391;3:23:43;0;F;12,0
6392;0;0;M;1,0
6393;2:40:38;21:22:47;M;32,0
6394;4:28:11;0;M;9,0
6395;0;0;M;17,0
6397;1:36:19;0;F;15,0
6398;2:01:25;0;M;19,0
6399;1:46:26;0;F;3,0
6400;2:22:57;0;M;16,0
6403;1:39:39;0;M;8,0
6406;0:47:15;0;F;1,0
6407;0;0;F;
6408;1:26:33;0;M;4,0
6410;1:33:18;0;M;7,0
6411;1:22:29;0;F;4,0
6413;1:24:19;0;F;3,0
6415;1:44:19;0;M;5,0
6416;1:18:04;0;F;9,0
6417;3:39:08;0;M;7,0
6418;1:28:36;0;F;6,0
6421;1:38:27;0;M;11,0
6422;0;0;M;
6423;1:37:25;0;M;3,0
6424;1:31:23;0;F;17,0
6425;1:18:52;0;M;16,0
6427;0:13:21;0;M;3,0
6428;0:59:00;0;F;5,0
6429;0:58:38;0;F;6,0
6430;0;0;M;5,0
6431;0:52:13;0;F;3,0
6432;1:13:05;0;F;7,0
6433;1:57:17;0;M;17,0
6434;2:10:18;0;F;6,0
6435;2:23:34;0;M;6,0
6438;1:01:18;0;M;3,0
6440;2:32:31;0;M;3,0
6441;2:02:24;0;F;17,0
6442;1:27:07;0;M;6,0
6443;2:12:44;0;F;9,0
6444;1:58:01;0;F;3,0
6445;0:55:23;0;F;5,0
6447;1:37:52;0;F;6,0
6450;1:17:07;0;M;8,0
6451;1:58:00;0;F;8,0
6452;2:34:19;0;M;19,0
6453;2:35:05;0;F;17,0
6454;3:56:05;0;M;17,0
6455;1:30:30;0;M;19,0
6456;1:47:39;0;M;18,0
6457;2:17:34;0;M;18,0
6458;1:10:26;0;F;9,0
6459;0;0;F;
6461;0;5 days, 18:27:57;F;29,0
6462;5:45:31;0;M;20,0
6464;3:35:17;0;F;7,0
6465;1:17:12;0;F;15,0
6466;1:18:21;0;M;20,0
6467;18:50:49;0;F;28,0
6469;1:12:51;0;M;4,0
6473;1:42:22;0;F;6,0
6476;2:47:40;0;F;18,0
6479;0;0;M;1,0
6480;2:24:05;0;F;11,0
6482;0;0;M;14,0
6483;0;0;F;13,0
6484;0;20:53:28;F;33,0
6485;0;6 days, 10:51:15;F;62,0
6486;1:25:14;0;F;6,0
6487;5:03:38;0;F;9,0
6488;0;0;M;1,0
6490;1:19:34;0;M;2,0
6491;1:31:43;0;F;11,0
6492;1:41:46;0;F;15,0
6493;2:00:57;0;F;15,0
6494;4:02:39;0;M;15,0
6495;1:09:22;0;F;5,0
6496;2:04:52;0;F;2,0
6497;3:07:36;0;F;21,0
6498;3:32:23;0;M;21,0
6499;5:09:38;0;F;16,0
6500;2:37:02;0;F;11,0
6501;0;0;F;
6502;0;0;M;7,0
6503;0;0;M;11,0
6504;0;0;F;
6505;1:27:48;0;M;8,0
6508;2:07:16;0;F;12,0
6509;0;1 day, 3:42:55;F;36,0
6510;1:28:54;0;F;6,0
6511;0:58:50;0;M;2,0
6513;0;0;M;
6514;1:08:54;0;F;8,0
6516;1:56:45;0;M;16,0
6517;1:22:17;0;M;16,0
6518;5:15:09;0;M;9,0
6520;0;13 days, 20:09:31;M;150,0
6521;1:22:23;0;F;7,0
6522;0;0;M;
6523;1:59:53;0;M;22,0
6524;1:17:33;0;F;9,0
6525;2:06:14;0;F;3,0
6526;1:07:21;0;M;4,0
6528;1:34:37;0;M;6,0
6529;1:35:04;0;M;7,0
6531;1:34:44;0;M;6,0
6532;2:53:00;0;M;11,0
6533;1:14:52;0;M;10,0
6534;0;0;M;9,0
6535;3:19:36;0;M;16,0
6536;0;0;F;4,0
6537;0;1 day, 20:10:56;M;32,0
6538;1:13:17;0;F;14,0
6539;0;0;M;16,0
6540;5:04:34;0;M;17,0
6542;2:14:39;0;M;12,0
6543;1:08:47;0;M;7,0
6544;3:35:24;0;F;14,0
6545;2:28:01;0;F;12,0
6546;1:34:50;0;F;9,0
6547;2:01:04;0;F;6,0
6548;1:36:45;0;M;9,0
6549;1:29:37;0;M;1,0
6550;0;0;F;
6552;1:31:00;0;F;11,0
6553;1:25:16;0;M;10,0
6554;0;0;M;
6555;1:13:38;0;F;6,0
6556;1:03:53;0;M;2,0
6557;2:03:42;0;M;5,0
6559;0;0;F;
6560;2:00:45;0;M;17,0
6561;1:35:20;0;M;18,0
6562;2:26:08;0;M;18,0
6564;1:31:59;0;F;4,0
6569;2:10:55;0;M;13,0
6570;1:06:14;0;F;9,0
6571;1:21:27;0;F;15,0
6572;0:34:23;0;F;1,0
6573;0;0;M;9,0
6574;1:42:05;0;M;11,0
6575;4:24:03;0;F;14,0
6576;1:35:27;0;M;8,0
6577;1:27:26;0;F;7,0
6578;0;0;M;
6579;2:07:55;0;M;8,0
6580;1:08:06;0;M;14,0
6581;0:53:32;0;F;5,0
6582;5:11:20;0;M;3,0
6583;1:07:04;0;F;3,0
6584;2:09:02;0;F;21,0
6585;1:25:22;0;F;21,0
6586;1:49:22;0;F;14,0
6588;1:44:43;0;M;12,0
6589;1:05:02;0;F;8,0
6590;3:15:44;0;F;15,0
6591;1:21:02;0;M;17,0
6592;1:53:02;0;M;12,0
6593;1:15:47;0;F;17,0
6594;1:22:20;0;M;19,0
6595;2:28:58;0;M;10,0
6596;2:03:37;0;M;8,0
6597;1:17:54;0;F;11,0
6599;0;0;F;4,0
6600;0:57:10;0;F;2,0
6601;0;4 days, 3:05:00;M;38,0
6602;0;3 days, 16:35:00;M;52,0
6604;2:08:28;0;F;15,0
6605;1:28:13;0;F;15,0
6606;1:31:39;0;M;17,0
6607;2:16:21;0;F;14,0
6608;2:48:47;0;M;14,0
6609;1:21:44;0;M;4,0
6610;0;0;M;1,0
6613;1:09:08;0;F;4,0
6614;1:22:47;0;M;8,0
6615;1:11:10;0;F;13,0
6616;0;0;F;
6617;1:31:18;0;M;9,0
6618;1:25:36;0;F;2,0
6620;1:25:11;0;F;3,0
6621;1:16:30;0;F;8,0
6622;1:08:38;0;F;8,0
6623;1:10:08;0;M;6,0
6624;0;0;F;
6625;0;0;M;
6626;0:50:15;0;F;1,0
6629;0;0;F;
6630;2:47:34;0;F;17,0
6631;0;0;F;
6632;0:56:04;0;M;3,0
6633;0;0;F;8,0
6635;1:26:06;0;F;11,0
6636;1:17:57;0;F;9,0
6637;2:22:29;0;F;15,0
6638;1:18:07;0;M;5,0
6639;2:24:18;0;M;9,0
6640;1:41:32;0;F;10,0
6641;1:38:01;0;F;17,0
6642;1:28:21;0;F;16,0
6643;0:56:07;0;M;8,0
6644;1:13:58;0;F;12,0
6645;0;0;M;2,0
6646;2:34:01;0;F;10,0
6648;2:01:36;0;F;9,0
6649;0;0;F;
6650;0;15:05:29;M;14,0
6651;0;3 days, 2:56:04;F;74,0
6652;1:49:26;0;M;7,0
6653;0;2:29:02;F;1,0
6654;1:26:19;0;F;14,0
6655;0;0;F;1,0
6656;3:05:36;0;F;8,0
6657;2:14:32;0;F;6,0
6659;1:08:49;0;M;16,0
6661;2:50:26;0;F;20,0
6662;1:25:08;0;M;
6663;2:22:50;0;F;16,0
6664;1:04:16;0;M;7,0
6665;1:35:16;0;M;13,0
6667;1:41:16;0;F;6,0
6669;1:33:23;0;M;7,0
6671;1:24:39;0;M;3,0
6672;0;0;F;
6673;1:40:29;0;F;6,0
6674;0;0;M;
6675;1:41:55;0;F;11,0
6676;2:23:08;0;F;13,0
6677;2:18:00;0;M;20,0
6678;3:21:35;0;F;10,0
6679;2:56:16;0;M;15,0
6680;2:00:42;0;M;17,0
6683;1:50:40;0;M;17,0
6684;1:04:14;0;F;2,0
6685;1:57:11;0;M;16,0
6686;0;4 days, 15:20:55;F;25,0
6688;2:05:37;0;F;5,0
6689;2:14:02;0;M;18,0
6690;1:39:33;0;F;10,0
6691;1:07:36;0;M;12,0
6694;1:35:00;0;M;20,0
6695;0;0;M;
6696;2:09:31;0;F;16,0
6697;1:44:59;0;F;20,0
6698;1:42:38;0;M;17,0
6699;2:24:05;0;M;11,0
6700;2:07:56;0;F;19,0
6701;2:39:53;0;F;16,0
6702;2:00:21;0;M;9,0
6703;0;0;M;
6704;1:17:05;0;M;9,0
6705;0:25:18;0;M;5,0
6706;1:06:17;0;M;4,0
6707;0;0;F;
6708;0;21:36:06;M;32,0
6709;1:45:38;0;M;6,0
6710;2:00:12;1 day, 1:26:53;M;27,0
6712;1:36:22;0;F;15,0
6713;4:54:49;0;M;6,0
6714;5:30:06;0;M;10,0
6715;1:54:59;0;F;5,0
6716;1:29:58;0;F;7,0
6718;1:59:46;0;M;12,0
6719;1:43:29;0;M;7,0
6722;1:48:15;0;M;13,0
6724;2:27:06;0;F;15,0
6725;1:04:01;0;F;7,0
6726;1:17:41;0;F;11,0
6728;1:08:57;0;F;4,0
6729;2:23:19;0;M;14,0
6730;1:39:47;0;M;16,0
6732;0:49:58;0;M;5,0
6733;1:23:41;0;F;2,0
6734;1:48:59;18 days, 0:15:35;F;154,0
6736;1:48:00;0;M;5,0
6737;1:37:17;0;F;2,0
6738;1:16:09;0;F;1,0
6739;1:34:16;0;M;10,0
6740;1:50:51;0;M;24,0
6741;3:26:19;0;M;19,0
6743;1:06:59;0;F;8,0
6744;1:02:21;0;F;13,0
6745;0;0;F;1,0
6746;2:11:11;0;M;12,0
6747;2:05:43;0;M;13,0
6749;2:11:35;0;F;4,0
6750;1:37:25;0;M;3,0
6751;0;0;M;3,0
6752;2:34:48;0;M;9,0
6753;0;0;F;
6754;0;0;M;
6755;2:04:55;0;F;10,0
6756;0;0;F;
6757;1:25:59;0;M;15,0
6758;1:15:16;0;M;6,0
6759;1:38:59;0;M;8,0
6760;0;0;M;11,0
6761;0;3 days, 13:43:00;M;24,0
6762;2:05:34;0;F;5,0
6763;1:18:47;0;M;3,0
6764;1:27:19;0;F;3,0
6765;1:49:19;0;F;7,0
6766;3:00:45;0;F;23,0
6767;0;0;M;
6768;0;7 days, 16:51:05;M;75,0
6769;1:45:49;0;M;8,0
6770;1:41:48;0;M;8,0
6771;4:18:19;0;M;20,0
6772;1:59:44;0;F;17,0
6773;1:41:41;0;M;18,0
6774;3:25:47;0;F;16,0
6775;1:24:59;0;M;10,0
6776;1:04:13;0;M;18,0
6777;1:27:29;0;F;11,0
6778;1:45:15;0;M;13,0
6779;2:09:50;0;F;8,0
6780;4:58:08;0;M;23,0
6781;0;16:14:03;M;27,0
6782;0;1 day, 22:47:54;F;48,0
6783;1:35:06;0;M;15,0
6784;1:05:16;0;M;3,0
6785;0;0;F;
6786;2:42:44;0;F;18,0
6787;0;4 days, 4:26:54;M;27,0
6788;0;5 days, 22:15:00;M;50,0
6789;1:04:37;0;F;4,0
6790;0:28:24;0;M;4,0
6791;0:52:46;0;F;4,0
6792;1:36:00;0;F;8,0
6793;1:49:35;0;M;6,0
6794;1:44:01;0;M;6,0
6795;1:11:17;0;F;15,0
6796;1:45:22;0;M;12,0
6797;1:40:08;0;F;11,0
6798;0;0;F;12,0
6799;0;0;M;11,0
6800;0;0;M;16,0
6801;0;0;F;14,0
6802;0;1 day, 7:01:28;F;23,0
6804;0;0;M;
6806;2:09:42;0;F;5,0
6807;1:38:32;0;F;11,0
6808;1:46:29;0;M;8,0
6809;0;0;M;
6810;1:15:41;0;F;2,0
6811;3:16:22;0;M;14,0
6812;0;3 days, 21:45:00;M;29,0
6813;1:38:17;0;M;4,0
6814;0;1 day, 16:25:19;M;24,0
6815;1:56:16;0;F;22,0
6816;1:06:03;0;M;3,0
6817;0;0;M;6,0
6818;0;10 days, 0:17:32;M;171,0
6820;0;17 days, 7:40:16;M;49,0
6821;1:11:10;0;F;6,0
6822;2:37:03;0;F;13,0
6823;0;3 days, 0:16:24;F;69,0
6824;0;13:09:00;M;9,0
6827;1:20:49;0;F;7,0
6830;0;1 day, 22:50:05;M;49,0
6831;1:43:45;0;F;8,0
6834;2:53:29;0;F;11,0
6835;0;1 day, 10:08:33;M;27,0
6836;2:29:27;0;M;9,0
6837;3:13:02;0;F;3,0
6838;1:36:10;0;M;9,0
6840;3:14:39;0;M;20,0
6841;2:12:03;0;M;24,0
6842;1:21:39;0;M;2,0
6843;2:04:29;0;M;4,0
6844;0;0;M;
6845;1:43:30;0;M;5,0
6846;6:11:12;0;M;17,0
6848;1:08:03;0;F;4,0
6849;1:19:43;0;F;4,0
6851;1:09:30;0;M;6,0
6852;1:29:12;0;F;7,0
6854;1:12:11;0;M;10,0
6855;1:42:11;0;M;4,0
6856;1:24:51;0;F;11,0
6857;1:37:06;0;F;8,0
6859;1:03:46;0;F;5,0
6860;1:47:55;0;F;5,0
6862;1:37:42;0;M;4,0
6865;0;2 days, 13:05:00;M;32,0
6866;0;0;M;
6868;0;5 days, 1:41:32;M;52,0
6869;2:50:02;0;F;18,0
6870;2:09:18;0;F;17,0
6871;5:47:47;0;M;20,0
6872;2:04:28;0;M;6,0
6873;1:57:04;0;F;5,0
6875;0;25 days, 4:54:00;F;139,0
6877;1:25:32;0;F;4,0
6878;0;0;F;
6880;1:51:15;0;M;3,0
6881;1:28:50;0;M;17,0
6883;0;0;F;
6884;2:11:51;0;M;11,0
6886;2:10:56;0;F;6,0
6890;0:06:36;0;F;
6891;1:12:41;0;M;4,0
6894;9:31:58;1 day, 23:39:00;F;62,0
6898;1:17:57;0;F;6,0
6901;0;0;F;
6902;0;22:10:28;M;33,0
6904;2:58:20;0;M;2,0
6905;0:41:19;0;F;7,0
6906;1:36:52;0;M;7,0
6907;0;0;F;
6908;1:12:03;0;F;5,0
6909;1:04:05;0;M;7,0
6912;0;0;F;1,0
6913;1:19:36;0;M;10,0
6914;2:29:36;0;M;11,0
6915;0:56:26;0;F;13,0
6916;1:27:00;0;F;5,0
6919;0;0;F;
6921;1:46:58;0;M;4,0
6923;0;0;F;
6924;0;0;F;
6925;3:54:20;0;M;13,0
6927;1:33:20;0;M;5,0
6928;1:04:51;0;M;3,0
6929;1:11:04;0;M;3,0
6930;0:43:03;0;M;9,0
6932;1:21:57;0;F;2,0
6933;1:26:23;0;F;1,0
6934;0:26:24;0;M;2,0
6935;0:41:49;0;F;4,0
6936;0:54:06;0;F;4,0
6937;1:30:21;0;F;3,0
6938;0:57:13;0;M;11,0
6939;1:00:49;0;M;3,0
6940;1:16:46;0;F;11,0
6941;1:04:25;0;F;5,0
6942;2:10:02;0;F;10,0
6943;1:56:30;0;M;6,0
6944;1:16:49;0;M;4,0
6945;1:12:41;0;F;6,0
6946;0:54:11;0;M;4,0
6947;1:27:53;0;M;4,0
6948;1:34:07;0;M;4,0
6949;1:05:29;0;F;3,0
6950;2:18:58;0;M;
6951;1:44:05;0;M;15,0
6952;2:32:14;0;F;16,0
6953;2:10:18;0;M;16,0
6954;1:05:48;0;F;1,0
6955;1:30:36;0;M;11,0
6956;2:28:22;0;M;21,0
6957;1:40:10;0;M;7,0
6958;0:48:26;0;F;9,0
6959;0:48:18;0;F;8,0
6960;1:25:28;0;M;11,0
6962;1:27:29;0;F;4,0
6964;1:08:17;0;M;11,0
6965;1:20:10;0;F;11,0
6966;1:56:50;0;M;14,0
6967;0;0;F;19,0
6969;1:39:02;0;F;11,0
6970;1:19:26;0;F;5,0
6971;1:10:47;0;F;5,0
6972;1:58:40;0;M;8,0
6973;1:01:36;0;M;3,0
6974;0;2 days, 23:19:00;F;22,0
6975;1:07:13;0;M;7,0
6977;0;0;M;
6978;0;0;F;
6979;0;10 days, 19:19:20;F;78,0
6980;4:03:56;0;M;13,0
6981;0;1 day, 17:29:00;M;24,0
6982;2:00:24;0;F;13,0
6983;2:05:10;0;M;7,0
6984;1:08:32;0;F;9,0
6988;1:31:37;0;F;6,0
6990;2:21:18;0;M;7,0
6992;0;1 day, 9:30:00;M;31,0
6993;2:10:28;0;F;19,0
6994;0;0;F;
6996;1:52:35;0;F;15,0
6997;1:25:23;0;F;7,0
6998;1:04:04;0;F;4,0
6999;1:34:09;0;F;7,0
7000;0;22 days, 5:03:00;F;91,0
7001;1:52:49;0;F;9,0
7002;1:07:16;0;F;13,0
7003;0;0;M;
7004;1:15:04;0;F;5,0
7005;1:28:16;0;M;5,0
7009;1:01:00;0;M;2,0
7012;2:15:33;0;F;6,0
7013;0;0;F;
7014;1:15:01;0;M;8,0
7015;4:05:24;0;M;21,0
7016;0;0;M;
7018;1:27:31;0;F;8,0
7019;1:11:20;0;M;4,0
7020;0;0;F;2,0
7021;2:08:01;0;F;13,0
7022;1:18:47;0;F;2,0
7023;0:52:18;0;M;4,0
7024;2:54:49;0;M;11,0
7025;2:22:45;0;F;11,0
7026;0:40:11;0;M;3,0
7027;1:15:38;0;M;7,0
7028;0:58:15;0;F;5,0
7029;0:55:30;0;F;3,0
7030;0;0;F;
7031;0;0;M;
7032;1:40:16;0;F;12,0
7033;1:34:30;0;M;3,0
7034;1:18:26;0;F;4,0
7035;1:27:42;0;F;4,0
7037;1:52:19;0;F;6,0
7040;0;3 days, 8:29:41;F;75,0
7041;1:44:14;0;F;6,0
7042;0;0;M;1,0
7043;0;10 days, 17:02:53;F;39,0
7044;1:11:52;0;F;8,0
7046;1:58:35;0;F;9,0
7047;1:46:11;0;M;11,0
7048;2:17:18;0;M;9,0
7050;3:19:21;0;M;11,0
7051;2:24:57;0;F;19,0
7052;2:12:38;0;M;8,0
7053;1:16:36;0;F;6,0
7054;1:53:39;0;F;9,0
7055;1:35:09;0;M;8,0
7056;1:30:01;0;M;13,0
7057;0;0;M;1,0
7058;3:56:05;0;M;18,0
7059;0;23:53:56;F;18,0
7060;1:17:14;0;M;3,0
7062;1:53:51;0;M;13,0
7063;0;0;F;
7064;2:16:46;0;F;10,0
7065;1:31:12;0;M;7,0
7066;2:10:54;0;F;10,0
7067;2:39:38;0;M;10,0
7068;0:59:32;0;F;1,0
7069;3:48:19;0;M;12,0
7072;2:02:58;0;F;15,0
7074;0;0;M;
7076;0:51:37;0;M;3,0
7077;1:07:45;0;M;11,0
7078;1:51:42;0;F;8,0
7079;0;0;M;3,0
7080;1:59:42;0;F;13,0
7081;1:18:39;0;F;11,0
7082;2:03:47;0;M;12,0
7084;0;0;F;2,0
7085;0;0;M;
7086;2:18:24;0;M;13,0
7088;3:08:45;0;F;14,0
7090;1:13:15;0;F;2,0
7091;0:53:49;0;M;3,0
7092;1:24:59;0;F;9,0
7093;0;0;M;
7094;2:13:39;0;F;10,0
7095;0;0;M;
7096;0;0;M;
7097;2:32:23;0;F;9,0
7098;2:14:01;0;F;3,0
7099;2:03:33;0;M;14,0
7100;1:28:53;0;F;6,0
7102;1:42:55;0;M;5,0
7104;3:02:52;0;M;12,0
7105;1:11:27;0;M;14,0
7106;0;13 days, 6:29:00;F;89,0
7109;1:11:56;0;M;4,0
7110;0;9 days, 23:35:00;F;58,0
7111;1:19:01;0;M;11,0
7112;0;0;M;
7114;2:08:28;0;M;8,0
7115;1:18:46;0;F;5,0
7116;0;0;M;
7117;2:02:40;0;F;5,0
7119;1:15:02;0;F;7,0
7120;2:28:35;0;M;10,0
7121;0;4 days, 22:42:00;F;44,0
7122;0;0;M;
7123;0;0;F;
7124;0;0;F;2,0
7125;2:10:53;0;M;17,0
7126;0;0;M;
7128;0;0;M;
7129;1:08:38;0;F;5,0
7132;1:27:12;0;M;19,0
7134;1:16:08;0;M;3,0
7135;1:11:55;0;M;4,0
7137;1:40:47;0;F;15,0
7138;2:03:57;0;M;6,0
7139;1:16:05;0;M;8,0
7140;2:15:08;0;M;17,0
7141;0:21:21;0;F;6,0
7142;0:29:04;0;F;5,0
7143;0;0;F;1,0
7144;3:04:31;0;F;18,0
7145;1:52:35;0;F;20,0
7146;0;0;M;4,0
7147;1:45:19;0;F;3,0
7148;0;0;M;1,0
7150;1:32:23;0;M;16,0
7152;0;0;F;
7155;0;3 days, 9:48:26;M;55,0
7156;1:35:41;0;F;14,0
7157;1:01:43;0;F;2,0
7158;1:00:53;0;F;1,0
7159;1:35:23;0;M;18,0
7160;1:17:08;0;M;10,0
7161;1:08:44;0;M;1,0
7162;2:12:08;0;F;3,0
7165;0:24:59;0;F;2,0
7166;0:47:03;0;M;5,0
7167;1:24:12;0;F;12,0
7168;0;0;F;
7170;1:41:58;0;F;5,0
7171;0:52:14;0;F;5,0
7173;2:11:07;0;M;5,0
7174;0;0;M;
7175;1:30:44;0;M;6,0
7176;1:25:07;0;M;8,0
7177;1:26:46;0;M;2,0
7179;2:43:12;0;F;9,0
7182;1:18:12;0;M;11,0
7183;0;0;F;1,0
7184;1:26:41;0;F;7,0
7185;21:12:07;0;M;17,0
7187;0;3 days, 20:17:44;F;91,0
7188;0;0;F;
7189;2:44:06;0;M;24,0
7190;1:48:59;0;M;3,0
7192;0;0;M;2,0
7193;1:22:10;0;M;20,0
7194;1:46:22;0;F;2,0
7195;7:02:23;0;F;21,0
7198;2:30:30;0;F;19,0
7199;17:44:45;0;M;16,0
7200;1:34:02;0;F;9,0
7203;1:41:51;0;M;10,0
7204;0;12 days, 16:33:09;M;107,0
7205;2:16:25;0;M;3,0
7206;0;0;F;
7207;1:33:18;0;F;6,0
7210;2:13:06;0;F;15,0
7211;2:30:02;0;M;5,0
7212;0;0;F;
7213;2:19:14;0;F;4,0
7214;0;0;M;
7215;2:10:38;0;F;5,0
7217;1:44:08;0;M;6,0
7218;0;0;M;
7219;1:25:55;0;F;1,0
7220;1:35:09;0;F;20,0
7222;1:25:46;0;M;20,0
7223;1:18:57;0;F;7,0
7224;1:22:06;0;F;12,0
7225;1:12:56;0;M;7,0
7226;0;0;F;
7227;1:03:20;0;M;13,0
7228;1:20:18;0;F;4,0
7229;2:08:35;0;M;15,0
7230;1:22:52;0;F;7,0
7231;1:42:22;0;M;11,0
7233;0:09:19;0;M;8,0
7234;0;8 days, 9:08:00;M;122,0
7235;0;0;M;
7237;0;0;F;
7240;1:29:06;0;F;8,0
7241;1:22:55;0;F;8,0
7242;2:03:18;0;M;7,0
7243;1:22:53;0;F;10,0
7244;3:30:18;0;M;10,0
7245;1:14:16;0;F;8,0
7246;1:38:59;0;M;15,0
7247;1:34:16;0;M;17,0
7248;1:49:09;0;F;11,0
7249;0;0;M;
7251;2:56:20;0;F;9,0
7252;1:14:34;0;F;13,0
7253;0;0;M;
7254;1:54:51;0;F;7,0
7255;2:18:10;0;M;16,0
7256;0;1 day, 21:52:01;F;16,0
7257;2:41:04;0;M;13,0
7261;1:54:08;0;M;13,0
7264;0;0;F;
7266;0;0;M;
7267;0;1 day, 7:31:00;F;4,0
7269;2:03:09;0;M;14,0
7271;1:37:13;0;F;4,0
7272;1:47:01;0;F;
7273;0;0;F;1,0
7276;0:49:10;0;F;3,0
7278;1:35:22;0;F;8,0
7280;1:13:56;0;M;6,0
7281;2:27:39;0;F;8,0
7282;1:20:37;0;M;5,0
7283;1:42:33;0;M;4,0
7284;1:46:57;0;F;5,0
7285;2:11:04;0;F;14,0
7286;1:44:11;0;M;9,0
7287;2:36:54;0;F;9,0
7288;2:17:57;0;M;8,0
7289;1:55:44;0;M;8,0
7290;1:52:22;0;F;23,0
7292;0;1 day, 21:47:49;M;46,0
7294;0;0;F;
7296;7:23:12;0;F;16,0
7297;1:42:35;0;M;16,0
7299;2:19:23;0;M;16,0
7301;3:33:16;0;F;9,0
7302;0;5 days, 20:50:48;M;95,0
7304;2:20:34;0;M;9,0
7305;1:04:40;0;F;6,0
7309;3:03:25;0;F;15,0
7310;1:22:47;0;M;14,0
7311;1:26:16;0;F;12,0
7312;4:21:20;0;F;1,0
7313;1:30:21;0;M;16,0
7314;1:26:42;0;M;8,0
7315;0;0;F;16,0
7316;2:19:10;0;F;13,0
7317;1:38:56;0;M;4,0
7318;2:09:39;0;F;13,0
7319;0;0;F;8,0
7320;0;26 days, 17:11:00;M;122,0
7321;1:23:59;0;F;16,0
7322;1:17:40;0;F;3,0
7323;1:34:35;0;F;18,0
7324;1:21:47;0;F;13,0
7325;0;9:26:00;F;11,0
7326;4:06:19;0;M;16,0
7327;3:04:10;0;M;14,0
7328;2:14:41;0;F;10,0
7329;0;0;M;
7330;0;0;M;
7332;1:16:46;0;F;9,0
7333;0;0;M;
7334;1:08:46;0;M;6,0
7335;2:02:44;0;F;25,0
7336;1:47:06;0;M;15,0
7337;10:37:33;15:54:09;F;35,0
7340;0;0;F;
7341;1:19:06;0;M;4,0
7343;1:08:08;0;M;8,0
7345;0;21 days, 11:19:22;M;107,0
7346;0;6 days, 20:09:00;M;97,0
7347;1:28:00;0;M;18,0
7348;2:28:09;0;F;17,0
7349;3:36:30;0;M;7,0
7350;1:30:51;0;M;4,0
7351;1:33:02;0;M;17,0
7352;1:57:47;0;M;15,0
7353;3:06:50;0;F;2,0
7356;0;0;F;
7357;1:43:35;0;M;14,0
7359;0;0;M;6,0
7360;1:33:27;0;M;13,0
7361;1:53:13;0;F;14,0
7362;2:34:50;0;M;11,0
7364;2:25:15;0;F;6,0
7365;1:06:24;0;M;7,0
7366;1:12:20;0;M;5,0
7367;1:46:39;0;F;4,0
7368;2:28:48;0;F;5,0
7369;0;23:46:25;M;32,0
7370;1:59:05;0;F;14,0
7372;1:47:32;0;F;16,0
7373;1:21:09;0;M;14,0
7375;0;0;M;10,0
7377;0:57:12;0;F;1,0
7378;1:31:42;0;F;7,0
7379;1:40:28;0;F;7,0
7382;2:48:19;0;M;7,0
7383;2:19:18;0;M;7,0
7384;0;2 days, 21:54:27;F;55,0
7386;0;0;M;
7387;0;0;M;
7389;1:42:57;0;M;8,0
7390;1:54:46;0;F;8,0
7391;3:49:56;0;F;8,0
7392;0:38:59;0;M;6,0
7394;1:36:19;0;M;13,0
7396;1:11:55;0;F;5,0
7397;0;0;M;
7399;0;0;M;
7400;1:50:43;0;M;11,0
7401;1:05:39;0;M;3,0
7402;1:13:18;0;M;5,0
7404;1:36:51;0;F;8,0
7405;1:13:53;0;M;13,0
7406;0;0;F;
7407;3:17:18;0;F;7,0
7408;1:08:12;2 days, 11:27:42;F;53,0
7409;0;0;F;
7410;1:50:48;0;M;15,0
7411;1:32:29;0;M;10,0
7412;0;0;F;17,0
7413;3:38:15;0;M;25,0
7414;2:20:11;0;F;17,0
7415;1:38:00;0;M;5,0
7417;1:26:39;0;M;7,0
7418;1:11:22;0;F;9,0
7421;1:38:51;0;F;3,0
7422;10:56:56;0;M;3,0
7423;1:46:30;0;M;6,0
7424;1:44:44;0;F;8,0
7426;0;0;F;
7428;1:27:58;0;F;19,0
7429;1:36:42;0;F;17,0
7430;1:19:52;0;F;13,0
7431;1:58:40;0;F;17,0
7432;4:56:03;0;M;12,0
7434;5:17:55;1 day, 23:38:13;M;57,0
7435;0:01:16;0;F;
7436;0;0;F;7,0
7437;1:08:48;0;M;4,0
7438;0;0;M;
7439;1:13:56;0;M;16,0
7440;4:19:41;2 days, 11:51:33;F;38,0
7441;2:17:23;0;M;8,0
7443;0:12:40;0;M;2,0
7444;1:20:28;0;F;9,0
7445;1:50:28;0;M;12,0
7446;2:25:20;0;M;10,0
7447;1:22:34;0;F;8,0
7448;2:07:14;0;M;9,0
7449;1:49:39;0;M;8,0
7450;2:27:28;0;M;4,0
7451;0;0;M;1,0
7453;1:18:13;0;M;13,0
7454;1:25:44;0;M;4,0
7455;0;1 day, 13:14:00;M;13,0
7457;2:21:41;0;M;6,0
7458;8:04:11;0;F;11,0
7460;2:27:20;0;M;14,0
7461;1:59:07;0;F;11,0
7462;1:35:03;0;M;6,0
7463;3:51:03;0;M;11,0
7464;2:04:45;0;M;10,0
7465;1:53:27;0;F;8,0
7466;1:59:26;0;F;12,0
7467;1:49:59;0;M;15,0
7468;3:16:11;0;M;12,0
7469;2:50:28;0;M;13,0
7471;1:11:07;0;F;5,0
7472;0;0;F;
7473;2:01:48;0;F;15,0
7474;1:19:11;0;M;16,0
7475;4:47:05;0;F;15,0
7476;1:26:38;0;F;17,0
7479;1:16:28;0;M;14,0
7481;0;0;M;
7482;1:52:37;0;F;9,0
7484;1:29:19;0;M;13,0
7485;0;0;M;2,0
7486;3:03:36;0;F;7,0
7487;0:54:37;0;F;3,0
7488;2:23:17;0;F;4,0
7489;1:10:28;0;F;6,0
7491;1:18:16;0;F;4,0
7492;1:33:41;0;M;5,0
7493;1:02:04;0;M;3,0
7494;1:48:00;0;F;4,0
7495;0;0;M;
7498;1:31:31;0;F;4,0
7499;1:18:08;0;F;7,0
7501;0;2 days, 2:07:08;M;73,0
